prologues:=3;
outputformat:="svg";
outputtemplate:=("%j" & "." & outputformat);
verbatimtex
%&latex
\documentclass{minimal}
\begin{document}
etex
beginfig(0);
z1=(1.6cm,0.1cm);
z2=(1.6cm,2.85cm);
z3=(-0.6cm,1cm);
z4=(0.5cm,2.1cm);
z5=(0.5cm,-0.1cm);
z6=(1.6cm,1cm);
pickup pencircle scaled 8;
linejoin:=rounded; linecap:=butt;
draw z2--z1;
draw z6{dir 180}..{dir 90}z4{dir 270}..{dir 180}z3{dir 0}..{dir 270}z5{dir 90}..{dir 0}z6;
endfig;
end
