<?xml version="1.0"?>
<!-- Created by MetaPost 2.000 on 2022.03.30:1608 -->
<svg version="1.1" xmlns="http://www.w3.org/2000/svg" xmlns:xlink="http://www.w3.org/1999/xlink" width="70.362534" height="91.622375" viewBox="0 0 70.362534 91.622375">
<!-- Original BoundingBox: -21.008041 -6.834824 49.354492 84.787552 -->
  <path d="M66.354492 3.212448L66.354492 81.165176" style="stroke:rgb(0.000000%,0.000000%,0.000000%); stroke-width: 8.000000;stroke-linejoin: round;stroke-miterlimit: 10.000000;fill: none;"></path>
  <path d="M66.354492 55.653549C49.133560 55.653549,35.173233 41.693207,35.173233 24.472275C35.173233 41.693222,21.212906 55.653549,3.991959 55.653549C21.212906 55.653549,35.173233 69.613876,35.173233 86.834824C35.173233 69.613892,49.133560 55.653549,66.354492 55.653549" style="stroke:rgb(0.000000%,0.000000%,0.000000%); stroke-width: 8.000000;stroke-linejoin: round;stroke-miterlimit: 10.000000;fill: none;"></path>
</svg>
