<?xml version="1.0"?>
<!-- Created by MetaPost 2.000 on 2022.03.30:1612 -->
<svg version="1.1" xmlns="http://www.w3.org/2000/svg" xmlns:xlink="http://www.w3.org/1999/xlink" width="50.519684" height="90.204529" viewBox="0 0 50.519684 90.204529">
<!-- Original BoundingBox: -12.504028 -4.000000 38.015656 86.204529 -->
  <path d="M46.015656 3.795471C24.559799 3.795486,13.745880 21.257889,23.338409 29.307098C23.338409 48.767929,12.000000 66.539169,12.000000 86.000000" style="stroke:rgb(0.000000%,0.000000%,0.000000%); stroke-width: 8.000000;stroke-linejoin: round;stroke-miterlimit: 10.000000;fill: none;"></path>
  <path d="M3.495972 29.307098L40.346451 29.307098" style="stroke:rgb(0.000000%,0.000000%,0.000000%); stroke-width: 8.000000;stroke-linejoin: round;stroke-miterlimit: 10.000000;fill: none;"></path>
</svg>
