<?xml version="1.0"?>
<!-- Created by MetaPost 2.000 on 2022.03.30:1613 -->
<svg version="1.1" xmlns="http://www.w3.org/2000/svg" xmlns:xlink="http://www.w3.org/1999/xlink" width="59.023697" height="107.212997" viewBox="0 0 59.023697 107.212997">
<!-- Original BoundingBox: -4.000000 -46.520096 55.023697 60.692902 -->
  <path d="M46.519684 17.480316C46.519684 25.914200,36.462524 29.349030,26.677246 28.818726C18.256897 28.362381,9.669205 24.987183,9.669205 17.480316C9.669205 9.973450,18.256897 6.598267,26.677246 6.141922C36.462509 5.611603,46.519684 9.046448,46.519684 17.480316Z" style="stroke:rgb(0.000000%,0.000000%,0.000000%); stroke-width: 8.000000;stroke-linejoin: round;stroke-miterlimit: 10.000000;fill: none;"></path>
  <path d="M32.346451 60.000000C19.960587 58.907837,9.377609 68.829346,9.669205 81.259842C9.950058 93.232529,20.187317 102.448380,32.346451 102.519684C44.624710 102.591675,55.023697 93.292969,55.023697 81.259842C55.023697 68.953629,44.627075 59.206833,32.346451 60.000000L4.000000 60.000000L49.354492 34.488373L49.354492 3.307098" style="stroke:rgb(0.000000%,0.000000%,0.000000%); stroke-width: 8.000000;stroke-linejoin: round;stroke-miterlimit: 10.000000;fill: none;"></path>
</svg>
