prologues:=3;
outputformat:="svg";
outputtemplate:=("%j" & "." & outputformat);
verbatimtex
%&latex
\documentclass{minimal}
\begin{document}
etex
beginfig(0);
z1=(0cm,0cm);
z2=(0cm,3cm);
z3=(0cm,1cm);
z4=(0.8cm,2cm);
z5=(-0.45cm,1.25cm);
z6=(1.2cm,0cm);
pickup pencircle scaled 8;
linejoin:=rounded; linecap:=butt;
draw z1--z2;
draw z4--z5;
draw z3--z6;
endfig;
end
