<?xml version="1.0"?>
<!-- Created by MetaPost 2.000 on 2022.03.30:1624 -->
<svg version="1.1" xmlns="http://www.w3.org/2000/svg" xmlns:xlink="http://www.w3.org/1999/xlink" width="67.527725" height="84.535324" viewBox="0 0 67.527725 84.535324">
<!-- Original BoundingBox: -26.677246 -1.165176 40.850479 83.370148 -->
  <path d="M3.322754 80.165176C23.066132 80.165176,43.008041 72.061218,43.008041 54.653549C68.844223 39.737061,59.427200 3.629852,34.504028 3.629852C22.371704 3.629837,16.861038 18.638474,26.000000 26.307098C6.092285 43.011932,24.012482 80.165176,62.850479 80.165176" style="stroke:rgb(0.000000%,0.000000%,0.000000%); stroke-width: 8.000000;stroke-linejoin: round;stroke-miterlimit: 10.000000;fill: none;"></path>
</svg>
