<?xml version="1.0"?>
<!-- Created by MetaPost 2.000 on 2022.03.30:1631 -->
<svg version="1.1" xmlns="http://www.w3.org/2000/svg" xmlns:xlink="http://www.w3.org/1999/xlink" width="64.001236" height="61.547760" viewBox="0 0 64.001236 61.547760">
<!-- Original BoundingBox: 4.030411 -1.010208 64.001236 60.537552 -->
  <path d="M17.008041 34.488373C17.008041 13.022095,29.679993 -2.253296,39.684860 6.141922C60.347855 -5.787827,67.215256 25.984344,51.023697 25.984344C51.023697 45.441376,39.821625 60.955978,28.346451 54.330795C7.683762 66.260376,0.816376 34.488373,17.008041 34.488373" style="stroke:rgb(0.000000%,0.000000%,0.000000%); stroke-width: 8.000000;stroke-linejoin: round;stroke-miterlimit: 10.000000;fill: none;"></path>
</svg>
