This is MetaPost, version 2.000 (TeX Live 2017/Debian) (kpathsea version 6.2.3)  30 MAR 2022 16:32
**111_3.mp
(/usr/share/texlive/texmf-dist/metapost/base/mpost.mp
(/usr/share/texlive/texmf-dist/metapost/base/plain.mp
Preloading the plain mem file, version 1.005) ) (./111_3.mp [0] )
1 output file written: 111_3.svg

