<?xml version="1.0"?>
<!-- Created by MetaPost 2.000 on 2022.03.30:1632 -->
<svg version="1.1" xmlns="http://www.w3.org/2000/svg" xmlns:xlink="http://www.w3.org/1999/xlink" width="64.692902" height="70.362549" viewBox="0 0 64.692902 70.362549">
<!-- Original BoundingBox: -4.000000 -6.834824 60.692902 63.527725 -->
  <path d="M4.000000 34.653549C20.197464 34.653549,32.346451 20.201294,32.346451 3.472275" style="stroke:rgb(0.000000%,0.000000%,0.000000%); stroke-width: 8.000000;stroke-linejoin: round;stroke-miterlimit: 10.000000;fill: none;"></path>
  <path d="M32.346451 3.472275C32.346451 20.201294,44.495438 34.653549,60.692902 34.653549" style="stroke:rgb(0.000000%,0.000000%,0.000000%); stroke-width: 8.000000;stroke-linejoin: round;stroke-miterlimit: 10.000000;fill: none;"></path>
  <path d="M60.692902 34.653549C43.897339 34.653549,49.142014 65.834824,32.346451 65.834824" style="stroke:rgb(0.000000%,0.000000%,0.000000%); stroke-width: 8.000000;stroke-linejoin: round;stroke-miterlimit: 10.000000;fill: none;"></path>
  <path d="M32.346451 65.834824C33.942505 49.115265,20.795563 34.653549,4.000000 34.653549" style="stroke:rgb(0.000000%,0.000000%,0.000000%); stroke-width: 8.000000;stroke-linejoin: round;stroke-miterlimit: 10.000000;fill: none;"></path>
</svg>
