<?xml version="1.0"?>
<!-- Created by MetaPost 2.000 on 2022.03.30:1635 -->
<svg version="1.1" xmlns="http://www.w3.org/2000/svg" xmlns:xlink="http://www.w3.org/1999/xlink" width="43.433060" height="64.692902" viewBox="0 0 43.433060 64.692902">
<!-- Original BoundingBox: -4.000000 -4.000000 39.433060 60.692902 -->
  <path d="M4.000000 60.000000L4.000000 3.307098" style="stroke:rgb(0.000000%,0.000000%,0.000000%); stroke-width: 8.000000;stroke-linejoin: round;stroke-miterlimit: 10.000000;fill: none;"></path>
  <path d="M4.000000 27.401749L39.433060 6.141922" style="stroke:rgb(0.000000%,0.000000%,0.000000%); stroke-width: 8.000000;stroke-linejoin: round;stroke-miterlimit: 10.000000;fill: none;"></path>
</svg>
