<?xml version="1.0" encoding="UTF-8" standalone="no"?>
<!-- Created by MetaPost 2.000 on 2021.10.02:1757 -->

<svg
   xmlns:dc="http://purl.org/dc/elements/1.1/"
   xmlns:cc="http://creativecommons.org/ns#"
   xmlns:rdf="http://www.w3.org/1999/02/22-rdf-syntax-ns#"
   xmlns:svg="http://www.w3.org/2000/svg"
   xmlns="http://www.w3.org/2000/svg"
   xmlns:sodipodi="http://sodipodi.sourceforge.net/DTD/sodipodi-0.dtd"
   xmlns:inkscape="http://www.inkscape.org/namespaces/inkscape"
   version="1.1"
   width="50.519684"
   height="78.866135"
   viewBox="0 0 50.519684 78.866135"
   id="svg6"
   sodipodi:docname="116_2.svg"
   inkscape:version="0.92.3 (2405546, 2018-03-11)">
  <metadata
     id="metadata12">
    <rdf:RDF>
      <cc:Work
         rdf:about="">
        <dc:format>image/svg+xml</dc:format>
        <dc:type
           rdf:resource="http://purl.org/dc/dcmitype/StillImage" />
      </cc:Work>
    </rdf:RDF>
  </metadata>
  <defs
     id="defs10">
    <inkscape:path-effect
       effect="taper_stroke"
       id="path-effect824"
       is_visible="true"
       stroke_width="8"
       attach_start="0.2"
       end_offset="0.2"
       smoothing="0.7"
       jointype="extrapolated"
       miter_limit="100" />
    <inkscape:path-effect
       effect="taper_stroke"
       id="path-effect822"
       is_visible="true"
       stroke_width="8"
       attach_start="0.2"
       end_offset="0.2"
       smoothing="0.7"
       jointype="extrapolated"
       miter_limit="100" />
  </defs>
  <sodipodi:namedview
     pagecolor="#ffffff"
     bordercolor="#666666"
     borderopacity="1"
     objecttolerance="10"
     gridtolerance="10"
     guidetolerance="10"
     inkscape:pageopacity="0"
     inkscape:pageshadow="2"
     inkscape:window-width="1853"
     inkscape:window-height="1025"
     id="namedview8"
     showgrid="false"
     inkscape:zoom="2.9924124"
     inkscape:cx="-51.267043"
     inkscape:cy="39.433067"
     inkscape:window-x="67"
     inkscape:window-y="27"
     inkscape:window-maximized="1"
     inkscape:current-layer="svg6" />
  <!-- Original BoundingBox: -9.669205 -4.000000 40.850479 74.866135 -->
  <path
     d="m 24.573963,68.024998 c 1.078923,1.927631 2.424026,3.245806 3.572251,4.272556 C 29.292133,73.322244 30.259842,74 30.259842,74 c 0,0 1.056357,-0.581863 1.839773,-2.246852 0.75225,-1.598753 1.249749,-4.526 -0.575941,-7.690663 C 28.272603,58.360545 23.212253,54.352534 19.349597,50.384776 17.418269,48.400897 15.781603,46.463695 14.685879,44.541943 13.590155,42.620191 13,40.768527 13,38.56694 c 0,-2.201591 0.590156,-4.053256 1.68588,-5.975009 1.095724,-1.921752 2.732389,-3.858955 4.663717,-5.842834 3.862656,-3.967758 8.923006,-7.975769 12.174078,-13.677711 1.82569,-3.1646663 1.32819,-6.0919139 0.57594,-7.6906681 C 31.316199,3.7157288 30.259842,3.133865 30.259842,3.133865 c 0,0 -0.967709,0.6777566 -2.113628,1.7024473 C 26.997989,5.8630642 25.652887,7.1812416 24.573962,9.1088744 22.382514,12.95238 17.918455,16.750517 13.617331,21.168674 11.46677,23.377752 9.3617031,25.778448 7.7361674,28.62942 6.1106316,31.480391 5,34.836274 5,38.56694 c 0,3.730664 1.110632,7.086546 2.7361677,9.937516 1.6255358,2.85097 3.7306023,5.251666 5.8811633,7.460744 4.301124,4.418156 8.765184,8.216294 10.956632,12.059798 z"
     style="stroke:none;stroke-width:8;stroke-linecap:round;stroke-linejoin:round;stroke-miterlimit:10;fill:#000000;fill-rule:nonzero"
     id="path2"
     inkscape:path-effect="#path-effect822"
     inkscape:original-d="M30.259842 74.000000C30.259842 59.169373,9.000000 53.397568,9.000000 38.566940C9.000000 23.736298,30.259842 17.964508,30.259842 3.133865" />
  <path
     d="m 20.305427,17.802279 c -2.778006,0.763502 -4.361679,2.406047 -5.218059,3.75149 -0.868799,1.364956 -1.06286,2.505759 -1.06286,2.505759 0,0 0.890515,0.734565 2.39029,1.268374 1.523156,0.542131 3.564053,0.855033 6.002839,0.190501 6.105147,-1.671221 9.628279,-1.671221 15.733426,0 2.438786,0.664532 4.479683,0.35163 6.002839,-0.190501 1.499775,-0.533809 2.39029,-1.268374 2.39029,-1.268374 0,0 -0.194061,-1.140803 -1.06286,-2.505759 -0.85638,-1.345443 -2.440053,-2.987988 -5.218059,-3.75149 -7.041575,-1.927559 -12.916271,-1.927559 -19.957846,0 z"
     style="fill:#000000;fill-rule:nonzero;stroke:none;stroke-width:8;stroke-linecap:round;stroke-linejoin:round;stroke-miterlimit:10"
     id="path4"
     inkscape:path-effect="#path-effect824"
     inkscape:original-d="m 14.024508,24.059528 c 13.732559,-4.998306 18.787125,-4.998306 32.519684,0"
     inkscape:connector-curvature="0"
     sodipodi:nodetypes="cc" />
</svg>
