<?xml version="1.0"?>
<!-- Created by MetaPost 2.000 on 2022.03.30:1637 -->
<svg version="1.1" xmlns="http://www.w3.org/2000/svg" xmlns:xlink="http://www.w3.org/1999/xlink" width="47.684845" height="78.866135" viewBox="0 0 47.684845 78.866135">
<!-- Original BoundingBox: -23.842422 -4.000000 23.842422 74.866135 -->
  <path d="M23.000000 74.000000L23.000000 3.133865" style="stroke:rgb(0.000000%,0.000000%,0.000000%); stroke-width: 8.000000;stroke-linecap: round;stroke-linejoin: round;stroke-miterlimit: 10.000000;fill: none;"></path>
  <path d="M42.842422 21.558899L3.157578 21.558899" style="stroke:rgb(0.000000%,0.000000%,0.000000%); stroke-width: 8.000000;stroke-linecap: round;stroke-linejoin: round;stroke-miterlimit: 10.000000;fill: none;"></path>
</svg>
