prologues:=3;
outputformat:="svg";
outputtemplate:=("%j" & "." & outputformat);
verbatimtex
%&latex
\documentclass{minimal}
\begin{document}
etex
beginfig(0);
z1=(0.8cm,1.5cm);
z2=(0.8cm,2cm);
z3=(0.8cm,0cm);
z4=(1.9cm,0.75cm);
z5=(1.9cm,2cm);
z6=(2.4cm,0cm);
pickup pencircle scaled 8;
linejoin:=rounded; linecap:=butt;
draw z2--z1{dir 180}..{dir 0}z3{dir 0}..{dir 0}z4;
draw z5--z4{dir 270}..{dir 0}z6;
endfig;
end
