This is MetaPost, version 2.000 (TeX Live 2017/Debian) (kpathsea version 6.2.3)  2 OCT 2021 19:01
**119_3.mp
(/usr/share/texlive/texmf-dist/metapost/base/mpost.mp
(/usr/share/texlive/texmf-dist/metapost/base/plain.mp
Preloading the plain mem file, version 1.005) ) (./119_3.mp [0] )
1 output file written: 119_3.svg

