<?xml version="1.0"?>
<!-- Created by MetaPost 2.000 on 2022.03.30:1640 -->
<svg version="1.1" xmlns="http://www.w3.org/2000/svg" xmlns:xlink="http://www.w3.org/1999/xlink" width="59.023270" height="64.692902" viewBox="0 0 59.023270 64.692902">
<!-- Original BoundingBox: -15.338409 -4.000000 43.684860 60.692902 -->
  <path d="M54.684860 60.000000L3.661591 3.307098" style="stroke:rgb(0.000000%,0.000000%,0.000000%); stroke-width: 8.000000;stroke-linecap: round;stroke-linejoin: round;stroke-miterlimit: 10.000000;fill: none;"></path>
  <path d="M3.661591 60.000000L54.684860 3.307098" style="stroke:rgb(0.000000%,0.000000%,0.000000%); stroke-width: 8.000000;stroke-linecap: round;stroke-linejoin: round;stroke-miterlimit: 10.000000;fill: none;"></path>
</svg>
