<?xml version="1.0"?>
<!-- Created by MetaPost 2.000 on 2022.03.30:1645 -->
<svg version="1.1" xmlns="http://www.w3.org/2000/svg" xmlns:xlink="http://www.w3.org/1999/xlink" width="47.684845" height="38.754974" viewBox="0 0 47.684845 38.754974">
<!-- Original BoundingBox: -23.842422 17.937927 23.842422 38.754974 -->
  <path d="M3.157578 9.653549C7.071945 -12.546188,38.928055 31.853287,42.842422 9.653549" style="stroke:rgb(0.000000%,0.000000%,0.000000%); stroke-width: 8.000000;stroke-linecap: round;stroke-linejoin: round;stroke-miterlimit: 10.000000;fill: none;"></path>
</svg>
