prologues:=3;
outputformat:="svg";
outputtemplate:=("%j" & "." & outputformat);
verbatimtex
%&latex
\documentclass{minimal}
\begin{document}
etex
beginfig(0);
z1=(0cm,0cm);
z2=(0cm,-0.5cm);
z3=(-0.45cm,-1.35cm);
z4=(0.8cm,-0.5cm);
z5=(1.4cm,2cm);
pickup pencircle scaled 8;
draw z1--z2--z4--z3;
endfig;
end
