prologues:=3;
outputformat:="svg";
outputtemplate:=("%j" & "." & outputformat);
verbatimtex
%&latex
\documentclass{minimal}
\begin{document}
etex
beginfig(0);
z3=(-0.25cm,1.55cm);
z7=(-0.25cm,0.6cm);
z8=(1.15cm,1.55cm);
z1=(0.3cm, 2.2cm);
z2=(1.7cm, 2.2cm);
z4=(1.7cm, 1cm);
pickup pencircle scaled 9;
draw z7--z8--z3;
draw z1--z2--z4;
endfig;
end
