<?xml version="1.0"?>
<!-- Created by MetaPost 2.000 on 2022.03.30:1342 -->
<svg version="1.1" xmlns="http://www.w3.org/2000/svg" xmlns:xlink="http://www.w3.org/1999/xlink" width="70.642487" height="78.906677" viewBox="0 0 70.642487 78.906677">
<!-- Original BoundingBox: -4.280380 -4.040543 66.362106 74.866135 -->
  <path d="M66.362106 34.315140L29.511627 34.315140C17.590134 34.315140,4.981918 30.785263,4.000000 20.141922C3.027115 9.596542,14.556229 3.133865,26.677246 3.133865" style="stroke:rgb(0.000000%,0.000000%,0.000000%); stroke-width: 8.000000;stroke-linecap: round;stroke-linejoin: round;stroke-miterlimit: 10.000000;fill: none;"></path>
  <path d="M29.511627 34.315140C17.612274 34.315140,5.961700 40.189056,4.000000 51.322754C1.773407 63.959793,13.129181 74.788513,26.677246 74.000000C38.894897 73.288925,48.643417 63.540405,49.354492 51.322754L49.354492 17.307098" style="stroke:rgb(0.000000%,0.000000%,0.000000%); stroke-width: 8.000000;stroke-linecap: round;stroke-linejoin: round;stroke-miterlimit: 10.000000;fill: none;"></path>
</svg>
