prologues:=3;
outputformat:="svg";
outputtemplate:=("%j" & "." & outputformat);
verbatimtex
%&latex
\documentclass{minimal}
\begin{document}
etex
beginfig(0);
z1=(0.1cm,0.8cm);
z3=(0.2cm,2.55cm);
z5=(1.8cm,2.55cm);
z6=(0.2cm, 1.6cm);
z7=(1.8cm, 0.8cm);
z8=(0.9cm, 0.1cm);
z2=(0.9cm, 1.6cm);
pickup pencircle scaled 8;
draw z5--z3--z6;
draw z6--z2{dir 0}..z7..z8..{dir 90}z1;
endfig;
end
