This is MetaPost, version 2.000 (TeX Live 2017/Debian) (kpathsea version 6.2.3)  30 MAR 2022 14:00
**54.mp
(/usr/share/texlive/texmf-dist/metapost/base/mpost.mp
(/usr/share/texlive/texmf-dist/metapost/base/plain.mp
Preloading the plain mem file, version 1.005) ) (./54.mp [0] )
1 output file written: 54.svg

