<?xml version="1.0"?>
<!-- Created by MetaPost 2.000 on 2022.03.30:1406 -->
<svg version="1.1" xmlns="http://www.w3.org/2000/svg" xmlns:xlink="http://www.w3.org/1999/xlink" width="43.433060" height="36.598251" viewBox="0 0 43.433060 36.598251">
<!-- Original BoundingBox: -11.086609 1.669205 32.346451 36.598251 -->
  <path d="M3.913391 30.330795L39.346451 3.401749L3.913391 3.401749" style="stroke:rgb(0.000000%,0.000000%,0.000000%); stroke-width: 8.000000;stroke-linecap: round;stroke-linejoin: round;stroke-miterlimit: 10.000000;fill: none;"></path>
</svg>
