prologues:=3;
outputformat:="svg";
outputtemplate:=("%j" & "." & outputformat);
verbatimtex
%&latex
\documentclass{minimal}
\begin{document}
etex
beginfig(0);
z1=(0cm,0.15cm);
z2=(0cm,2.6cm);
z3=(2cm,1.95cm);
z4=(1.4cm,2.6cm);
z5=(0cm,1.4cm);
z6=(1.8cm, 1.4cm);
z7=(2.4cm, 0.75cm);
z8=(1.8cm, 0.15cm);
z9=(1.4cm, 1.4cm);
pickup pencircle scaled 8;
linejoin:=rounded; linecap:=butt;
draw z2--z4..z3..z9--z5;
draw z5--z6..z7..z8--z1--z2;
endfig;
end
