prologues:=3;
outputformat:="mps";
outputtemplate:=("%j" & "." & outputformat);
verbatimtex
%&latex
\documentclass{minimal}
\begin{document}
etex
beginfig(0);
z1=(-0.2cm,0.2cm);
z2=(0.2cm,2.5cm);
z4=(0.8cm,2.7cm);
z5=(-0.25cm,1.95cm);
z6=(1.4cm, 1.4cm);
z7=(1.6cm, 0.8cm);
z8=(0.8cm, 0cm);
pickup pencircle scaled 8;
draw z1..{dir 130}z2;
draw z2..{dir 40}z4;
draw z4..{dir 220}z6;
draw z6{dir 300}..z1;
endfig;
end