prologues:=3;
outputformat:="svg";
outputtemplate:=("%j" & "." & outputformat);
verbatimtex
%&latex
\documentclass{minimal}
\begin{document}
etex
beginfig(0);
z1=(0cm,1.2cm);
z2=(0.2cm,2.7cm);
z4=(1.5cm,1.7cm);
z5=(1.05cm,1.95cm);
z6=(0.2cm, 0cm);
z8=(1.8cm, 2.7cm);
z7=(1.8cm, 0cm);
pickup pencircle scaled 7;
draw z7{dir 130}..z6;
draw z6{dir 40}..z2;
draw z2{dir 310}..z8;
draw z1{dir 30}..z4;
endfig;
end
