<?xml version="1.0" encoding="UTF-8" standalone="no"?>
<!-- Created by MetaPost 2.000 on 2021.05.14:0835 -->

<svg
   version="1.1"
   width="55.023610"
   height="84.535415"
   viewBox="0 0 55.023610 84.535415"
   id="svg8"
   sodipodi:docname="70_3.svg"
   inkscape:version="1.1 (ce6663b3b7, 2021-05-25)"
   xmlns:inkscape="http://www.inkscape.org/namespaces/inkscape"
   xmlns:sodipodi="http://sodipodi.sourceforge.net/DTD/sodipodi-0.dtd"
   xmlns="http://www.w3.org/2000/svg"
   xmlns:svg="http://www.w3.org/2000/svg">
  <defs
     id="defs12">
    <inkscape:path-effect
       effect="taper_stroke"
       id="path-effect18"
       is_visible="true"
       lpeversion="1"
       stroke_width="9"
       attach_start="0.2"
       end_offset="0.2"
       start_smoothing="0.7"
       end_smoothing="0.7"
       jointype="extrapolated"
       start_shape="center"
       end_shape="center"
       miter_limit="100" />
    <inkscape:path-effect
       effect="taper_stroke"
       id="path-effect16"
       is_visible="true"
       lpeversion="1"
       stroke_width="9"
       attach_start="0.3"
       end_offset="0.3"
       start_smoothing="0.7"
       end_smoothing="0.7"
       jointype="extrapolated"
       start_shape="center"
       end_shape="center"
       miter_limit="100" />
    <inkscape:path-effect
       effect="taper_stroke"
       id="path-effect14"
       is_visible="true"
       lpeversion="1"
       stroke_width="9"
       attach_start="0.2"
       end_offset="0.2"
       start_smoothing="0.7"
       end_smoothing="0.7"
       jointype="extrapolated"
       start_shape="center"
       end_shape="center"
       miter_limit="100" />
  </defs>
  <sodipodi:namedview
     id="namedview10"
     pagecolor="#ffffff"
     bordercolor="#666666"
     borderopacity="1.0"
     inkscape:pageshadow="2"
     inkscape:pageopacity="0.0"
     inkscape:pagecheckerboard="0"
     showgrid="false"
     inkscape:zoom="9.9366637"
     inkscape:cx="26.417317"
     inkscape:cy="42.267708"
     inkscape:window-width="1853"
     inkscape:window-height="1025"
     inkscape:window-x="67"
     inkscape:window-y="27"
     inkscape:window-maximized="1"
     inkscape:current-layer="svg8" />
  <!-- Original BoundingBox: 4.120877 -4.000000 55.023610 80.535415 -->
  <path
     d="m 15.78547,33.741501 c -0.05409,5.084393 2.0802,8.436826 3.730552,10.115671 1.722635,1.752375 3.161138,2.127088 3.161138,2.127088 0,0 0.621671,-1.323026 1.138389,-3.457869 0.551801,-2.279789 0.918053,-4.892136 0.969288,-8.678118 0.121922,-10.276274 6.40807,-19.705496 15.846969,-23.770453 3.475047,-1.5034402 5.745577,-2.8462681 7.637767,-4.232465 1.771887,-1.2980636 2.754037,-2.38077 2.754037,-2.38077 0,0 -0.899159,-1.1837286 -3.179288,-2.0998623 C 45.659868,0.48703031 41.744432,-0.19368977 37.071952,1.8117789 24.379372,7.2779665 15.94942,19.922893 15.78547,33.741501 Z"
     style="stroke:none;stroke-width:8;stroke-linecap:round;stroke-linejoin:round;stroke-miterlimit:10;fill:#000000;fill-rule:nonzero"
     id="path2"
     inkscape:path-effect="#path-effect14"
     inkscape:original-d="M22.677160 45.984260C14.249071 25.756847,29.110579 3.464585,51.023610 3.464585" />
  <path
     d="m 3.6217051,68.265756 c 0.047121,5.21853 2.5419222,8.492333 4.3397366,9.99216 C 9.8592474,79.841161 11.33858,80 11.33858,80 c 0,0 0.439832,-1.387629 0.765257,-3.499748 0.359322,-2.332123 0.537824,-4.68258 0.517605,-8.303275 -0.03304,-4.322903 1.380022,-8.562081 4.000194,-12.000581 2.188592,-2.884425 3.456065,-4.871892 4.567881,-6.953183 1.006931,-1.884951 1.487643,-3.258953 1.487643,-3.258953 0,0 -1.278769,-0.760528 -3.746961,-0.632616 -2.338148,0.121173 -6.29827,1.243335 -9.4670852,5.389886 -3.826438,5.021506 -5.8896557,11.211159 -5.8414087,17.524226 z"
     style="stroke:none;stroke-width:8;stroke-linecap:round;stroke-linejoin:round;stroke-miterlimit:10;fill:#000000;fill-rule:nonzero"
     id="path4"
     inkscape:path-effect="#path-effect16"
     inkscape:original-d="M11.338580 80.000000C4.153651 67.555339,9.462420 51.629032,22.677160 45.984260" />
  <path
     d="m 36.900355,42.719861 c 1.873002,1.609806 3.805898,2.35815 5.497358,2.793093 1.658782,0.42654 2.956607,0.471306 2.956607,0.471306 0,0 0.694318,-1.115688 0.750591,-3.022528 0.05465,-1.851744 -0.576823,-4.686443 -3.331994,-7.061916 C 35.225782,29.401175 24.874985,27.01253 15.243323,29.546833 11.725828,30.474768 9.9160428,32.7461 9.1537248,34.434536 8.3687259,36.173207 8.503935,37.480325 8.503935,37.480325 c 0,0 1.1862007,0.528471 2.864151,0.871946 1.711007,0.350242 3.776368,0.524572 6.165386,-0.10169 6.772076,-1.781884 14.060449,-0.09995 19.366883,4.46928 z"
     style="stroke:none;stroke-width:8;stroke-linecap:round;stroke-linejoin:round;stroke-miterlimit:10;fill:#000000;fill-rule:nonzero"
     id="path6"
     inkscape:path-effect="#path-effect18"
     inkscape:original-d="M45.354320 45.984260C37.859183 33.002301,20.929861 29.095535,8.503935 37.480325" />
</svg>
