<?xml version="1.0" encoding="UTF-8" standalone="no"?>
<!-- Created by MetaPost 2.000 on 2021.05.15:1001 -->

<svg
   version="1.1"
   width="71.343562"
   height="84.535415"
   viewBox="0 0 71.343562 84.535415"
   id="svg10"
   sodipodi:docname="71_3.svg"
   inkscape:version="1.1 (ce6663b3b7, 2021-05-25)"
   xmlns:inkscape="http://www.inkscape.org/namespaces/inkscape"
   xmlns:sodipodi="http://sodipodi.sourceforge.net/DTD/sodipodi-0.dtd"
   xmlns="http://www.w3.org/2000/svg"
   xmlns:svg="http://www.w3.org/2000/svg">
  <defs
     id="defs14">
    <inkscape:path-effect
       effect="taper_stroke"
       id="path-effect22"
       is_visible="true"
       lpeversion="1"
       stroke_width="9"
       attach_start="0.2"
       end_offset="0.2"
       start_smoothing="0.7"
       end_smoothing="0.7"
       jointype="extrapolated"
       start_shape="center"
       end_shape="center"
       miter_limit="100" />
    <inkscape:path-effect
       effect="taper_stroke"
       id="path-effect20"
       is_visible="true"
       lpeversion="1"
       stroke_width="9"
       attach_start="0.2"
       end_offset="0.4"
       start_smoothing="0.7"
       end_smoothing="0.7"
       jointype="extrapolated"
       start_shape="center"
       end_shape="center"
       miter_limit="100" />
    <inkscape:path-effect
       effect="taper_stroke"
       id="path-effect18"
       is_visible="true"
       lpeversion="1"
       stroke_width="9"
       attach_start="0.3"
       end_offset="0.2"
       start_smoothing="0.7"
       end_smoothing="0.7"
       jointype="extrapolated"
       start_shape="center"
       end_shape="center"
       miter_limit="100" />
    <inkscape:path-effect
       effect="taper_stroke"
       id="path-effect16"
       is_visible="true"
       lpeversion="1"
       stroke_width="9"
       attach_start="0.2"
       end_offset="0.2"
       start_smoothing="0.7"
       end_smoothing="0.7"
       jointype="extrapolated"
       start_shape="center"
       end_shape="center"
       miter_limit="100" />
  </defs>
  <sodipodi:namedview
     id="namedview12"
     pagecolor="#ffffff"
     bordercolor="#666666"
     borderopacity="1.0"
     inkscape:pageshadow="2"
     inkscape:pageopacity="0.0"
     inkscape:pagecheckerboard="0"
     showgrid="false"
     inkscape:zoom="9.9366637"
     inkscape:cx="34.568947"
     inkscape:cy="42.267708"
     inkscape:window-width="1853"
     inkscape:window-height="1025"
     inkscape:window-x="67"
     inkscape:window-y="27"
     inkscape:window-maximized="1"
     inkscape:current-layer="svg10" />
  <!-- Original BoundingBox: -4.000000 -4.000000 67.343562 80.535415 -->
  <path
     d="m 56.366597,61.812631 c 2.14123,-0.430229 3.762762,-1.463057 5.060397,-2.499149 1.274138,-1.01733 2.100551,-1.990642 2.100551,-1.990642 0,0 -0.359468,-1.242053 -1.706735,-2.492525 C 60.516724,53.619921 58.035285,52.307597 54.608891,52.98594 48.41828,54.21871 42.954418,57.656202 39.142032,62.463566 34.92232,67.816292 35.173699,73.272244 35.898289,75.990257 36.686707,78.947694 38.01574,80 38.01574,80 c 0,0 0.961739,-1.326433 2.349004,-3.481882 0.998894,-1.552019 3.610891,-5.690986 5.829018,-8.462316 2.52113,-3.179109 6.113346,-5.434783 10.172835,-6.243171 z"
     style="stroke:none;stroke-width:8;stroke-linecap:round;stroke-linejoin:round;stroke-miterlimit:10;fill:#000000;fill-rule:nonzero"
     id="path2"
     inkscape:path-effect="#path-effect20"
     inkscape:original-d="M63.527545 57.322840C49.700059 54.884681,37.215550 65.982023,38.015740 80.000000" />
  <path
     d="m 62.71445,48.819741 c -0.297754,2.077804 -0.113286,3.965721 0.158839,5.610582 0.272544,1.647392 0.654256,2.892517 0.654256,2.892517 0,0 1.294124,0.299675 3.12017,-0.434266 1.721982,-0.692115 4.296784,-2.644967 4.957907,-6.673459 1.614845,-10.289624 -5.298808,-20.660104 -15.418017,-23.127026 -3.972886,-0.939152 -6.765828,0.686491 -8.067003,2.009814 -1.37981,1.403296 -1.600927,2.713132 -1.600927,2.713132 0,0 1.002534,0.831244 2.418379,1.716435 1.41367,0.883831 3.085413,1.780231 5.117907,2.304537 5.707094,1.391309 9.56924,7.184528 8.658489,12.987734 z"
     style="stroke:none;stroke-width:8;stroke-linecap:round;stroke-linejoin:round;stroke-miterlimit:10;fill:#000000;fill-rule:nonzero"
     id="path4"
     inkscape:path-effect="#path-effect22"
     inkscape:original-d="M63.527545 57.322840C73.785843 45.097477,61.750125 27.043900,46.519675 31.811035" />
  <path
     d="m 30.330537,63.052775 c 2.408806,6.167323 3.593777,9.239111 5.243942,12.635224 C 36.955601,78.530409 38.01574,80 38.01574,80 c 0,0 1.204333,-1.391837 2.041026,-4.709783 C 40.892184,71.977328 41.349668,66.53635 38.714614,59.780582 34.603901,49.248034 27.347554,40.145314 17.875399,33.791023 13.822302,31.072644 10.076758,30.649992 7.7008566,30.837646 5.2665777,31.029912 4,31.811035 4,31.811035 c 0,0 0.560068,1.362339 1.9460459,3.170386 1.4261219,1.860417 3.5240275,4.007914 6.9154831,6.283631 7.93857,5.325503 14.022726,12.957595 17.469008,21.787723 z"
     style="stroke:none;stroke-width:8;stroke-linecap:round;stroke-linejoin:round;stroke-miterlimit:10;fill:#000000;fill-rule:nonzero"
     id="path6"
     inkscape:path-effect="#path-effect18"
     inkscape:original-d="M38.015740 80.000000C38.015740 58.357665,24.392778 39.058468,4.000000 31.811035" />
  <path
     d="M 9.6146334,25.252295 C 7.5418536,26.303303 6.2477596,27.825445 5.3351151,29.228544 4.4355857,30.61148 4,31.811035 4,31.811035 c 0,0 0.7684449,1.034703 2.4226087,1.784222 1.6150109,0.731777 4.2711513,1.197583 7.2582653,-0.31391 C 21.917957,29.109752 27.974972,21.538483 30.236681,12.586589 31.0556,9.3405399 30.0181,6.8514334 28.949656,5.4364471 27.85531,3.9871573 26.67716,3.464585 26.67716,3.464585 c 0,0 -1.074681,0.6882786 -2.226429,1.8694397 C 23.28219,6.5324069 22.081243,8.1290664 21.51087,10.382 19.886636,16.810752 15.530048,22.256487 9.6146334,25.252295 Z"
     style="stroke:none;stroke-width:8;stroke-linecap:round;stroke-linejoin:round;stroke-miterlimit:10;fill:#000000;fill-rule:nonzero"
     id="path8"
     inkscape:path-effect="#path-effect16"
     inkscape:original-d="M4.000000 31.811035C17.612692 29.410750,27.323571 17.272152,26.677160 3.464585" />
</svg>
