<?xml version="1.0" encoding="UTF-8" standalone="no"?>
<!-- Created by MetaPost 2.000 on 2021.06.09:1158 -->

<svg
   version="1.1"
   width="57.188889"
   height="85.535324"
   viewBox="0 0 57.188889 85.535324"
   id="svg8"
   sodipodi:docname="74_2.svg"
   inkscape:version="1.1 (ce6663b3b7, 2021-05-25)"
   xmlns:inkscape="http://www.inkscape.org/namespaces/inkscape"
   xmlns:sodipodi="http://sodipodi.sourceforge.net/DTD/sodipodi-0.dtd"
   xmlns="http://www.w3.org/2000/svg"
   xmlns:svg="http://www.w3.org/2000/svg">
  <defs
     id="defs12">
    <inkscape:path-effect
       effect="taper_stroke"
       id="path-effect18"
       is_visible="true"
       lpeversion="1"
       stroke_width="9"
       attach_start="0.2"
       end_offset="0.2"
       start_smoothing="0.7"
       end_smoothing="0.7"
       jointype="extrapolated"
       start_shape="center"
       end_shape="center"
       miter_limit="100" />
    <inkscape:path-effect
       effect="taper_stroke"
       id="path-effect16"
       is_visible="true"
       lpeversion="1"
       stroke_width="9"
       attach_start="0.2"
       end_offset="0.2"
       start_smoothing="0.7"
       end_smoothing="0.7"
       jointype="extrapolated"
       start_shape="center"
       end_shape="center"
       miter_limit="100" />
    <inkscape:path-effect
       effect="taper_stroke"
       id="path-effect14"
       is_visible="true"
       lpeversion="1"
       stroke_width="9"
       attach_start="0.2"
       end_offset="0.2"
       start_smoothing="0.7"
       end_smoothing="0.7"
       jointype="extrapolated"
       start_shape="center"
       end_shape="center"
       miter_limit="100" />
  </defs>
  <sodipodi:namedview
     id="namedview10"
     pagecolor="#ffffff"
     bordercolor="#666666"
     borderopacity="1.0"
     inkscape:pageshadow="2"
     inkscape:pageopacity="0.0"
     inkscape:pagecheckerboard="0"
     showgrid="false"
     inkscape:zoom="9.8205041"
     inkscape:cx="27.493497"
     inkscape:cy="42.818576"
     inkscape:window-width="1600"
     inkscape:window-height="872"
     inkscape:window-x="1920"
     inkscape:window-y="0"
     inkscape:window-maximized="1"
     inkscape:current-layer="svg8" />
  <!-- Original BoundingBox: -18.673233 -4.500000 38.515656 81.035324 -->
  <path
     d="M 7.5586234,68.558275 C 4.2391284,71.741588 3.3431866,75.220438 3.2568482,77.437321 3.167688,79.726657 3.826767,81 3.826767,81 c 0,0 1.3827241,-0.299961 3.2590588,-1.198192 1.9443191,-0.930775 4.1652742,-2.320194 6.6990792,-4.744809 7.056294,-6.760477 17.047943,-9.699206 26.640755,-7.835535 3.443024,0.66672 6.062556,0.632463 8.201193,0.362368 2.063859,-0.260652 3.388803,-0.757065 3.388803,-0.757065 0,0 -0.135261,-1.427407 -1.449675,-3.303927 C 49.293166,61.705709 46.656433,59.265881 42.142068,58.38665 29.685792,55.966671 16.721226,59.77979 7.5586234,68.558275 Z"
     style="stroke:none;stroke-width:9;stroke-linecap:round;stroke-linejoin:round;stroke-miterlimit:10;fill:#000000;fill-rule:nonzero"
     id="path2"
     inkscape:path-effect="#path-effect18"
     inkscape:original-d="M3.826767 81.000000C12.891739 63.377319,34.853195 56.918045,52.015656 66.826767" />
  <path
     d="M 25.790622,8.3646916 C 24.196416,6.7341714 22.432649,5.8586502 20.835038,5.2623214 19.271865,4.6788469 18,4.464676 18,4.464676 c 0,0 -0.857919,0.9866085 -1.170194,2.8502965 -0.301431,1.7989792 -0.03185,4.7076285 2.512245,7.3279295 6.874609,7.061153 17.310895,9.67025 26.699639,6.674985 3.477876,-1.11479 5.084534,-3.554372 5.665154,-5.283553 0.601505,-1.791379 0.308812,-3.065645 0.308812,-3.065645 0,0 -1.223018,-0.409558 -2.876863,-0.630349 -1.69028,-0.225655 -3.658556,-0.283156 -5.832518,0.405312 -6.157501,1.96441 -13.007023,0.252012 -17.515653,-4.3789604 z"
     style="stroke:none;stroke-width:9;stroke-linecap:round;stroke-linejoin:round;stroke-miterlimit:10;fill:#000000;fill-rule:nonzero"
     id="path4"
     inkscape:path-effect="#path-effect14"
     inkscape:original-d="M18.000000 4.464676C23.499222 18.126007,40.734482 22.434860,52.015656 12.968689" />
  <path
     d="m 51.680504,24.750153 c 2.156754,-6.689701 0.335152,-11.781464 0.335152,-11.781464 0,0 -6.151302,0.494228 -8.90082,9.01934 -3.752768,11.637766 -3.752768,24.181632 0,35.819398 2.749518,8.525112 8.90082,9.01934 8.90082,9.01934 0,0 1.821602,-5.091763 -0.335152,-11.781464 -3.174211,-9.843596 -3.174211,-20.451554 0,-30.29515 z"
     style="stroke:none;stroke-width:9;stroke-linecap:round;stroke-linejoin:round;stroke-miterlimit:10;fill:#000000;fill-rule:nonzero"
     id="path6"
     inkscape:path-effect="#path-effect16"
     inkscape:original-d="M52.015656 12.968689C42.394852 29.632446,42.394852 50.163010,52.015656 66.826767" />
</svg>
