prologues:=3;
outputformat:="svg";
outputtemplate:=("%j" & "." & outputformat);
verbatimtex
%&latex
\documentclass{minimal}
\begin{document}
etex
beginfig(0);
z1=(1.6cm,2.7cm);
z2=(1.9cm,0cm);
z4=(0cm,2.7cm);
z5=(-0.3cm,0cm);
z6=(0.8cm, 2.1cm);
pickup pencircle scaled 8;
draw z5--z4;
draw z4--z6--z1;
draw z1--z2;
endfig;
end
