<?xml version="1.0" encoding="UTF-8" standalone="no"?>
<!-- Created by MetaPost 2.000 on 2021.07.26:1939 -->

<svg
   xmlns:dc="http://purl.org/dc/elements/1.1/"
   xmlns:cc="http://creativecommons.org/ns#"
   xmlns:rdf="http://www.w3.org/1999/02/22-rdf-syntax-ns#"
   xmlns:svg="http://www.w3.org/2000/svg"
   xmlns="http://www.w3.org/2000/svg"
   xmlns:sodipodi="http://sodipodi.sourceforge.net/DTD/sodipodi-0.dtd"
   xmlns:inkscape="http://www.inkscape.org/namespaces/inkscape"
   version="1.1"
   width="88.370148"
   height="85.535324"
   viewBox="0 0 88.370148 85.535324"
   id="svg8"
   sodipodi:docname="77_2.svg"
   inkscape:version="0.92.3 (2405546, 2018-03-11)">
  <metadata
     id="metadata11">
    <rdf:RDF>
      <cc:Work
         rdf:about="">
        <dc:format>image/svg+xml</dc:format>
        <dc:type
           rdf:resource="http://purl.org/dc/dcmitype/StillImage" />
      </cc:Work>
    </rdf:RDF>
  </metadata>
  <defs
     id="defs12">
    <inkscape:path-effect
       effect="taper_stroke"
       id="path-effect833"
       is_visible="true"
       lpeversion="1"
       stroke_width="7"
       attach_start="1e-07"
       end_offset="1e-07"
       start_smoothing="0.7"
       end_smoothing="0.7"
       jointype="extrapolated"
       start_shape="center"
       end_shape="center"
       miter_limit="100"
       smoothing="0.7" />
    <inkscape:path-effect
       effect="taper_stroke"
       id="path-effect831"
       is_visible="true"
       lpeversion="1"
       stroke_width="7"
       attach_start="1e-07"
       end_offset="1e-07"
       start_smoothing="0.7"
       end_smoothing="0.7"
       jointype="extrapolated"
       start_shape="center"
       end_shape="center"
       miter_limit="100"
       smoothing="0.7" />
    <inkscape:path-effect
       effect="taper_stroke"
       id="path-effect829"
       is_visible="true"
       lpeversion="1"
       stroke_width="7"
       attach_start="1e-07"
       end_offset="0"
       start_smoothing="0.7"
       end_smoothing="0.7"
       jointype="extrapolated"
       start_shape="center"
       end_shape="center"
       miter_limit="100"
       smoothing="0.7" />
  </defs>
  <sodipodi:namedview
     id="namedview10"
     pagecolor="#ffffff"
     bordercolor="#666666"
     borderopacity="1.0"
     inkscape:pageshadow="2"
     inkscape:pageopacity="0.0"
     inkscape:pagecheckerboard="0"
     showgrid="false"
     inkscape:zoom="6.944145"
     inkscape:cx="35.929549"
     inkscape:cy="42.553835"
     inkscape:window-width="1600"
     inkscape:window-height="872"
     inkscape:window-x="1920"
     inkscape:window-y="0"
     inkscape:window-maximized="1"
     inkscape:current-layer="svg8" />
  <!-- Original BoundingBox: -21.508041 -4.500000 66.862106 81.035324 -->
  <path
     d="M 5.9965907,83.869051 C 32.127035,65.611573 39.969503,30.320905 24.031096,2.7146879 L 17.968913,6.2146797 C 32.122623,30.729701 25.191841,61.917835 1.9873421,78.130939 Z"
     style="stroke:none;stroke-width:9;stroke-linecap:round;stroke-linejoin:round;stroke-miterlimit:10;fill:#000000;fill-rule:nonzero"
     id="path2"
     inkscape:path-effect="#path-effect831"
     inkscape:original-d="M3.991959 81.000000C28.659439 63.764709,36.046066 30.525299,21.000000 4.464676" />
  <path
     d="m 17.711082,5.6617638 c 2.175641,5.9774612 6.001459,10.5892772 10.615369,13.6333972 4.613909,3.044121 9.988651,4.548238 15.350795,4.548238 5.362144,0 10.736886,-1.504117 15.350795,-4.548238 4.61391,-3.04412 8.439728,-7.655936 10.615369,-13.6333972 L 63.065569,3.2676009 C 61.38825,7.875951 58.581518,11.203493 55.173081,13.452279 c -3.408437,2.248785 -7.445838,3.39112 -11.495835,3.39112 -4.049997,0 -8.087398,-1.142335 -11.495835,-3.39112 C 28.772974,11.203493 25.966242,7.875951 24.288923,3.2676009 Z"
     style="stroke:none;stroke-width:9;stroke-linecap:round;stroke-linejoin:round;stroke-miterlimit:10;fill:#000000;fill-rule:nonzero"
     id="path4"
     inkscape:path-effect="#path-effect829"
     inkscape:original-d="M21.000000 4.464676C28.705917 25.636307,58.648575 25.636307,66.354492 4.464676" />
  <path
     d="m 63.321649,2.717718 c -15.903682,27.609757 -8.067375,62.873654 18.03293,81.149308 l 4.015039,-5.734062 C 62.189118,61.901782 55.262765,30.732745 69.387326,6.2116496 Z"
     style="stroke:none;stroke-width:9;stroke-linecap:round;stroke-linejoin:round;stroke-miterlimit:10;fill:#000000;fill-rule:nonzero"
     id="path6"
     inkscape:path-effect="#path-effect833"
     inkscape:original-d="M66.354492 4.464676C51.340363 30.530106,58.721695 63.746582,83.362106 81.000000" />
</svg>
