prologues:=3;
outputformat:="svg";
outputtemplate:=("%j" & "." & outputformat);
verbatimtex
%&latex
\documentclass{minimal}
\begin{document}
etex
beginfig(0);
z1=(1.6cm,2cm);
z2=(2.2cm,0cm);
z4=(0cm,2cm);
z5=(-0.6cm,0cm);
z6=(0.8cm, 1.5cm);
pickup pencircle scaled 9;
draw z5..{dir 120}z4;
draw z4..{dir 70}z1;
draw z1..{dir 325}z2;
endfig;
end
