prologues:=3;
outputformat:="svg";
outputtemplate:=("%j" & "." & outputformat);
verbatimtex
%&latex
\documentclass{minimal}
\begin{document}
etex
beginfig(0);
z2=(-0.25cm,1.7cm);
z6=(1cm,-0.05cm);
z8=(1cm, 2.75cm);
z7=(2.25cm, 1cm);
pickup pencircle scaled 8;
draw z7{dir 180}..{dir 270}z6;
draw z7{dir 180}..{dir 90}z8;
draw z6{dir 90}..{dir 180}z2;
draw z2{dir 0}..{dir 90}z8;
endfig;
end
