<?xml version="1.0" encoding="UTF-8" standalone="no"?>
<!-- Created by MetaPost 2.000 on 2021.10.02:1428 -->

<svg
   xmlns:dc="http://purl.org/dc/elements/1.1/"
   xmlns:cc="http://creativecommons.org/ns#"
   xmlns:rdf="http://www.w3.org/1999/02/22-rdf-syntax-ns#"
   xmlns:svg="http://www.w3.org/2000/svg"
   xmlns="http://www.w3.org/2000/svg"
   xmlns:sodipodi="http://sodipodi.sourceforge.net/DTD/sodipodi-0.dtd"
   xmlns:inkscape="http://www.inkscape.org/namespaces/inkscape"
   version="1.1"
   width="78.866119"
   height="87.370148"
   viewBox="0 0 78.866119 87.370148"
   id="svg10"
   sodipodi:docname="79_3.svg"
   inkscape:version="0.92.3 (2405546, 2018-03-11)">
  <metadata
     id="metadata16">
    <rdf:RDF>
      <cc:Work
         rdf:about="">
        <dc:format>image/svg+xml</dc:format>
        <dc:type
           rdf:resource="http://purl.org/dc/dcmitype/StillImage" />
      </cc:Work>
    </rdf:RDF>
  </metadata>
  <defs
     id="defs14">
    <inkscape:path-effect
       effect="taper_stroke"
       id="path-effect829"
       is_visible="true"
       stroke_width="7"
       attach_start="1e-07"
       end_offset="1e-07"
       smoothing="0.7"
       jointype="extrapolated"
       miter_limit="100" />
    <inkscape:path-effect
       effect="taper_stroke"
       id="path-effect827"
       is_visible="true"
       stroke_width="7"
       attach_start="1e-07"
       end_offset="1e-07"
       smoothing="0.7"
       jointype="extrapolated"
       miter_limit="100" />
    <inkscape:path-effect
       effect="taper_stroke"
       id="path-effect825"
       is_visible="true"
       stroke_width="7"
       attach_start="1e-07"
       end_offset="1e-07"
       smoothing="0.7"
       jointype="extrapolated"
       miter_limit="100" />
    <inkscape:path-effect
       effect="taper_stroke"
       id="path-effect823"
       is_visible="true"
       stroke_width="7"
       attach_start="1e-07"
       end_offset="1e-07"
       smoothing="0.7"
       jointype="extrapolated"
       miter_limit="100" />
  </defs>
  <sodipodi:namedview
     pagecolor="#ffffff"
     bordercolor="#666666"
     borderopacity="1"
     objecttolerance="10"
     gridtolerance="10"
     guidetolerance="10"
     inkscape:pageopacity="0"
     inkscape:pageshadow="2"
     inkscape:window-width="1600"
     inkscape:window-height="872"
     id="namedview12"
     showgrid="false"
     inkscape:zoom="2.7011514"
     inkscape:cx="-45.345601"
     inkscape:cy="43.685073"
     inkscape:window-x="1920"
     inkscape:window-y="0"
     inkscape:window-maximized="1"
     inkscape:current-layer="svg10" />
  <!-- Original BoundingBox: -11.086609 -5.417404 67.779510 81.952744 -->
  <path
     d="m 74.779504,49.153549 c -10.073473,1e-6 -19.670727,3.266165 -26.89013,9.06358 -7.219404,5.797416 -12.042921,14.298106 -12.042923,24.200269 l 7,10e-7 c 10e-7,-7.669426 3.583504,-14.050659 9.425873,-18.742271 5.842369,-4.691612 13.96164,-7.521578 22.507181,-7.521579 z"
     style="stroke:none;stroke-width:8;stroke-linecap:round;stroke-linejoin:round;stroke-miterlimit:10;fill:#000000;fill-rule:nonzero"
     id="path2"
     inkscape:path-effect="#path-effect829"
     inkscape:original-d="M74.779510 52.653549C56.160492 52.653549,39.346451 64.845810,39.346451 82.417404" />
  <path
     d="m 74.779504,49.153549 c -5.042759,-10e-7 -9.410296,-1.32904 -13.279251,-3.698035 C 57.631299,43.086519 54.26513,39.642013 51.489593,35.375943 45.93852,26.843802 42.846452,15.035121 42.846451,3.0472632 l -7,7e-7 c 10e-7,13.1701421 3.281628,26.1646011 9.775666,36.1461021 3.247018,4.99075 7.321258,9.230691 12.222781,12.231937 4.901523,3.001246 10.634532,4.728245 16.934604,4.728246 z"
     style="stroke:none;stroke-width:8;stroke-linecap:round;stroke-linejoin:round;stroke-miterlimit:10;fill:#000000;fill-rule:nonzero"
     id="path4"
     inkscape:path-effect="#path-effect825"
     inkscape:original-d="M74.779510 52.653549C52.093842 52.653549,39.346451 28.205261,39.346451 3.047256" />
  <path
     d="M 42.846451,82.417396 C 42.84645,69.247262 39.564822,56.252807 33.070785,46.271308 29.823766,41.280558 25.749526,37.040618 20.848003,34.039373 15.94648,31.038127 10.213471,29.311128 3.9133986,29.311127 l -1.5e-6,7 c 5.0427588,10e-7 9.4102969,1.32904 13.2792519,3.698035 3.868954,2.368995 7.235123,5.8135 10.01066,10.079569 5.551073,8.532139 8.643141,20.340816 8.643142,32.328666 z"
     style="stroke:none;stroke-width:8;stroke-linecap:round;stroke-linejoin:round;stroke-miterlimit:10;fill:#000000;fill-rule:nonzero"
     id="path6"
     inkscape:path-effect="#path-effect823"
     inkscape:original-d="M39.346451 82.417404C39.346451 57.259415,26.599060 32.811127,3.913391 32.811127" />
  <path
     d="m 3.913397,36.311127 c 10.073474,-10e-7 19.670728,-3.266165 26.890132,-9.063583 7.219403,-5.797417 12.04292,-14.298112 12.042922,-24.2002821 l -7,-1.3e-6 c -1e-6,7.6694354 -3.583504,14.0506724 -9.425873,18.7422854 -5.842369,4.691614 -13.961641,7.52158 -22.5071819,7.521581 z"
     style="stroke:none;stroke-width:8;stroke-linecap:round;stroke-linejoin:round;stroke-miterlimit:10;fill:#000000;fill-rule:nonzero"
     id="path8"
     inkscape:path-effect="#path-effect827"
     inkscape:original-d="M3.913391 32.811127C22.532410 32.811127,39.346451 20.618866,39.346451 3.047256" />
</svg>
