<?xml version="1.0" encoding="UTF-8" standalone="no"?>
<!-- Created by MetaPost 2.000 on 2021.07.28:1253 -->

<svg
   version="1.1"
   width="68.527725"
   height="122.385803"
   viewBox="0 0 68.527725 122.385803"
   id="svg12"
   sodipodi:docname="81_3.svg"
   inkscape:version="1.1 (ce6663b3b7, 2021-05-25)"
   xmlns:inkscape="http://www.inkscape.org/namespaces/inkscape"
   xmlns:sodipodi="http://sodipodi.sourceforge.net/DTD/sodipodi-0.dtd"
   xmlns="http://www.w3.org/2000/svg"
   xmlns:svg="http://www.w3.org/2000/svg">
  <defs
     id="defs16">
    <inkscape:path-effect
       effect="taper_stroke"
       id="path-effect841"
       is_visible="true"
       lpeversion="1"
       stroke_width="9"
       attach_start="0.1"
       end_offset="0.2"
       start_smoothing="0.7"
       end_smoothing="0.7"
       jointype="extrapolated"
       start_shape="center"
       end_shape="center"
       miter_limit="100" />
    <inkscape:path-effect
       effect="taper_stroke"
       id="path-effect839"
       is_visible="true"
       lpeversion="1"
       stroke_width="9"
       attach_start="0.2"
       end_offset="0.2"
       start_smoothing="0.7"
       end_smoothing="0.7"
       jointype="extrapolated"
       start_shape="center"
       end_shape="center"
       miter_limit="100" />
    <inkscape:path-effect
       effect="taper_stroke"
       id="path-effect837"
       is_visible="true"
       lpeversion="1"
       stroke_width="9"
       attach_start="0.2"
       end_offset="0.1"
       start_smoothing="0.7"
       end_smoothing="0.7"
       jointype="extrapolated"
       start_shape="center"
       end_shape="center"
       miter_limit="100" />
    <inkscape:path-effect
       effect="taper_stroke"
       id="path-effect835"
       is_visible="true"
       lpeversion="1"
       stroke_width="9"
       attach_start="0.1"
       end_offset="0.2"
       start_smoothing="0.7"
       end_smoothing="0.7"
       jointype="extrapolated"
       start_shape="center"
       end_shape="center"
       miter_limit="100" />
    <inkscape:path-effect
       effect="taper_stroke"
       id="path-effect833"
       is_visible="true"
       lpeversion="1"
       stroke_width="9"
       attach_start="0.2"
       end_offset="0.2"
       start_smoothing="0.7"
       end_smoothing="0.7"
       jointype="extrapolated"
       start_shape="center"
       end_shape="center"
       miter_limit="100" />
  </defs>
  <sodipodi:namedview
     id="namedview14"
     pagecolor="#ffffff"
     bordercolor="#666666"
     borderopacity="1.0"
     inkscape:pageshadow="2"
     inkscape:pageopacity="0.0"
     inkscape:pagecheckerboard="0"
     showgrid="false"
     inkscape:zoom="6.8635412"
     inkscape:cx="34.311734"
     inkscape:cy="61.120053"
     inkscape:window-width="1600"
     inkscape:window-height="872"
     inkscape:window-x="1920"
     inkscape:window-y="0"
     inkscape:window-maximized="1"
     inkscape:current-layer="svg12" />
  <!-- Original BoundingBox: -7.334824 -39.933060 61.192902 82.452744 -->
  <path
     d="m 54.362595,56.822526 c 3.140617,-1.047421 5.334314,-2.414254 6.905315,-3.661769 1.570268,-1.246933 2.424992,-2.342031 2.424992,-2.342031 0,0 -0.788486,-1.165085 -2.765598,-2.145228 -1.918092,-0.950884 -5.249654,-1.77243 -9.407429,-0.390231 -11.479302,3.82146 -20.556935,12.899211 -24.378246,24.378563 -1.382146,4.157793 -0.560556,7.489345 0.390353,9.407424 0.980169,1.977099 2.145264,2.76557 2.145264,2.76557 0,0 1.095087,-0.854738 2.342,-2.425023 1.247494,-1.571016 2.614299,-3.764731 3.661679,-6.905362 2.928343,-8.796846 9.884862,-15.753455 18.68167,-18.681913 z"
     style="stroke:none;stroke-width:9;stroke-linecap:round;stroke-linejoin:round;stroke-miterlimit:10;fill:#000000;fill-rule:nonzero"
     id="path2"
     inkscape:path-effect="#path-effect839"
     inkscape:original-d="M63.692902 50.818726C44.906403 50.818726,29.677002 66.048325,29.677246 84.834824" />
  <path
     d="m 51.829709,46.992305 c 2.950792,3.231883 6.243676,4.169954 8.38739,4.301487 2.206358,0.135377 3.475803,-0.475066 3.475803,-0.475066 0,0 -0.194781,-1.377968 -0.94896,-3.248666 C 61.989397,45.698452 60.738247,43.405336 58.478153,40.926154 52.135987,33.975198 49.256424,24.472667 50.673373,15.170456 51.177128,11.853741 50.944937,9.2518489 50.53365,7.2762227 50.122564,5.3015576 49.519684,4.047256 49.519684,4.047256 c 0,0 -1.394763,0.1968953 -3.154844,1.5342273 -1.710108,1.299362 -3.928383,3.907487 -4.588838,8.2336907 -1.824682,11.978962 1.886553,24.226006 10.053707,33.177131 z"
     style="stroke:none;stroke-width:9;stroke-linecap:round;stroke-linejoin:round;stroke-miterlimit:10;fill:#000000;fill-rule:nonzero"
     id="path4"
     inkscape:path-effect="#path-effect833"
     inkscape:original-d="M63.692902 50.818726C47.379837 41.400406,41.178650 20.936539,49.519684 4.047256" />
  <path
     d="m 24.144234,73.812487 c 1.396051,7.376491 5.533012,11.022337 5.533012,11.022337 0,0 5.022747,-3.643324 3.310062,-12.69567 C 30.239163,57.616011 22.831243,44.305288 11.807562,34.293498 8.3847576,31.184924 4.165176,33.811127 4.165176,33.811127 c 0,0 -1.1959741,4.613067 1.5915534,7.14476 9.5704666,8.69197 16.0018456,20.249092 18.3875046,32.8566 z"
     style="stroke:none;stroke-width:9;stroke-linecap:round;stroke-linejoin:round;stroke-miterlimit:10;fill:#000000;fill-rule:nonzero"
     id="path6"
     inkscape:path-effect="#path-effect837"
     inkscape:original-d="M29.677246 84.834824C29.677246 64.759674,20.225388 45.856110,4.165176 33.811127" />
  <path
     d="M 9.0050109,28.605656 C 5.509319,29.268158 4.165176,33.811127 4.165176,33.811127 c 0,0 2.1212457,4.46986 6.515578,3.637146 14.100025,-2.672061 26.775257,-10.167065 35.897125,-21.089375 5.709214,-6.8365959 2.941805,-12.311642 2.941805,-12.311642 0,0 -5.304278,1.1005774 -9.849589,6.542542 C 31.878448,19.919332 21.050366,26.32297 9.0050109,28.605656 Z"
     style="stroke:none;stroke-width:9;stroke-linecap:round;stroke-linejoin:round;stroke-miterlimit:10;fill:#000000;fill-rule:nonzero"
     id="path8"
     inkscape:path-effect="#path-effect835"
     inkscape:original-d="M4.165176 33.811127C23.322098 32.135071,40.358505 20.954941,49.519684 4.047256" />
  <path
     d="m 34.483681,89.016392 c -0.399773,-2.701742 -4.806435,-4.181568 -4.806435,-4.181568 0,0 -4.692255,1.467793 -4.096784,5.497888 1.861181,12.588498 10.011683,23.273018 21.37293,28.498908 3.515305,1.61573 6.537331,1.14628 8.357596,0.40824 1.867305,-0.75711 2.712709,-1.8068 2.712709,-1.8068 0,0 -0.591342,-1.19502 -1.782173,-2.59603 -1.215448,-1.42996 -2.915318,-2.97932 -5.527147,-4.1819 -8.620041,-3.965 -14.817176,-12.078084 -16.230696,-21.638738 z"
     style="stroke:none;stroke-width:9;stroke-linecap:round;stroke-linejoin:round;stroke-miterlimit:10;fill:#000000;fill-rule:nonzero"
     id="path10"
     inkscape:path-effect="#path-effect841"
     inkscape:original-d="M29.677246 84.834824C29.677246 101.248459,41.769058 115.153961,58.023697 117.433060" />
</svg>
