<?xml version="1.0" encoding="UTF-8" standalone="no"?>
<!-- Created by MetaPost 2.000 on 2021.10.04:1948 -->

<svg
   xmlns:dc="http://purl.org/dc/elements/1.1/"
   xmlns:cc="http://creativecommons.org/ns#"
   xmlns:rdf="http://www.w3.org/1999/02/22-rdf-syntax-ns#"
   xmlns:svg="http://www.w3.org/2000/svg"
   xmlns="http://www.w3.org/2000/svg"
   xmlns:sodipodi="http://sodipodi.sourceforge.net/DTD/sodipodi-0.dtd"
   xmlns:inkscape="http://www.inkscape.org/namespaces/inkscape"
   version="1.1"
   width="86.686172"
   height="84.535324"
   viewBox="0 0 86.686172 84.535324"
   id="svg6"
   sodipodi:docname="82_3.svg"
   inkscape:version="0.92.3 (2405546, 2018-03-11)">
  <metadata
     id="metadata12">
    <rdf:RDF>
      <cc:Work
         rdf:about="">
        <dc:format>image/svg+xml</dc:format>
        <dc:type
           rdf:resource="http://purl.org/dc/dcmitype/StillImage" />
      </cc:Work>
    </rdf:RDF>
  </metadata>
  <defs
     id="defs10">
    <inkscape:path-effect
       effect="taper_stroke"
       id="path-effect824"
       is_visible="true"
       stroke_width="8"
       attach_start="0.2"
       end_offset="0.2"
       smoothing="0.7"
       jointype="round"
       miter_limit="100" />
    <inkscape:path-effect
       effect="taper_stroke"
       id="path-effect822"
       is_visible="true"
       stroke_width="8"
       attach_start="0.1"
       end_offset="0.1"
       smoothing="0.7"
       jointype="extrapolated"
       miter_limit="100" />
  </defs>
  <sodipodi:namedview
     pagecolor="#ffffff"
     bordercolor="#666666"
     borderopacity="1"
     objecttolerance="10"
     gridtolerance="10"
     guidetolerance="10"
     inkscape:pageopacity="0"
     inkscape:pageshadow="2"
     inkscape:window-width="1853"
     inkscape:window-height="1025"
     id="namedview8"
     showgrid="false"
     inkscape:zoom="2.7917324"
     inkscape:cx="43.343086"
     inkscape:cy="42.267662"
     inkscape:window-x="67"
     inkscape:window-y="27"
     inkscape:window-maximized="1"
     inkscape:current-layer="svg6" />
  <!-- Original BoundingBox: -32.346451 -4.000000 54.339722 80.535324 -->
  <path
     d="M 17.158807,74.399576 C 14.552559,76.068429 13.880664,76.26248 11.840388,77.902663 10.433644,79.033547 9.653549,80 9.653549,80 c 0,0 0.698377,1.054548 2.515593,1.913774 1.658975,0.784406 5.032903,1.599301 9.01267,-0.599328 3.127345,-1.819459 5.37111,-4.590511 6.71672,-7.674451 1.34561,-3.08394 1.896471,-6.464254 2.050935,-9.996892 0.308929,-7.065278 -0.967463,-14.878744 -2.171272,-22.532276 -1.203809,-7.653532 -2.335033,-15.147132 -2.08175,-20.939788 0.126642,-2.896329 0.599343,-5.3327 1.390983,-7.147021 0.791639,-1.81432 1.798809,-3.023105 3.407314,-3.9589178 C 33.10099,7.3962473 33.772885,7.2021958 35.813161,5.5620132 37.219905,4.4311288 38,3.464676 38,3.464676 c 0,0 -0.698377,-1.0545479 -2.515593,-1.9137744 -1.658975,-0.78440569 -5.032903,-1.59930018 -9.01267,0.5993283 -3.127345,1.8194591 -5.37111,4.5905112 -6.71672,7.6744512 -1.34561,3.0839399 -1.896471,6.4642539 -2.050935,9.9968919 -0.308929,7.065278 0.967463,14.878744 2.171272,22.532276 1.203809,7.653532 2.335033,15.147132 2.08175,20.939788 -0.126642,2.896329 -0.599343,5.3327 -1.390983,7.147021 -0.791639,1.81432 -1.798809,3.023105 -3.407314,3.958918 z"
     style="fill:#000000;fill-rule:nonzero;stroke:none;stroke-width:8;stroke-linecap:round;stroke-linejoin:round;stroke-miterlimit:10"
     id="path2"
     inkscape:path-effect="#path-effect822"
     inkscape:original-d="M 9.653549,80 C 50.038086,80 -2.384537,3.464676 38,3.464676"
     inkscape:connector-curvature="0" />
  <path
     d="m 24.081547,22.267078 c -4.960628,3.373251 -4.837361,8.126629 -4.837361,8.126629 0,0 4.375234,1.86202 9.335863,-1.511231 L 55.868113,10.326461 c 5.008036,0.230507 9.741372,1.903721 13.333045,4.586192 3.875236,2.894253 6.429344,6.837321 7.016463,11.707972 a 4,4 0 0 0 0,1e-6 c 0.689888,5.723194 -1.42797,10.801455 -5.387536,14.669579 -3.959565,3.868124 -9.775464,6.363344 -16.152839,6.363344 l 1.368094,7.758766 c 2.815557,-1.024791 5.474913,-1.175468 7.994538,-0.697975 2.519626,0.477492 4.905329,1.608264 6.995778,3.247964 4.180899,3.2794 7.061623,8.59209 7.289057,14.05753 0.131116,3.019841 0.465846,5.103496 0.933672,7.025199 C 79.692936,80.830051 80.188873,82 80.188873,82 c 0,0 1.281391,-0.202432 2.84485,-1.634699 1.486135,-1.36143 3.463069,-4.247157 3.284072,-8.678085 -0.3319,-7.975849 -4.320062,-15.293903 -10.344774,-20.019547 -3.012356,-2.362822 -6.56364,-4.078146 -10.44358,-4.813431 -3.87994,-0.735285 -8.082728,-0.46542 -12.220289,1.040545 a 4,4 0 0 0 1.368094,7.758766 c 8.446417,0 16.23073,-3.255604 21.74323,-8.640798 5.512499,-5.385195 8.738558,-13.062748 7.739649,-21.349533 C 83.296668,18.500102 79.369117,12.521738 73.988261,8.5030003 68.607405,4.4842625 61.781164,2.299057 54.677246,2.299057 a 4,4 0 0 0 -2.249251,0.6923013 z"
     style="fill:#000000;fill-rule:nonzero;stroke:none;stroke-width:8;stroke-linecap:round;stroke-linejoin:round;stroke-miterlimit:10"
     id="path4"
     inkscape:path-effect="#path-effect824"
     inkscape:original-d="m 19.244186,30.393707 35.43306,-24.09465 c 12.548309,0 24.061051,7.809097 25.511627,19.842865 C 81.87767,40.151901 69.501038,51.653549 54.677246,51.653549 72.060043,45.32666 88.305649,65.377441 80.188873,82"
     inkscape:connector-curvature="0"
     sodipodi:nodetypes="ccscc" />
</svg>
