<?xml version="1.0"?>
<!-- Created by MetaPost 2.000 on 2022.03.30:1534 -->
<svg version="1.1" xmlns="http://www.w3.org/2000/svg" xmlns:xlink="http://www.w3.org/1999/xlink" width="51.937088" height="81.700943" viewBox="0 0 51.937088 81.700943">
<!-- Original BoundingBox: -11.086609 -4.000000 40.850479 77.700943 -->
  <path d="M3.913391 4.716461L47.850479 4.716461" style="stroke:rgb(0.000000%,0.000000%,0.000000%); stroke-width: 8.000000;stroke-linecap: round;stroke-linejoin: round;stroke-miterlimit: 10.000000;fill: none;"></path>
  <path d="M26.590637 3.299057L26.590637 77.000000" style="stroke:rgb(0.000000%,0.000000%,0.000000%); stroke-width: 8.000000;stroke-linecap: round;stroke-linejoin: round;stroke-miterlimit: 10.000000;fill: none;"></path>
</svg>
