<?xml version="1.0" encoding="UTF-8" standalone="no"?>
<!-- Created by MetaPost 2.000 on 2021.07.28:1536 -->

<svg
   version="1.1"
   width="58.606293"
   height="86.967758"
   viewBox="0 0 58.606293 86.967758"
   id="svg4"
   sodipodi:docname="84_2.svg"
   inkscape:version="1.1 (ce6663b3b7, 2021-05-25)"
   xmlns:inkscape="http://www.inkscape.org/namespaces/inkscape"
   xmlns:sodipodi="http://sodipodi.sourceforge.net/DTD/sodipodi-0.dtd"
   xmlns="http://www.w3.org/2000/svg"
   xmlns:svg="http://www.w3.org/2000/svg">
  <defs
     id="defs8">
    <inkscape:path-effect
       effect="taper_stroke"
       id="path-effect825"
       is_visible="true"
       lpeversion="1"
       stroke_width="9"
       attach_start="0.2"
       end_offset="0.2"
       start_smoothing="0.7"
       end_smoothing="0.7"
       jointype="bevel"
       start_shape="center"
       end_shape="center"
       miter_limit="100" />
  </defs>
  <sodipodi:namedview
     id="namedview6"
     pagecolor="#ffffff"
     bordercolor="#666666"
     borderopacity="1.0"
     inkscape:pageshadow="2"
     inkscape:pageopacity="0.0"
     inkscape:pagecheckerboard="0"
     showgrid="false"
     inkscape:zoom="6.829769"
     inkscape:cx="29.210358"
     inkscape:cy="43.412889"
     inkscape:window-width="1600"
     inkscape:window-height="872"
     inkscape:window-x="1920"
     inkscape:window-y="0"
     inkscape:window-maximized="1"
     inkscape:current-layer="svg4" />
  <!-- Original BoundingBox: -11.586609 -4.500000 47.019684 82.467758 -->
  <path
     d="M 13.562248,5.2085985 C 10.642399,5.3086377 8.4098395,6.0721831 6.7215506,6.8082583 5.033187,7.5443661 3.913391,8.299057 3.913391,8.299057 c 0,0 0.2660059,1.3458721 1.7272782,2.870317 1.4261473,1.487801 4.2099424,3.216611 8.2866638,3.031817 C 28.26017,13.6193 40.604494,5.5526852 51.980578,9.6932873 L 52.738276,1.0330395 C 21.154644,6.6020191 4.8274039,38.778224 14.267625,66.185557 16.87586,73.723881 21.312344,77.766804 24.399028,79.784666 27.49083,81.805872 29.425018,82 29.425018,82 c 0,0 -0.395092,-1.867047 -1.530624,-5.051898 C 26.75878,73.763019 24.8672,69.357012 22.776994,63.254578 15.140118,41.082808 28.207258,14.497304 54.301092,9.8963125 L 55.05879,1.2360647 C 40.477404,-4.0711844 25.666131,4.7172 13.562248,5.2085985 Z"
     style="stroke:none;stroke-width:9;stroke-linecap:round;stroke-linejoin:round;stroke-miterlimit:10;fill:#000000;fill-rule:nonzero"
     id="path2"
     inkscape:path-effect="#path-effect825"
     inkscape:original-d="M3.913391 8.299057C20.136810 14.203964,37.296265 -0.440231,53.519684 5.464676C17.471268 11.820908,3.519012 56.139435,29.425018 82.000000" />
</svg>
