prologues:=3;
outputformat:="svg";
outputtemplate:=("%j" & "." & outputformat);
verbatimtex
%&latex
\documentclass{minimal}
\begin{document}
etex
beginfig(0);
z4=(1.5cm,2cm);
z5=(-0.25cm,2cm);
z6=(0.4cm, 2.7cm);
z7=(0.6cm, 0cm);
pickup pencircle scaled 9;
draw z5..{dir 310}z4;
draw z6{dir 340}..{dir 340}z7;
endfig;
end
