prologues:=3;
outputformat:="svg";
outputtemplate:=("%j" & "." & outputformat);
verbatimtex
%&latex
\documentclass{minimal}
\begin{document}
etex
beginfig(0);
z1=(0.7cm,0cm);
z2=(0.2cm,2.7cm);
z3=(1.5cm,1.95cm);
z4=(2.2cm,2.7cm);
z5=(0.9cm,0cm);
z6=(1.8cm, 2.7cm);
pickup pencircle scaled 8;
draw z1..{dir 70}z2;
draw z5..{dir 100}z3;
draw z3..{dir 70}z4;
endfig;
end
