%!PS-Adobe-3.0 EPSF-3.0
%%BoundingBox: -10 -4 67 81 
%%HiResBoundingBox: -9.6692 -4 66.3621 80.53532 
%%Creator: MetaPost 2.000
%%CreationDate: 2021.05.22:1312
%%Pages: 1
%%DocumentResources: procset mpost-minimal
%%DocumentSuppliedResources: procset mpost-minimal
%%EndComments
%%BeginProlog
%%BeginResource: procset mpost-minimal
/bd{bind def}bind def/fshow {exch findfont exch scalefont setfont show}bd
/fcp{findfont dup length dict begin{1 index/FID ne{def}{pop pop}ifelse}forall}bd
/fmc{FontMatrix dup length array copy dup dup}bd/fmd{/FontMatrix exch def}bd
/Amul{4 -1 roll exch mul 1000 div}bd/ExtendFont{fmc 0 get Amul 0 exch put fmd}bd
/ScaleFont{dup fmc 0 get Amul 0 exch put dup dup 3 get Amul 3 exch put fmd}bd
/SlantFont{fmc 2 get dup 0 eq{pop 1}if Amul FontMatrix 0 get mul 2 exch put fmd}bd
%%EndResource
%%EndProlog
%%BeginSetup
%%EndSetup
%%Page: 1 1
 0 0 0 setrgbcolor 0 8 dtransform truncate idtransform setlinewidth pop
 [] 0 setdash 1 setlinecap 1 setlinejoin 10 setmiterlimit
newpath 19.84242 0 moveto
-5.6692 76.53532 lineto stroke
newpath 25.51163 0 moveto
51.0237 76.53532 lineto stroke
newpath 32.59825 55.2755 moveto
41.81088 63.30518 51.77856 70.42493 62.3621 76.53532 curveto stroke
showpage
%%EOF
