<?xml version="1.0" encoding="UTF-8" standalone="no"?>
<!-- Created by MetaPost 2.000 on 2021.05.22:1318 -->

<svg
   version="1.1"
   width="60.861710"
   height="84.535324"
   viewBox="0 0 60.861710 84.535324"
   id="svg6"
   sodipodi:docname="86_3.svg"
   inkscape:version="1.1 (ce6663b3b7, 2021-05-25)"
   xmlns:inkscape="http://www.inkscape.org/namespaces/inkscape"
   xmlns:sodipodi="http://sodipodi.sourceforge.net/DTD/sodipodi-0.dtd"
   xmlns="http://www.w3.org/2000/svg"
   xmlns:svg="http://www.w3.org/2000/svg">
  <defs
     id="defs10">
    <inkscape:path-effect
       effect="taper_stroke"
       id="path-effect14"
       is_visible="true"
       lpeversion="1"
       stroke_width="9"
       attach_start="0.3"
       end_offset="0.2"
       start_smoothing="0.7"
       end_smoothing="0.7"
       jointype="extrapolated"
       start_shape="center"
       end_shape="center"
       miter_limit="100" />
    <inkscape:path-effect
       effect="taper_stroke"
       id="path-effect12"
       is_visible="true"
       lpeversion="1"
       stroke_width="9"
       attach_start="0.3"
       end_offset="0.2"
       start_smoothing="0.7"
       end_smoothing="0.7"
       jointype="extrapolated"
       start_shape="center"
       end_shape="center"
       miter_limit="100" />
  </defs>
  <sodipodi:namedview
     id="namedview8"
     pagecolor="#ffffff"
     bordercolor="#666666"
     borderopacity="1.0"
     inkscape:pageshadow="2"
     inkscape:pageopacity="0.0"
     inkscape:pagecheckerboard="0"
     showgrid="false"
     inkscape:zoom="9.9366745"
     inkscape:cx="11.422332"
     inkscape:cy="42.267662"
     inkscape:window-width="1853"
     inkscape:window-height="1025"
     inkscape:window-x="67"
     inkscape:window-y="27"
     inkscape:window-maximized="1"
     inkscape:current-layer="svg6" />
  <!-- Original BoundingBox: -4.000000 -4.000000 56.861710 80.535324 -->
  <path
     d="m 19.555725,58.07688 c 2.094399,7.048867 3.000351,12.55245 3.498804,16.144865 C 23.567333,77.91759 23.842422,80 23.842422,80 c 0,0 1.832381,-1.173695 3.622729,-5.035786 1.714701,-3.69891 3.44644,-10.69341 0.699039,-19.51304 C 24.185954,42.408393 15.637945,30.164859 11.24241,17.749746 9.542656,12.874655 7.7621774,9.3559129 6.4302373,7.0636557 5.0686018,4.720293 4,3.464676 4,3.464676 c 0,0 -1.1947904,1.1764913 -2.0391658,4.0482215 C 1.1255884,10.353578 0.6949963,15.002095 2.7584459,20.753469 7.4448655,33.99018 15.883239,46.036512 19.555725,58.07688 Z"
     style="stroke:none;stroke-width:8;stroke-linecap:round;stroke-linejoin:round;stroke-miterlimit:10;fill:#000000;fill-rule:nonzero"
     id="path2"
     inkscape:path-effect="#path-effect12"
     inkscape:original-d="M23.842422 80.000000C33.600922 53.189026,4.000000 30.550903,4.000000 3.464676" />
  <path
     d="M 29.983048,54.010766 C 24.408674,61.919008 22.856216,68.795596 22.774785,73.446279 22.695005,78.002721 23.842422,80 23.842422,80 c 0,0 1.128563,-1.911276 3.238125,-5.375106 3.649379,-5.992157 3.85012,-5.859676 10.317345,-15.513138 C 45.642507,47.127312 57.37977,34.899334 60.517017,20.990805 62.001844,14.3222 60.056347,9.4426202 58.331114,6.815179 56.600817,4.1800258 55.023697,3.464676 55.023697,3.464676 c 0,0 -0.528851,1.6043617 -1.087064,4.3116784 -0.558302,2.7077496 -1.094701,6.4240276 -2.199045,11.2341386 -2.724176,12.077244 -13.19869,22.563416 -21.75454,35.000273 z"
     style="stroke:none;stroke-width:8;stroke-linecap:round;stroke-linejoin:round;stroke-miterlimit:10;fill:#000000;fill-rule:nonzero"
     id="path4"
     inkscape:path-effect="#path-effect14"
     inkscape:original-d="M23.842422 80.000000C26.315109 51.737762,65.724426 32.864349,55.023697 3.464676" />
</svg>
