prologues:=3;
outputformat:="svg";
outputtemplate:=("%j" & "." & outputformat);
verbatimtex
%&latex
\documentclass{minimal}
\begin{document}
etex
beginfig(0);
z1=(0.9cm,0cm);
z2=(0.4cm,1.5cm);
z5=(0.9cm,0cm);
z6=(2.1cm, 2.7cm);
z7=(-1.2cm,2.7cm);
z8=(-0.7cm,0cm);
pickup pencircle scaled 8;
draw z1..{dir 120}z2;
draw z1..{dir 30}z6;
draw z7..{dir 230}z8;
draw z8..{dir 70}z2;
endfig;
end
