<?xml version="1.0"?>
<!-- Created by MetaPost 2.000 on 2022.03.30:1554 -->
<svg version="1.1" xmlns="http://www.w3.org/2000/svg" xmlns:xlink="http://www.w3.org/1999/xlink" width="36.346451" height="84.535324" viewBox="0 0 36.346451 84.535324">
<!-- Original BoundingBox: -4.000000 -4.000000 32.346451 80.535324 -->
  <path d="M4.000000 3.464676L32.346451 3.464676L32.346451 80.000000L4.000000 80.000000" style="stroke:rgb(0.000000%,0.000000%,0.000000%); stroke-width: 8.000000;stroke-linecap: round;stroke-linejoin: round;stroke-miterlimit: 10.000000;fill: none;"></path>
</svg>
