prologues:=3;
outputformat:="svg";
outputtemplate:=("%j" & "." & outputformat);
verbatimtex
%&latex
\documentclass{minimal}
\begin{document}
etex
beginfig(0);
z1=(1.9cm,0cm);
z3=(0cm,0.5cm);
z5=(0.5cm,0.1cm);
z7=(0cm,1.6cm);
z10=(1.2cm,1.4cm);
pickup pencircle scaled 8;
linejoin:=rounded; linecap:=butt;
draw z7..{dir 270}z10{dir 0}..{dir 270}z1;
draw z10{dir 270}..z3..z5..{dir 90}z10;
endfig;
end
