<?xml version="1.0"?>
<!-- Created by MetaPost 2.000 on 2022.03.30:1600 -->
<svg version="1.1" xmlns="http://www.w3.org/2000/svg" xmlns:xlink="http://www.w3.org/1999/xlink" width="64.692902" height="93.039352" viewBox="0 0 64.692902 93.039352">
<!-- Original BoundingBox: -4.000000 -4.000000 60.692902 89.039352 -->
  <path d="M4.000000 89.000000L4.000000 3.960648" style="stroke:rgb(0.000000%,0.000000%,0.000000%); stroke-width: 8.000000;stroke-linejoin: round;stroke-miterlimit: 10.000000;fill: none;"></path>
  <path d="M4.000000 60.653549C19.404160 60.653549,32.346451 72.445419,32.346451 87.582596L60.692902 60.653549C45.288742 60.653549,32.346451 48.861679,32.346451 33.724503L4.000000 60.653549" style="stroke:rgb(0.000000%,0.000000%,0.000000%); stroke-width: 8.000000;stroke-linejoin: round;stroke-miterlimit: 10.000000;fill: none;"></path>
</svg>
