prologues:=3;
outputformat:="svg";
outputtemplate:=("%j" & "." & outputformat);
verbatimtex
%&latex
\documentclass{minimal}
\begin{document}
etex
beginfig(0);
z3=(0.05cm,1cm);
z4=(1cm,1.95cm);
z6=(1cm,0.05cm);
z1=(1.55cm,1.45cm);
z2=(1.55cm, 0.55cm);
pickup pencircle scaled 8;
linejoin:=rounded; linecap:=butt;
draw z2--z6--z3--z4--z1;
endfig;
end
