%!PS-Adobe-3.0 EPSF-3.0
%%BoundingBox: -1 -4 47 74 
%%HiResBoundingBox: -0.43373 -4 46.51968 73.02426 
%%Creator: MetaPost 2.000
%%CreationDate: 2021.05.07:1537
%%Pages: 1
%%DocumentResources: procset mpost-minimal
%%DocumentSuppliedResources: procset mpost-minimal
%%EndComments
%%BeginProlog
%%BeginResource: procset mpost-minimal
/bd{bind def}bind def/fshow {exch findfont exch scalefont setfont show}bd
/fcp{findfont dup length dict begin{1 index/FID ne{def}{pop pop}ifelse}forall}bd
/fmc{FontMatrix dup length array copy dup dup}bd/fmd{/FontMatrix exch def}bd
/Amul{4 -1 roll exch mul 1000 div}bd/ExtendFont{fmc 0 get Amul 0 exch put fmd}bd
/ScaleFont{dup fmc 0 get Amul 0 exch put dup dup 3 get Amul 3 exch put fmd}bd
/SlantFont{fmc 2 get dup 0 eq{pop 1}if Amul FontMatrix 0 get mul 2 exch put fmd}bd
%%EndResource
%%EndProlog
%%BeginSetup
%%EndSetup
%%Page: 1 1
 0 0 0 setrgbcolor 0 8 dtransform truncate idtransform setlinewidth pop
 [] 0 setdash 1 setlinecap 1 setlinejoin 10 setmiterlimit
newpath 35.43306 0 moveto
21.37929 5.11522 12.61281 19.14154 14.17323 34.01566 curveto stroke
newpath 14.17323 34.01566 moveto
-20.9842 56.30843 42.51968 91.23576 42.51968 49.6063 curveto stroke
showpage
%%EOF
