prologues:=3;
outputformat:="svg";
outputtemplate:=("%j" & "." & outputformat);
verbatimtex
%&latex
\documentclass{minimal}
\begin{document}
etex
beginfig(0);
z1=(0cm,0.15cm);
z2=(0cm,2.7cm);
z4=(0.8cm,2.7cm);
z5=(-0.45cm,1.95cm);
z6=(0.6cm, 1cm);
z7=(-0.6cm, 1cm);
z8=(1cm, 0.15cm);
z9=(-1cm, 0cm);
pickup pencircle scaled 8;
draw z9--z5--z4;
draw z6--z7;
draw z8--z1--z2;
endfig;
end
