prologues:=3;
outputformat:="svg";
outputtemplate:=("%j" & "." & outputformat);
verbatimtex
%&latex
\documentclass{minimal}
\begin{document}
etex
beginfig(0);
z1=(1.6cm,0.1cm);
z2=(1.6cm,1.25cm);
z3=(0cm,0.51cm);
z4=(0.8cm,1.9cm);
z5=(0.5cm,0.125cm);
z7=(0cm,1.5cm);
z8=(1cm,0.51cm);
z9=(0.5cm,1cm);
z10=(1.6cm,1cm);
z11=(3.05cm, 0.1cm);
z12=(2.35cm, 0.9cm);
z13=(2.35cm, -0.9cm);
z14=(3.05cm, -0.6cm);
pickup pencircle scaled 9;
draw z7..z4..{dir 270}z2--z1--z11..z12..z1..z13..z14;
draw z10--z9..z3..z5..z8..z9;
endfig;
end
