prologues:=3;
outputformat:="svg";
outputtemplate:=("%j" & "." & outputformat);
verbatimtex
%&latex
\documentclass{minimal}
\begin{document}
etex
beginfig(0);
z3=(-0.4cm,0.8cm);
z4=(1cm,2cm);
z5=(0.4cm,0.2cm);
z8=(1.5cm,1.3cm);
z1=(1.4cm, 0.2cm);
z2=(0cm, 0.4cm);
z6=(0cm, 2cm);
z7=(2.3cm, 1.3cm);
z9=(1cm, 3cm);
z10=(2.1cm, 2.6cm);
pickup pencircle scaled 9;
draw z3{dir 30}..{dir 0}z8{dir 160}..{dir 70}z4{dir 250}..{dir 140}z6{dir 310}..{dir 210}z3{dir 0}..{dir 270}z5{dir 60}..z1;
draw z7{dir 130}..z8;
draw z4..{dir 50}z9{dir 330}..{dir 30}z10{dir 230}..z4;
endfig;
end
