prologues:=3;
outputformat:="svg";
outputtemplate:=("%j" & "." & outputformat);
verbatimtex
%&latex
\documentclass{minimal}
\begin{document}
etex
beginfig(0);
z1=(0cm,0cm);
z2=(0cm,2cm);
z3=(-1.4cm,0.6cm);
z4=(0.8cm,2cm);
z5=(2.25cm,2cm);
z8=(2cm, -0.25cm);
z9=(3.5cm, 1.3cm);
z10=(1.55cm, 1cm);
z11=(2.25cm, 1.3cm);
z12=(1.55cm, 2.8cm);
z13=(3.5cm, -0.25cm);
z14=(1.25cm, -0.7cm);
z15=(3cm, -0.6cm);
z24=(5.55cm, 0.5cm);
z16=(-2.2cm, 1.2cm);
z17=(-2.2cm, 2cm);
z18=(-2.2cm, -0.5cm);
z19=(-2.8cm, 1.4cm);
z20=(-3.5cm, 1.1cm);
z21=(-4.25cm, 2.1cm);
z22=(-3.5cm, 2.9cm);
z23=(-2.8cm, 2.1cm);
z25=(-0.8cm, 2cm);
z26=(-0.8cm, 1.15cm);
z6=(2.7cm, -0.5cm);
z7=(3.5cm, 0.5cm);
z27=(4.85cm, 1.3cm);
z28=(4.1cm, 0.5cm);
z29=(4.85cm, -0.5cm);
z30=(5.55cm, -0.2cm);
pickup pencircle scaled 9;
draw z1--z2;
draw z21--z23..z22..z21..z20..z19--z17;
draw z17--z16..{dir 0}z3--z4--z5..z12..z4..z10..z11;
draw z11{dir 210}..{dir 230}z8..z14;
draw z8{dir 30}..z9;
draw z9--z13..z15..z6;
draw z25--z26;
draw z7--z24..z27..z28..z29..z30;
endfig;
end
