<?xml version="1.0" encoding="UTF-8" standalone="no"?>
<!-- Created by MetaPost 2.000 on 2021.08.15:1648 -->

<svg
   xmlns:dc="http://purl.org/dc/elements/1.1/"
   xmlns:cc="http://creativecommons.org/ns#"
   xmlns:rdf="http://www.w3.org/1999/02/22-rdf-syntax-ns#"
   xmlns:svg="http://www.w3.org/2000/svg"
   xmlns="http://www.w3.org/2000/svg"
   xmlns:sodipodi="http://sodipodi.sourceforge.net/DTD/sodipodi-0.dtd"
   xmlns:inkscape="http://www.inkscape.org/namespaces/inkscape"
   version="1.1"
   width="128.055008"
   height="85.535324"
   viewBox="0 0 128.055008 85.535324"
   id="svg8"
   sodipodi:docname="tes.svg"
   inkscape:version="0.92.3 (2405546, 2018-03-11)">
  <metadata
     id="metadata14">
    <rdf:RDF>
      <cc:Work
         rdf:about="">
        <dc:format>image/svg+xml</dc:format>
        <dc:type
           rdf:resource="http://purl.org/dc/dcmitype/StillImage" />
      </cc:Work>
    </rdf:RDF>
  </metadata>
  <defs
     id="defs12">
    <inkscape:path-effect
       effect="taper_stroke"
       id="path-effect825"
       is_visible="true"
       stroke_width="9"
       attach_start="0.1"
       end_offset="0.1"
       smoothing="0.7"
       jointype="round"
       miter_limit="100" />
    <inkscape:path-effect
       effect="taper_stroke"
       id="path-effect823"
       is_visible="true"
       stroke_width="9"
       attach_start="0.2"
       end_offset="0.2"
       smoothing="0.7"
       jointype="round"
       miter_limit="100" />
    <inkscape:path-effect
       effect="taper_stroke"
       id="path-effect821"
       is_visible="true"
       stroke_width="9"
       attach_start="0.2"
       end_offset="0.2"
       smoothing="0.7"
       jointype="extrapolated"
       miter_limit="100" />
  </defs>
  <sodipodi:namedview
     pagecolor="#ffffff"
     bordercolor="#666666"
     borderopacity="1"
     objecttolerance="10"
     gridtolerance="10"
     guidetolerance="10"
     inkscape:pageopacity="0"
     inkscape:pageshadow="2"
     inkscape:window-width="1600"
     inkscape:window-height="872"
     id="namedview10"
     showgrid="false"
     inkscape:zoom="2.759094"
     inkscape:cx="-18.970755"
     inkscape:cy="42.767662"
     inkscape:window-x="1920"
     inkscape:window-y="0"
     inkscape:window-maximized="1"
     inkscape:current-layer="svg8" />
  <!-- Original BoundingBox: -24.342422 -4.500000 103.712585 81.035324 -->
  <path
     d="M 19.5,66.826773 C 19.5,76.748032 24,81 24,81 c 0,0 4.5,-4.251968 4.5,-14.173227 l 0,-42.519681 C 28.5,14.385833 24,10.133865 24,10.133865 c 0,0 -4.5,4.251968 -4.5,14.173227 z"
     style="stroke:none;stroke-width:9;stroke-linecap:round;stroke-linejoin:round;stroke-miterlimit:10;fill:#000000;fill-rule:nonzero"
     id="path2"
     inkscape:path-effect="#path-effect821"
     inkscape:original-d="M24.000000 81.000000L24.000000 10.133865" />
  <path
     d="m 87.675194,55.152703 c 3.145551,-2.776047 0.104316,-6.750954 0.104316,-6.750954 0,0 -4.388142,-1.471163 -6.058757,0.0023 -3.567863,3.14797 -8.363834,4.667536 -13.204,4.038815 a 4.5,4.5 0 0 0 -10e-7,0 C 63.07776,51.736335 58.626067,48.849087 55.510258,44.599842 52.394449,40.350596 50.717954,34.748117 51.164196,28.901356 c 0.386223,-5.060377 2.414828,-9.734593 5.432857,-13.065335 3.018029,-3.330743 6.896048,-5.335947 11.457911,-5.455485 4.765222,-0.124866 8.905767,1.902403 11.741916,5.143678 2.836148,3.241276 4.295893,7.614263 3.539624,12.320754 L 87.77951,24.058899 H 20.881964 c -11.7070701,0 -16.724386,4.5 -16.724386,4.5 0,0 5.0173159,4.5 16.724386,4.5 H 87.77951 A 4.5,4.5 0 0 0 92.222516,29.27283 C 93.411255,21.874951 91.077497,14.74896 86.570037,9.5976351 82.062577,4.4463099 75.309407,1.1873541 67.819211,1.3836241 60.674822,1.5708341 54.383003,4.8759251 49.927716,9.7928477 45.472428,14.70977 42.724239,21.22059 42.190296,28.216442 c -0.608461,7.972193 1.637842,15.671709 6.062069,21.705334 4.424226,6.033626 11.129805,10.410126 19.105059,11.446083 7.43183,0.96537 14.823481,-1.367477 20.31777,-6.215156 z"
     style="stroke:none;stroke-width:9;stroke-linecap:round;stroke-linejoin:round;stroke-miterlimit:10;fill:#000000;fill-rule:nonzero"
     id="path4"
     inkscape:path-effect="#path-effect823"
     inkscape:original-d="M87.779510 48.401749C83.211166 54.642883,75.607086 57.901657,67.937088 56.905350C54.522842 55.162888,45.622543 42.377853,46.677246 28.558899C47.597412 16.502670,56.230835 6.188828,67.937088 5.882080C80.192505 5.560944,89.724518 16.454529,87.779510 28.558899L4.157578 28.558899" />
  <path
     d="m 121.16542,10.687987 c 0.95238,-0.8363809 1.41202,-2.270835 1.70434,-3.6572367 0.28758,-1.3639171 0.34283,-2.5660743 0.34283,-2.5660743 0,0 -0.76319,-0.9452005 -2.17683,-1.5494103 -1.36685,-0.5842172 -3.57779,-0.8493325 -5.68631,0.9043484 -1.98092,1.6773965 -3.47551,3.7084181 -4.51082,5.8570197 -1.03531,2.1486012 -1.63153,4.4022942 -1.97498,6.6579912 -0.6869,4.511393 -0.41247,9.082375 -0.15475,13.453969 0.25773,4.371593 0.50636,8.546549 0.1313,11.972143 -0.37505,3.425594 -1.2702,5.912709 -3.05775,7.787563 -2.36192,2.477269 -5.24867,3.292435 -7.773743,3.023407 -2.525077,-0.269029 -4.460449,-1.558487 -5.351153,-3.500532 -0.192841,-0.414217 -1.387045,-0.493441 -2.560196,-0.567638 -1.174721,-0.0743 -2.317848,-0.101788 -2.317848,-0.101788 0,0 -1.086236,0.369132 -2.061146,1.141031 -0.962168,0.761811 -1.827693,1.994882 -1.241436,3.280376 2.340328,5.10273 7.330385,8.138775 12.578292,8.697901 5.24791,0.559125 10.9817,-1.294905 15.24104,-5.762258 a 4.5,4.5 0 0 0 0,-2e-6 c 3.5485,-3.721808 4.99052,-8.452132 5.49048,-13.018539 0.49996,-4.566407 0.16144,-9.158016 -0.0934,-13.481333 -0.25488,-4.323318 -0.4185,-8.375594 0.0678,-11.569592 0.24315,-1.596998 0.63635,-2.966535 1.18536,-4.105918 0.54901,-1.139384 1.23365,-2.061103 2.21895,-2.895428 z"
     style="stroke:none;stroke-width:9;stroke-linecap:round;stroke-linejoin:round;stroke-miterlimit:10;fill:#000000;fill-rule:nonzero"
     id="path6"
     inkscape:path-effect="#path-effect825"
     inkscape:original-d="M123.212585 4.464676C103.136612 11.771820,120.897247 40.216522,109.039352 52.653549C101.682404 60.369797,89.388947 57.529434,87.779510 48.401749" />
</svg>
