prologues:=3;
outputformat:="svg";
outputtemplate:=("%j" & "." & outputformat);
verbatimtex
%&latex
\documentclass{minimal}
\begin{document}
etex
beginfig(0);
z1=(1.4cm,0cm);
z2=(-0.4cm,2cm);
z5=(-0.4cm,0cm);
z6=(2.4cm, 3cm);
z3=(2.4cm, 2cm);
z4=(2cm, 1.6cm);
z7=(1.5cm, 2cm);
z8=(3.4cm, 2cm);
z9=(2.8cm, 2.55cm);
z10=(2.8cm, 1.25cm);
pickup pencircle scaled 9;
draw z1--z2;
draw z5--z6--z3..z4..z7;
draw z3--z8..z9..z3..z10;
endfig;
end
