<?xml version="1.0" encoding="UTF-8" standalone="no"?>
<!-- Created by MetaPost 2.000 on 2021.08.22:1629 -->

<svg
   xmlns:dc="http://purl.org/dc/elements/1.1/"
   xmlns:cc="http://creativecommons.org/ns#"
   xmlns:rdf="http://www.w3.org/1999/02/22-rdf-syntax-ns#"
   xmlns:svg="http://www.w3.org/2000/svg"
   xmlns="http://www.w3.org/2000/svg"
   xmlns:sodipodi="http://sodipodi.sourceforge.net/DTD/sodipodi-0.dtd"
   xmlns:inkscape="http://www.inkscape.org/namespaces/inkscape"
   version="1.1"
   width="118.386398"
   height="77.208374"
   viewBox="0 0 118.386398 77.208374"
   id="svg8"
   sodipodi:docname="xse2.svg"
   inkscape:version="0.92.3 (2405546, 2018-03-11)">
  <metadata
     id="metadata14">
    <rdf:RDF>
      <cc:Work
         rdf:about="">
        <dc:format>image/svg+xml</dc:format>
        <dc:type
           rdf:resource="http://purl.org/dc/dcmitype/StillImage" />
      </cc:Work>
    </rdf:RDF>
  </metadata>
  <defs
     id="defs12">
    <inkscape:path-effect
       effect="taper_stroke"
       id="path-effect825"
       is_visible="true"
       stroke_width="9"
       attach_start="0.1"
       end_offset="0.2"
       smoothing="0.7"
       jointype="round"
       miter_limit="100" />
    <inkscape:path-effect
       effect="taper_stroke"
       id="path-effect823"
       is_visible="true"
       stroke_width="9"
       attach_start="0.2"
       end_offset="0.2"
       smoothing="0.7"
       jointype="round"
       miter_limit="100" />
    <inkscape:path-effect
       effect="taper_stroke"
       id="path-effect821"
       is_visible="true"
       stroke_width="9"
       attach_start="0.2"
       end_offset="0.2"
       smoothing="0.7"
       jointype="extrapolated"
       miter_limit="100" />
  </defs>
  <sodipodi:namedview
     pagecolor="#ffffff"
     bordercolor="#666666"
     borderopacity="1"
     objecttolerance="10"
     gridtolerance="10"
     guidetolerance="10"
     inkscape:pageopacity="0"
     inkscape:pageshadow="2"
     inkscape:window-width="1600"
     inkscape:window-height="872"
     id="namedview10"
     showgrid="false"
     inkscape:zoom="3.0566633"
     inkscape:cx="53.223562"
     inkscape:cy="38.604187"
     inkscape:window-x="1920"
     inkscape:window-y="0"
     inkscape:window-maximized="1"
     inkscape:current-layer="svg8" />
  <!-- Original BoundingBox: -15.838409 -16.015472 102.547989 61.192902 -->
  <path
     d="m 23.15677,30.166239 c 3.968503,3.968503 8.851271,2.48731 8.851271,2.48731 0,0 1.481194,-4.882768 -2.487309,-8.851271 L 12.512862,6.7944077 C 8.5443586,2.8259046 3.661591,4.307098 3.661591,4.307098 c 0,0 -1.4811936,4.8827675 2.4873094,8.851271 z"
     style="stroke:none;stroke-width:9;stroke-linecap:round;stroke-linejoin:round;stroke-miterlimit:10;fill:#000000;fill-rule:nonzero"
     id="path2"
     inkscape:path-effect="#path-effect821"
     inkscape:original-d="M32.008041 32.653549L3.661591 4.307098" />
  <path
     d="M 10.599452,47.133539 C 3.4561948,54.67367 3.661591,61 3.661591,61 c 0,0 6.3281885,-0.136639 13.471446,-7.67677 l 33.051823,-34.888154 0,25.552188 c -0.0072,3.136927 -1.40151,5.797063 -3.573782,7.607317 -2.173181,1.811009 -5.042628,2.702821 -8.130913,2.142805 -3.68848,-0.668857 -6.485599,-3.416115 -7.365376,-6.857379 -0.220774,-0.859368 -1.393481,-1.470319 -2.534219,-1.990185 -1.139811,-0.519443 -2.242161,-0.897863 -2.242161,-0.897863 0,0 -1.150068,0.225651 -2.256265,1.020086 -1.086431,0.780239 -2.166248,2.217618 -1.686911,4.097162 1.736675,6.793038 7.30666,12.183133 14.479093,13.483758 a 4.5,4.5 0 0 0 3e-6,10e-7 c 5.757967,1.044125 11.383705,-0.655425 15.498458,-4.084435 4.114752,-3.429011 6.800842,-8.656086 6.812065,-14.507942 a 4.5,4.5 0 0 0 8e-6,-0.0086 V 7.141922 A 4.5,4.5 0 0 0 51.418068,4.0470766 Z"
     style="stroke:none;stroke-width:9;stroke-linecap:round;stroke-linejoin:round;stroke-miterlimit:10;fill:#000000;fill-rule:nonzero"
     id="path4"
     inkscape:path-effect="#path-effect823"
     inkscape:original-d="M3.661591 61.000000L54.684860 7.141922L54.684860 43.991959C54.667618 52.982452,46.523499 59.769318,37.677246 58.165176C30.889175 56.934250,26.049393 50.884674,26.338409 43.991959" />
  <path
     d="m 60.495891,39.491959 c -4.067722,0 -5.811031,4.5 -5.811031,4.5 0,0 1.743309,4.5 5.811031,4.5 h 52.299279 a 4.5,4.5 0 0 0 4.443,-3.78607 c 1.18874,-7.397878 -1.14502,-14.523869 -5.65248,-19.675194 -4.50746,-5.151325 -11.26063,-8.410282 -18.750822,-8.214011 -7.14439,0.187209 -13.43621,3.492301 -17.891497,8.409223 -4.455287,4.916923 -7.203476,11.427743 -7.737419,18.423594 -0.608462,7.972188 1.637843,15.671699 6.062069,21.705324 4.424225,6.033624 11.129802,10.410127 19.105054,11.446093 a 4.5,4.5 0 0 0 3e-6,0 c 7.431827,0.96537 14.823482,-1.367463 20.317772,-6.21514 3.14555,-2.776047 0.10432,-6.750954 0.10432,-6.750954 0,0 -4.38815,-1.471163 -6.05876,0.0023 -3.56786,3.147965 -8.363829,4.667524 -13.203999,4.038802 -5.438993,-0.706512 -9.890688,-3.593764 -13.006497,-7.84301 -3.11581,-4.249246 -4.792303,-9.851722 -4.346062,-15.698474 0.386223,-5.060377 2.414828,-9.734593 5.432857,-13.065336 3.018029,-3.330743 6.896047,-5.335946 11.457911,-5.455484 4.765222,-0.124866 8.90577,1.902402 11.74192,5.143678 2.83614,3.241276 4.29589,7.614263 3.53962,12.320755 l 4.44301,-3.78607 z"
     style="stroke:none;stroke-width:9;stroke-linecap:round;stroke-linejoin:round;stroke-miterlimit:10;fill:#000000;fill-rule:nonzero"
     id="path6"
     inkscape:path-effect="#path-effect825"
     inkscape:original-d="M54.684860 43.991959L112.795166 43.991959C114.740173 31.887589,105.208160 20.994003,92.952744 21.315140C81.246490 21.621887,72.613068 31.935730,71.692902 43.991959C70.638199 57.810898,79.538498 70.595932,92.952744 72.338409C100.622742 73.334717,108.226822 70.075958,112.795166 63.834824" />
</svg>
