<?xml version="1.0" encoding="UTF-8"?>
<glyph name="G" format="1">
  <advance width="708"/>
  <unicode hex="0047"/>
  <outline>
    <contour>
      <point x="575.029" y="55.7324" type="curve" smooth="yes"/>
      <point x="518.086" y="9.75586"/>
      <point x="444.805" y="-13.7305"/>
      <point x="369.58" y="-7.60742" type="curve" smooth="yes"/>
      <point x="172.324" y="8.45703"/>
      <point x="48.7598" y="194.336"/>
      <point x="44.7754" y="390.664" type="curve" smooth="yes"/>
      <point x="41.4844" y="552.617"/>
      <point x="122.207" y="710.342"/>
      <point x="259.844" y="768.232" type="curve" smooth="yes"/>
      <point x="298.154" y="784.287"/>
      <point x="330.029" y="776.475"/>
      <point x="347.783" y="767.227" type="curve" smooth="yes"/>
      <point x="366.23" y="757.617"/>
      <point x="373.232" y="745.908"/>
      <point x="373.232" y="745.908" type="curve"/>
      <point x="373.232" y="745.908"/>
      <point x="365.42" y="734.961"/>
      <point x="351.953" y="722.412" type="curve" smooth="yes"/>
      <point x="338.027" y="709.434"/>
      <point x="320.371" y="696.113"/>
      <point x="294.746" y="685.273" type="curve" smooth="yes"/>
      <point x="197.441" y="644.346"/>
      <point x="132.051" y="525.527"/>
      <point x="134.756" y="392.49" type="curve" smooth="yes"/>
      <point x="137.988" y="233.447"/>
      <point x="235.264" y="93.623"/>
      <point x="376.885" y="82.0996" type="curve" smooth="yes"/>
      <point x="428.789" y="77.8711"/>
      <point x="479.287" y="94.1016"/>
      <point x="518.486" y="125.752" type="curve" smooth="yes"/>
      <point x="536.016" y="139.902"/>
      <point x="554.795" y="145.479"/>
      <point x="571.152" y="148.32" type="curve" smooth="yes"/>
      <point x="587.256" y="151.113"/>
      <point x="600" y="150.625"/>
      <point x="600" y="150.625" type="curve"/>
      <point x="600" y="150.625"/>
      <point x="606.738" y="139.639"/>
      <point x="607.227" y="121.426" type="curve" smooth="yes"/>
      <point x="607.695" y="103.701"/>
      <point x="601.426" y="77.0605"/>
    </contour>
    <contour>
      <point x="392.432" y="414.014" type="curve" smooth="yes"/>
      <point x="571.016" y="541.572" type="line" smooth="yes"/>
      <point x="612.676" y="571.338"/>
      <point x="656.689" y="547.48"/>
      <point x="656.689" y="547.48" type="curve"/>
      <point x="656.689" y="547.48"/>
      <point x="664.99" y="498.105"/>
      <point x="623.32" y="468.34" type="curve" smooth="yes"/>
      <point x="444.736" y="340.781" type="line" smooth="yes"/>
      <point x="403.066" y="311.016"/>
      <point x="359.053" y="334.873"/>
      <point x="359.053" y="334.873" type="curve"/>
      <point x="359.053" y="334.873"/>
      <point x="350.762" y="384.248"/>
    </contour>
    <contour>
      <point x="555" y="230" type="curve" smooth="yes"/>
      <point x="555" y="468.105" type="line" smooth="yes"/>
      <point x="555" y="523.662"/>
      <point x="600" y="547.48"/>
      <point x="600" y="547.48" type="curve"/>
      <point x="600" y="547.48"/>
      <point x="645" y="523.662"/>
      <point x="645" y="468.105" type="curve" smooth="yes"/>
      <point x="645" y="230" type="line" smooth="yes"/>
      <point x="645" y="174.443"/>
      <point x="600" y="150.625"/>
      <point x="600" y="150.625" type="curve"/>
      <point x="600" y="150.625"/>
      <point x="555" y="174.443"/>
    </contour>
  </outline>
</glyph>
