<?xml version="1.0" encoding="UTF-8"?>
<glyph name="parenleft" format="1">
  <advance width="499"/>
  <unicode hex="0028"/>
  <outline>
    <contour>
      <point x="339.848" y="6.56641" type="curve" smooth="yes"/>
      <point x="186.625" y="63.0996"/>
      <point x="78.627" y="210.277"/>
      <point x="78.627" y="381.547" type="curve" smooth="yes"/>
      <point x="78.627" y="552.816"/>
      <point x="186.625" y="699.994"/>
      <point x="339.848" y="756.527" type="curve" smooth="yes"/>
      <point x="381.312" y="771.811"/>
      <point x="415.18" y="764.926"/>
      <point x="434.945" y="756.186" type="curve" smooth="yes"/>
      <point x="455.307" y="747.182"/>
      <point x="463.783" y="735.873"/>
      <point x="463.783" y="735.873" type="curve"/>
      <point x="463.783" y="735.873"/>
      <point x="455.58" y="724.584"/>
      <point x="440.092" y="711.479" type="curve" smooth="yes"/>
      <point x="424.594" y="698.373"/>
      <point x="402.709" y="683.803"/>
      <point x="371" y="672.094" type="curve" smooth="yes"/>
      <point x="252.748" y="628.461"/>
      <point x="168.627" y="514.643"/>
      <point x="168.627" y="381.547" type="curve" smooth="yes"/>
      <point x="168.627" y="248.451"/>
      <point x="252.748" y="134.633"/>
      <point x="371" y="91" type="curve" smooth="yes"/>
      <point x="402.709" y="79.291"/>
      <point x="424.594" y="64.7207"/>
      <point x="440.092" y="51.6152" type="curve" smooth="yes"/>
      <point x="455.58" y="38.5098"/>
      <point x="463.783" y="27.2207"/>
      <point x="463.783" y="27.2207" type="curve"/>
      <point x="463.783" y="27.2207"/>
      <point x="455.307" y="15.9121"/>
      <point x="434.945" y="6.9082" type="curve" smooth="yes"/>
      <point x="415.18" y="-1.83203"/>
      <point x="381.312" y="-8.7168"/>
    </contour>
  </outline>
  <lib>
    <dict>
      <key>com.fontlab.hintData</key>
      <dict>
        <key>vhints</key>
        <array>
          <dict>
            <key>position</key>
            <integer>129</integer>
            <key>width</key>
            <integer>80</integer>
          </dict>
        </array>
      </dict>
    </dict>
  </lib>
</glyph>
