<?xml version="1.0" encoding="UTF-8"?>
<glyph name="WO" format="1">
  <advance width="913"/>
  <outline>
    <contour>
      <point x="518.939" y="295.602" type="curve" smooth="yes"/>
      <point x="348.861" y="733.768" type="line" smooth="yes"/>
      <point x="309.174" y="813.133"/>
      <point x="332.416" y="867.273"/>
      <point x="332.416" y="867.273" type="curve"/>
      <point x="332.416" y="867.273"/>
      <point x="389.672" y="853.387"/>
      <point x="429.359" y="774.012" type="curve" smooth="yes"/>
      <point x="599.438" y="335.855" type="line" smooth="yes"/>
      <point x="639.125" y="256.48"/>
      <point x="615.883" y="202.34"/>
      <point x="615.883" y="202.34" type="curve"/>
      <point x="615.883" y="202.34"/>
      <point x="558.627" y="216.236"/>
    </contour>
    <contour>
      <point x="632.328" y="335.855" type="curve" smooth="yes"/>
      <point x="802.406" y="774.012" type="line" smooth="yes"/>
      <point x="842.094" y="853.387"/>
      <point x="899.35" y="867.273"/>
      <point x="899.35" y="867.273" type="curve"/>
      <point x="899.35" y="867.273"/>
      <point x="922.592" y="813.133"/>
      <point x="882.904" y="733.768" type="curve" smooth="yes"/>
      <point x="712.826" y="295.602" type="line" smooth="yes"/>
      <point x="673.139" y="216.236"/>
      <point x="615.883" y="202.34"/>
      <point x="615.883" y="202.34" type="curve"/>
      <point x="615.883" y="202.34"/>
      <point x="592.641" y="256.48"/>
    </contour>
    <contour>
      <point x="145.893" y="774.012" type="curve" smooth="yes"/>
      <point x="315.971" y="335.855" type="line" smooth="yes"/>
      <point x="355.658" y="256.48"/>
      <point x="332.416" y="202.34"/>
      <point x="332.416" y="202.34" type="curve"/>
      <point x="332.416" y="202.34"/>
      <point x="275.16" y="216.236"/>
      <point x="235.473" y="295.602" type="curve" smooth="yes"/>
      <point x="65.3945" y="733.768" type="line" smooth="yes"/>
      <point x="25.7168" y="813.133"/>
      <point x="48.959" y="867.273"/>
      <point x="48.959" y="867.273" type="curve"/>
      <point x="48.959" y="867.273"/>
      <point x="106.215" y="853.387"/>
    </contour>
    <contour>
      <point x="348.861" y="335.855" type="curve" smooth="yes"/>
      <point x="518.939" y="774.012" type="line" smooth="yes"/>
      <point x="558.627" y="853.387"/>
      <point x="615.883" y="867.273"/>
      <point x="615.883" y="867.273" type="curve"/>
      <point x="615.883" y="867.273"/>
      <point x="639.125" y="813.133"/>
      <point x="599.438" y="733.768" type="curve" smooth="yes"/>
      <point x="429.359" y="295.602" type="line" smooth="yes"/>
      <point x="389.672" y="216.236"/>
      <point x="332.416" y="202.34"/>
      <point x="332.416" y="202.34" type="curve"/>
      <point x="332.416" y="202.34"/>
      <point x="309.174" y="256.48"/>
    </contour>
    <contour>
      <point x="808.562" y="-171.207" type="curve" smooth="yes"/>
      <point x="782.459" y="-234.02"/>
      <point x="733.602" y="-283.648"/>
      <point x="674.266" y="-317.252" type="curve" smooth="yes"/>
      <point x="614.92" y="-350.846"/>
      <point x="544.686" y="-369"/>
      <point x="472" y="-369" type="curve" smooth="yes"/>
      <point x="381.131" y="-369"/>
      <point x="293.982" y="-340.807"/>
      <point x="227.439" y="-289.137" type="curve" smooth="yes"/>
      <point x="160.887" y="-237.457"/>
      <point x="115.184" y="-159.752"/>
      <point x="115.184" y="-68.8828" type="curve" smooth="yes"/>
      <point x="115.184" y="21.9863"/>
      <point x="160.887" y="99.7012"/>
      <point x="227.439" y="151.371" type="curve" smooth="yes"/>
      <point x="293.982" y="203.041"/>
      <point x="381.131" y="231.234"/>
      <point x="472" y="231.234" type="curve" smooth="yes"/>
      <point x="544.686" y="231.234"/>
      <point x="614.92" y="213.09"/>
      <point x="674.266" y="179.486" type="curve" smooth="yes"/>
      <point x="733.602" y="145.883"/>
      <point x="782.459" y="96.2637"/>
      <point x="808.562" y="33.4414" type="curve" smooth="yes"/>
      <point x="826.814" y="-10.6602"/>
      <point x="815.135" y="-40.8652"/>
      <point x="805.818" y="-53.2969" type="curve" smooth="yes"/>
      <point x="795.438" y="-67.1445"/>
      <point x="783.807" y="-68.8828"/>
      <point x="783.807" y="-68.8828" type="curve"/>
      <point x="783.807" y="-68.8828"/>
      <point x="772.84" y="-66.2168"/>
      <point x="760.906" y="-56.1191" type="curve" smooth="yes"/>
      <point x="747.732" y="-44.9766"/>
      <point x="737.684" y="-30.3379"/>
      <point x="725.457" y="-1.09961" type="curve" smooth="yes"/>
      <point x="708.201" y="40.4141"/>
      <point x="674.676" y="75.8242"/>
      <point x="629.92" y="101.166" type="curve" smooth="yes"/>
      <point x="585.154" y="126.518"/>
      <point x="529.549" y="141.234"/>
      <point x="472" y="141.234" type="curve" smooth="yes"/>
      <point x="400.057" y="141.234"/>
      <point x="331.297" y="118.07"/>
      <point x="282.635" y="80.2871" type="curve" smooth="yes"/>
      <point x="233.982" y="42.5039"/>
      <point x="205.184" y="-7.33984"/>
      <point x="205.184" y="-68.8828" type="curve" smooth="yes"/>
      <point x="205.184" y="-130.416"/>
      <point x="233.982" y="-180.27"/>
      <point x="282.635" y="-218.053" type="curve" smooth="yes"/>
      <point x="331.297" y="-255.836"/>
      <point x="400.057" y="-279"/>
      <point x="472" y="-279" type="curve" smooth="yes"/>
      <point x="529.549" y="-279"/>
      <point x="585.154" y="-264.283"/>
      <point x="629.92" y="-238.932" type="curve" smooth="yes"/>
      <point x="674.676" y="-213.58"/>
      <point x="708.201" y="-178.18"/>
      <point x="725.457" y="-136.666" type="curve" smooth="yes"/>
      <point x="737.684" y="-107.418"/>
      <point x="747.732" y="-92.7891"/>
      <point x="760.906" y="-81.6367" type="curve" smooth="yes"/>
      <point x="772.84" y="-71.5391"/>
      <point x="783.807" y="-68.8828"/>
      <point x="783.807" y="-68.8828" type="curve"/>
      <point x="783.807" y="-68.8828"/>
      <point x="795.438" y="-70.6113"/>
      <point x="805.818" y="-84.4688" type="curve" smooth="yes"/>
      <point x="815.135" y="-96.9004"/>
      <point x="826.814" y="-127.105"/>
    </contour>
    <contour>
      <point x="505.535" y="83.0898" type="curve" smooth="yes"/>
      <point x="718.133" y="210.648" type="line" smooth="yes"/>
      <point x="767.742" y="240.414"/>
      <point x="812.156" y="214.584"/>
      <point x="812.156" y="214.584" type="curve"/>
      <point x="812.156" y="214.584"/>
      <point x="814.041" y="163.236"/>
      <point x="764.441" y="133.48" type="curve" smooth="yes"/>
      <point x="551.844" y="5.91211" type="line" smooth="yes"/>
      <point x="502.234" y="-23.8438"/>
      <point x="457.82" y="1.98633"/>
      <point x="457.82" y="1.98633" type="curve"/>
      <point x="457.82" y="1.98633"/>
      <point x="455.926" y="53.3242"/>
    </contour>
  </outline>
</glyph>
