[gd_scene load_steps=4 format=2]

[ext_resource path="res://source/alterkasai.tres" type="DynamicFont" id=1]
[ext_resource path="res://RichTextLabel.gd" type="Script" id=2]
[ext_resource path="res://player.tscn" type="PackedScene" id=3]

[node name="Polygon2D" type="Polygon2D"]
polygon = PoolVector2Array( 0, 0, 100, 0, 100, 20, 0, 20 )

[node name="RichTextLabel" type="RichTextLabel" parent="."]
margin_right = 566.0
margin_bottom = 444.0
custom_fonts/normal_font = ExtResource( 1 )
text = "Ceci est mon texte"
script = ExtResource( 2 )

[node name="player1" parent="RichTextLabel" instance=ExtResource( 3 )]

