[gd_scene load_steps=41 format=2]

[ext_resource path="res://niveau2.gd" type="Script" id=1]
[ext_resource path="res://tuiles.tres" type="TileSet" id=2]
[ext_resource path="res://player2.tscn" type="PackedScene" id=3]
[ext_resource path="res://player.tscn" type="PackedScene" id=4]
[ext_resource path="res://bonus.tscn" type="PackedScene" id=5]
[ext_resource path="res://source/infini01.jpg" type="Texture" id=6]
[ext_resource path="res://source/infini02.jpg" type="Texture" id=7]
[ext_resource path="res://source/infini03.jpg" type="Texture" id=8]
[ext_resource path="res://source/infini04.jpg" type="Texture" id=9]
[ext_resource path="res://source/femme23.png" type="Texture" id=10]
[ext_resource path="res://source/femme01.png" type="Texture" id=11]
[ext_resource path="res://source/femme02.png" type="Texture" id=12]
[ext_resource path="res://source/femme03.png" type="Texture" id=13]
[ext_resource path="res://source/femme04.png" type="Texture" id=14]
[ext_resource path="res://source/femme05.png" type="Texture" id=15]
[ext_resource path="res://source/femme06.png" type="Texture" id=16]
[ext_resource path="res://source/femme07.png" type="Texture" id=17]
[ext_resource path="res://source/femme08.png" type="Texture" id=18]
[ext_resource path="res://source/femme09.png" type="Texture" id=19]
[ext_resource path="res://source/femme10.png" type="Texture" id=20]
[ext_resource path="res://source/femme11.png" type="Texture" id=21]
[ext_resource path="res://source/femme12.png" type="Texture" id=22]
[ext_resource path="res://source/femme13.png" type="Texture" id=23]
[ext_resource path="res://source/femme14.png" type="Texture" id=24]
[ext_resource path="res://source/femme15.png" type="Texture" id=25]
[ext_resource path="res://source/femme16.png" type="Texture" id=26]
[ext_resource path="res://source/femme17.png" type="Texture" id=27]
[ext_resource path="res://source/femme18.png" type="Texture" id=28]
[ext_resource path="res://source/femme19.png" type="Texture" id=29]
[ext_resource path="res://source/femme20.png" type="Texture" id=30]
[ext_resource path="res://source/femme21.png" type="Texture" id=31]
[ext_resource path="res://source/femme22.png" type="Texture" id=32]
[ext_resource path="res://source/femme24.png" type="Texture" id=33]
[ext_resource path="res://source/femme25.png" type="Texture" id=34]
[ext_resource path="res://source/femme26.png" type="Texture" id=35]
[ext_resource path="res://source/femme27.png" type="Texture" id=36]
[ext_resource path="res://source/femme28.png" type="Texture" id=37]
[ext_resource path="res://source/alterkasai.tres" type="DynamicFont" id=38]

[sub_resource type="SpriteFrames" id=1]
animations = [ {
"frames": [ ExtResource( 6 ), ExtResource( 7 ), ExtResource( 8 ), ExtResource( 9 ) ],
"loop": true,
"name": "default",
"speed": 5.0
} ]

[sub_resource type="SpriteFrames" id=2]
animations = [ {
"frames": [ ExtResource( 10 ), ExtResource( 10 ), ExtResource( 10 ), ExtResource( 10 ), ExtResource( 10 ), ExtResource( 10 ), ExtResource( 10 ), ExtResource( 10 ), ExtResource( 10 ), ExtResource( 10 ), ExtResource( 10 ), ExtResource( 10 ), ExtResource( 10 ), ExtResource( 10 ), ExtResource( 10 ), ExtResource( 10 ), ExtResource( 10 ), ExtResource( 10 ), ExtResource( 10 ), ExtResource( 11 ), ExtResource( 10 ), ExtResource( 10 ), ExtResource( 12 ), ExtResource( 13 ), ExtResource( 14 ), ExtResource( 15 ), ExtResource( 16 ), ExtResource( 17 ), ExtResource( 18 ), ExtResource( 19 ), ExtResource( 20 ), ExtResource( 21 ), ExtResource( 22 ), ExtResource( 23 ), ExtResource( 24 ), ExtResource( 25 ), ExtResource( 26 ), ExtResource( 27 ), ExtResource( 28 ), ExtResource( 29 ), ExtResource( 30 ), ExtResource( 31 ), ExtResource( 32 ), ExtResource( 10 ), ExtResource( 10 ), ExtResource( 33 ), ExtResource( 34 ), ExtResource( 35 ), ExtResource( 36 ), ExtResource( 37 ) ],
"loop": true,
"name": "explosion",
"speed": 5.0
} ]

[node name="Node2D" type="Node2D"]
script = ExtResource( 1 )

[node name="TileMap" type="TileMap" parent="."]
tile_set = ExtResource( 2 )
cell_size = Vector2( 77, 77 )
format = 1
tile_data = PoolIntArray( -720912, 1610612737, 0, -720911, 1610612737, 0, -720910, 1610612737, 0, -786417, -1610612736, 0, -655375, 1610612737, 0, -655374, 1610612737, 0, -655373, -1610612736, 0, -655372, -2147483648, 0, -655371, -2147483648, 0, -720885, -1610612736, 0, -720884, -1610612736, 0, -720883, -1610612736, 0, -720882, 1610612737, 0, -720881, -1610612736, 0, -720880, -1610612736, 0, -589839, 1610612737, 0, -589838, 1610612737, 0, -589837, -1610612736, 0, -589836, 6, 0, -589835, -1073741823, 0, -655349, -2147483648, 0, -655348, -2147483648, 0, -655347, 6, 0, -655346, 1610612737, 0, -655345, -1610612736, 0, -655344, -1610612736, 0, -524304, 1610612737, 0, -524303, 1610612737, 0, -524302, 1610612737, 0, -524301, -1610612730, 0, -524300, -1073741823, 0, -524299, 1610612742, 0, -524298, -536870909, 0, -589813, -2147483648, 0, -589812, 6, 0, -589811, 1610612737, 0, -589810, 1610612737, 0, -589809, -1610612736, 0, -589808, -1610612736, 0, -458768, 1610612737, 0, -458767, 1610612737, 0, -458766, 1610612737, 0, -458765, 1610612737, 0, -458764, 1610612737, 0, -458763, -2147483648, 0, -458762, -1610612730, 0, -458761, -2147483648, 0, -458760, 1610612738, 0, -524277, -2147483648, 0, -524276, 1610612737, 0, -524275, 1610612737, 0, -524274, 1610612737, 0, -524273, -1610612736, 0, -524272, -1610612736, 0, -393232, 1610612737, 0, -393231, 1610612737, 0, -393230, 1610612737, 0, -393229, 1610612737, 0, -393228, 1610612737, 0, -393227, -1610612730, 0, -393226, -1073741823, 0, -393225, 1073741827, 0, -458743, -2147483648, 0, -458742, -2147483648, 0, -458741, 6, 0, -458740, 1610612737, 0, -458739, 1610612737, 0, -458738, 1610612737, 0, -458737, -1610612736, 0, -458736, -1610612736, 0, -327696, 1610612737, 0, -327695, 1610612737, 0, -327694, 1610612737, 0, -327693, 1610612737, 0, -327692, 1610612737, 0, -327691, 1610612737, 0, -327690, 1073741827, 0, -327687, 1073741826, 0, -327686, -536870912, 0, -327685, -536870910, 0, -393207, -1073741819, 0, -393206, -1073741823, 0, -393205, -1073741823, 0, -393204, 1610612737, 0, -393203, 1610612737, 0, -393202, 1610612737, 0, -393201, -1610612736, 0, -393200, -1610612736, 0, -262160, 1610612737, 0, -262159, 1610612737, 0, -262158, 1610612737, 0, -262157, 1610612737, 0, -262156, -2147483648, 0, -262155, -2147483648, 0, -262154, 536870914, 0, -327674, 536870915, 0, -327673, 536870914, 0, -327670, -1073741818, 0, -327669, -1073741823, 0, -327668, 1610612737, 0, -327667, 1610612737, 0, -327666, 1610612737, 0, -327665, -1610612736, 0, -327664, -1610612736, 0, -196624, 1610612737, 0, -196623, 1610612737, 0, -196622, -1073741823, 0, -196621, -1073741823, 0, -196620, -1610612730, 0, -196619, -2147483648, 0, -196618, -2147483648, 0, -196617, -2147483648, 0, -196616, -2147483648, 0, -196615, -2147483648, 0, -262138, 1610612739, 0, -262137, 6, 0, -262136, -2147483648, 0, -262135, -2147483648, 0, -262134, 6, 0, -262133, 1, 0, -262132, 1, 0, -262131, 1610612737, 0, -262130, 1610612737, 0, -262129, -1610612736, 0, -262128, -1610612736, 0, -131088, 1610612737, 0, -131087, 1610612737, 0, -131086, -1073741823, 0, -131085, -1073741823, 0, -131084, -1073741823, 0, -131083, -2147483648, 0, -131082, -536870912, 0, -131081, -536870912, 0, -131080, -536870912, 0, -131079, 1073741827, 0, -196601, -1073741819, 0, -196600, -1073741823, 0, -196599, -1073741823, 0, -196598, -1073741823, 0, -196597, 1, 0, -196596, 1610612737, 0, -196595, 1610612737, 0, -196594, 1610612737, 0, -196593, -1610612736, 0, -196592, -1610612736, 0, -196577, 0, 0, -65552, 1610612737, 0, -65551, 1610612737, 0, -65550, -1073741818, 0, -65549, -1073741823, 0, -65548, -1073741823, 0, -65547, -1610612730, 0, -65546, -2147483648, 0, -65545, -536870912, 0, -65544, 1073741827, 0, -131063, -1073741819, 0, -131062, -1073741823, 0, -131061, -1073741823, 0, -131060, 1610612737, 0, -131059, 1610612737, 0, -131058, 1610612737, 0, -131057, -1610612736, 0, -131056, -1610612736, 0, -131042, 2, 0, -131041, 1, 0, -16, 1610612737, 0, -15, 1610612737, 0, -14, -1610612736, 0, -13, -1073741823, 0, -12, -1073741823, 0, -11, -1073741823, 0, -10, -2147483648, 0, -9, -1073741824, 0, -65532, -2147483646, 0, -65531, 536870914, 0, -65526, -1073741819, 0, -65525, -1073741823, 0, -65524, 1610612737, 0, -65523, 1610612737, 0, -65522, 1610612737, 0, -65521, -1610612736, 0, -65520, -1610612736, 0, -65506, 0, 0, 65520, 1610612737, 0, 65521, -1610612736, 0, 65522, -1610612736, 0, 65523, -1073741818, 0, 65524, -1073741823, 0, 65525, -1073741823, 0, 65526, -1610612730, 0, 65527, -1073741824, 0, 65528, -536870909, 0, 2, 536870915, 0, 3, 536870912, 0, 4, 536870912, 0, 5, 536870912, 0, 6, 536870914, 0, 10, 6, 0, 11, 1, 0, 12, 1, 0, 13, 1610612737, 0, 14, 1610612737, 0, 15, -1610612736, 0, 16, -1610612736, 0, 30, 0, 0, 131057, -1610612736, 0, 131058, -1610612736, 0, 131059, -1610612736, 0, 131060, -1073741818, 0, 131061, -1073741823, 0, 131062, -1073741823, 0, 131063, -1610612730, 0, 131064, -536870910, 0, 65539, 1073741826, 0, 65540, 1073741824, 0, 65541, 1073741827, 0, 65545, 0, 0, 65546, 1, 0, 65547, 1610612737, 0, 65548, 1610612737, 0, 65549, 1610612737, 0, 65550, 1610612742, 0, 65551, -1610612736, 0, 65552, -1610612736, 0, 65566, 0, 0, 196593, -1610612736, 0, 196594, -1610612736, 0, 196595, -1610612736, 0, 196596, -1610612736, 0, 196597, -1073741818, 0, 196598, -1073741823, 0, 196599, 1, 0, 131080, -2147483646, 0, 131081, 6, 0, 131082, 1, 0, 131083, 1610612737, 0, 131084, 1610612737, 0, 131085, 1610612742, 0, 131086, 0, 0, 131087, 1, 0, 131088, -1610612736, 0, 131102, 0, 0, 262129, -1610612736, 0, 262130, -1610612736, 0, 262131, -1610612736, 0, 262132, -1610612736, 0, 262133, -2147483648, 0, 262134, 1, 0, 262135, 1, 0, 262136, -536870909, 0, 262141, -2147483646, 0, 262142, -536870909, 0, 196615, 536870915, 0, 196616, 6, 0, 196617, 1, 0, 196618, 1610612737, 0, 196619, 1610612737, 0, 196620, 1610612742, 0, 196621, -2147483648, 0, 196622, -2147483648, 0, 196623, -2147483648, 0, 196624, -1610612736, 0, 196634, -2147483648, 0, 196635, -2147483648, 0, 196636, -2147483648, 0, 196637, -2147483648, 0, 196638, 0, 0, 327665, -1610612736, 0, 327666, -1610612736, 0, 327667, -1610612736, 0, 327668, -1610612736, 0, 327669, -2147483648, 0, 327670, 1, 0, 327671, 1, 0, 327672, -1610612730, 0, 327673, -536870909, 0, 327675, -2147483646, 0, 327676, -2147483648, 0, 327677, 6, 0, 327678, -1610612730, 0, 327679, -536870909, 0, 262144, -2147483646, 0, 262145, -536870909, 0, 262150, 536870915, 0, 262151, 6, 0, 262152, 1, 0, 262153, 1, 0, 262154, 1610612742, 0, 262155, -2147483648, 0, 262156, -2147483648, 0, 262157, -2147483648, 0, 262158, -2147483648, 0, 262159, -2147483648, 0, 262160, -1610612736, 0, 262161, 1, 0, 262162, 1, 0, 262163, -2147483648, 0, 262169, -2147483648, 0, 262171, -2147483648, 0, 262172, -2147483648, 0, 262173, -2147483648, 0, 262174, 0, 0, 393201, -1610612736, 0, 393202, -1610612736, 0, 393203, -1610612736, 0, 393204, -1610612736, 0, 393205, -2147483648, 0, 393206, 1, 0, 393207, 1, 0, 393208, 1, 0, 393209, -1610612730, 0, 393210, -2147483648, 0, 393211, -2147483648, 0, 393212, 6, 0, 393213, -1610612735, 0, 393214, -1610612735, 0, 393215, -1610612730, 0, 327680, -2147483648, 0, 327681, -2147483648, 0, 327682, 536870914, 0, 327684, 2, 0, 327685, 1610612736, 0, 327686, -2147483648, 0, 327687, -1073741818, 0, 327688, 1610612737, 0, 327689, 1610612742, 0, 327690, -2147483648, 0, 327691, -2147483648, 0, 327692, -2147483648, 0, 327693, -2147483648, 0, 327694, -2147483648, 0, 327695, -2147483648, 0, 327696, -2147483648, 0, 327697, -2147483648, 0, 327698, -2147483648, 0, 327699, -2147483648, 0, 327700, -2147483648, 0, 327701, -2147483648, 0, 327702, -2147483648, 0, 327703, -2147483648, 0, 327704, -2147483648, 0, 327705, -2147483648, 0, 327706, -2147483648, 0, 327707, -2147483648, 0, 327708, -2147483648, 0, 327709, -2147483648, 0, 327710, 0, 0, 458737, -1610612736, 0, 458738, -1610612736, 0, 458739, -1610612736, 0, 458740, -1610612736, 0, 458741, -2147483648, 0, 458742, -1073741818, 0, 458743, 1, 0, 458744, 1, 0, 458745, 1, 0, 458746, 1, 0, 458747, 1, 0, 458748, 1, 0, 458749, 1, 0, 458750, 1, 0, 458751, 1, 0, 393216, -1610612730, 0, 393217, -2147483648, 0, 393218, -2147483648, 0, 393219, -2147483648, 0, 393220, -2147483648, 0, 393221, -2147483648, 0, 393222, 6, 0, 393223, 1610612737, 0, 393224, 1610612737, 0, 393225, -2147483648, 0, 393226, -2147483648, 0, 393227, -2147483648, 0, 393228, -2147483648, 0, 393229, -2147483648, 0, 393230, -2147483648, 0, 393231, -2147483648, 0, 393232, -2147483648, 0, 393233, -2147483648, 0, 393234, -2147483648, 0, 393235, -2147483648, 0, 393236, -2147483648, 0, 393237, -2147483648, 0, 393238, -2147483648, 0, 393239, -2147483648, 0, 393240, -2147483648, 0, 393241, -2147483648, 0, 393242, -2147483648, 0, 393243, -2147483648, 0, 393244, -2147483648, 0, 393245, -2147483648, 0, 393246, 0, 0, 524273, -1610612736, 0, 524274, -1610612736, 0, 524275, -1610612736, 0, 524276, -2147483648, 0, 524277, -2147483648, 0, 524278, -2147483648, 0, 524279, 1, 0, 524280, 1, 0, 524281, 1, 0, 524282, 1, 0, 524283, 1, 0, 524284, 1, 0, 524285, 1, 0, 524286, 1, 0, 524287, 1, 0, 458752, 1, 0, 458753, -1610612730, 0, 458754, -2147483648, 0, 458755, -2147483648, 0, 458756, 6, 0, 458757, 1610612737, 0, 458758, -1610612735, 0, 458759, 1610612742, 0, 458760, -2147483648, 0, 458761, -2147483648, 0, 458762, -2147483648, 0, 458763, -2147483648, 0, 458764, -2147483648, 0, 458765, -2147483648, 0, 458766, -2147483648, 0, 458767, -2147483648, 0, 458768, -2147483648, 0, 458769, -2147483648, 0, 458770, -2147483648, 0, 458771, -2147483648, 0, 458772, -2147483648, 0, 458773, -2147483648, 0, 458774, 1073741824, 0, 458775, 1073741824, 0, 458776, 1, 0, 458777, 1, 0, 458778, 1073741824, 0, 458779, 1073741824, 0, 458780, 1, 0, 458781, 1, 0, 458782, 1, 0, 589812, -2147483648, 0, 589813, -2147483648, 0, 589814, -2147483648, 0, 589815, 1, 0, 589816, -1610612735, 0, 589817, -1610612735, 0, 589818, 1, 0, 589819, 1, 0, 589820, 1, 0, 589821, 1, 0, 589822, 1, 0, 589823, 1, 0, 524288, 1, 0, 524289, 1, 0, 524290, -1610612730, 0, 524291, 6, 0, 524292, 1610612737, 0, 524293, 1610612742, 0, 524294, -2147483648, 0, 524295, -2147483648, 0, 524296, -2147483648, 0, 524297, -2147483648, 0, 524298, -2147483648, 0, 524299, -2147483648, 0, 524300, -2147483648, 0, 524301, -2147483648, 0, 524302, -2147483648, 0, 524303, -2147483648, 0, 524304, -2147483648, 0, 524305, -2147483648, 0, 524306, -2147483648, 0, 524307, -2147483648, 0, 524308, -2147483648, 0, 524309, -2147483648, 0, 524310, 1, 0, 524311, 1073741824, 0, 524312, 1073741824, 0, 524313, 1073741824, 0, 524314, 1073741824, 0, 524315, 1073741824, 0, 524316, 1073741824, 0, 524317, 1073741824, 0, 524318, 1073741824, 0, 524319, 1073741824, 0, 655348, -2147483648, 0, 655349, -2147483648, 0, 655350, -2147483648, 0, 655351, 1, 0, 655352, 1, 0, 655353, 1, 0, 655354, 1, 0, 655355, 1, 0, 655356, 1, 0, 655357, 1, 0, 655358, 1, 0, 655359, -1610612735, 0, 589824, -1610612735, 0, 589825, 1, 0, 589826, 1, 0, 589827, 1, 0, 589828, 1, 0, 589829, -2147483648, 0, 589830, -2147483648, 0, 589831, -2147483648, 0, 589832, -2147483648, 0, 589833, -2147483648, 0, 589834, -2147483648, 0, 589835, -2147483648, 0, 589836, -2147483648, 0, 589837, -2147483648, 0, 589838, -2147483648, 0, 589839, 0, 0, 589840, 1, 0, 589841, 1073741824, 0, 589842, 1073741824, 0, 589843, 1, 0, 589844, 1, 0, 589845, 1, 0, 589846, 1073741824, 0, 589847, 1073741824, 0, 589848, 1073741824, 0, 589849, 1073741824, 0, 589850, 1073741824, 0, 589851, 1073741824, 0, 589852, 1073741824, 0, 589853, 1073741824, 0, 589854, 1073741824, 0, 589855, 1073741824, 0, 720884, -2147483648, 0, 720885, -2147483648, 0, 720886, -2147483648, 0, 720887, 1, 0, 720888, 1, 0, 720889, 1, 0, 720890, 1, 0, 720891, 1, 0, 720892, 1, 0, 720893, 1, 0, 720894, 1, 0, 720895, 1, 0, 655360, 1, 0, 655361, 1, 0, 655362, 1, 0, 655363, 1, 0, 655364, 1, 0, 655365, -1610612730, 0, 655366, -2147483648, 0, 655367, -2147483648, 0, 655368, -2147483648, 0, 655369, -2147483648, 0, 655370, -2147483648, 0, 655371, -2147483648, 0, 655372, -2147483648, 0, 655373, 1, 0, 655374, 1, 0, 655375, 1, 0, 655376, 1073741824, 0, 655377, 1, 0, 655378, 1, 0, 655379, 1073741824, 0, 655380, 1073741824, 0, 655381, 1073741824, 0, 655382, 1073741824, 0, 655383, 1073741824, 0, 655384, 1073741824, 0, 655385, 1073741824, 0, 655386, 1073741824, 0, 655387, 1073741824, 0, 655388, 1073741824, 0, 655389, 1073741824, 0, 655390, 1073741824, 0, 655391, 1073741824, 0, 786420, -2147483648, 0, 786421, -2147483648, 0, 786422, -2147483648, 0, 786423, 1, 0, 786424, 1, 0, 786425, 1, 0, 786426, 1, 0, 786427, 1, 0, 786428, 1, 0, 786429, 1, 0, 786430, 1, 0, 786431, 1, 0, 720896, 1, 0, 720897, 1, 0, 720898, 1, 0, 720899, 1, 0, 720900, 1, 0, 720901, 1, 0, 720902, -2147483648, 0, 720903, -2147483648, 0, 720904, -2147483648, 0, 720905, 1, 0, 720906, 1, 0, 720907, 1, 0, 720908, 1073741824, 0, 720909, 1073741824, 0, 720910, 1073741824, 0, 720911, 1073741824, 0, 720912, 1073741824, 0, 720913, 1073741824, 0, 720914, 1073741824, 0, 720915, 1073741824, 0, 720916, 1073741824, 0, 720917, 1073741824, 0, 720918, 1073741824, 0, 720919, 1073741824, 0, 720920, 1073741824, 0, 720921, 1073741824, 0, 720922, 1073741824, 0, 720923, 1073741824, 0, 720924, 1073741824, 0, 720925, 1073741824, 0, 720926, 1073741824, 0, 720927, 1073741824, 0, 851956, -2147483648, 0, 851957, -2147483648, 0, 851958, -2147483648, 0, 851959, -2147483648, 0, 851960, -2147483648, 0, 851961, -2147483648, 0, 851962, -2147483648, 0, 851963, -2147483648, 0, 851964, -1073741818, 0, 851965, 1, 0, 851966, 1, 0, 851967, 1, 0, 786432, 1, 0, 786433, 1, 0, 786434, 1, 0, 786435, 1, 0, 786436, 1, 0, 786437, 1, 0, 786438, -2147483648, 0, 786439, 1, 0, 786440, 1, 0, 786441, 1, 0, 786442, 1, 0, 786443, 1073741824, 0, 786444, 1073741824, 0, 786445, 1073741824, 0, 786446, 1073741824, 0, 786447, 1073741824, 0, 786448, 1073741824, 0, 786449, 1073741824, 0, 786450, 1073741824, 0, 786451, 1073741824, 0, 786452, 1073741824, 0, 786453, 1073741824, 0, 786454, 1073741824, 0, 786455, 1073741824, 0, 786456, 1073741824, 0, 786457, 1073741824, 0, 786458, 1073741824, 0, 786459, 1073741824, 0, 786460, 1073741824, 0, 786461, 1073741824, 0, 786462, 1073741824, 0, 786463, 1073741824, 0, 917492, -2147483648, 0, 917493, -2147483648, 0, 917494, -2147483648, 0, 917495, -2147483648, 0, 917496, -2147483648, 0, 917497, -2147483648, 0, 917498, -2147483648, 0, 917499, -2147483648, 0, 917500, -2147483648, 0, 917501, -2147483648, 0, 917502, -2147483648, 0, 917503, -2147483648, 0, 851968, -2147483648, 0, 851969, -2147483648, 0, 851970, -2147483648, 0, 851971, -2147483648, 0, 851972, -2147483648, 0, 851973, -2147483648, 0, 851974, -2147483648, 0, 851975, -2147483648, 0, 851976, -2147483648, 0, 851977, -2147483648, 0, 851978, -2147483648, 0, 851979, -2147483648, 0, 851980, -2147483648, 0, 851981, -2147483648, 0, 851982, -2147483648, 0, 851983, -2147483648, 0, 851984, -2147483648, 0, 851985, -2147483648, 0, 851986, -2147483648, 0, 851987, -2147483648, 0, 851988, -2147483648, 0, 851989, -2147483648, 0, 851990, -2147483648, 0, 851991, -2147483648, 0, 851992, -2147483648, 0, 851993, -2147483648, 0, 851994, -2147483648, 0, 851995, -2147483648, 0, 851996, -2147483648, 0, 851997, -2147483648, 0, 851998, -2147483648, 0, 851999, -2147483648, 0, 983028, -2147483648, 0, 983029, -2147483648, 0, 983030, -2147483648, 0, 983031, -2147483648, 0, 983032, -2147483648, 0, 983033, -2147483648, 0, 983034, -2147483648, 0, 983035, -2147483648, 0, 983036, -2147483648, 0, 983037, -2147483648, 0, 983038, -2147483648, 0, 983039, -2147483648, 0, 917504, -2147483648, 0, 917505, -2147483648, 0, 917506, -2147483648, 0, 917507, -2147483648, 0, 917508, -2147483648, 0, 917509, -2147483648, 0, 917510, -2147483648, 0, 917511, -2147483648, 0, 917512, -2147483648, 0, 917513, -2147483648, 0, 917514, -2147483648, 0, 917515, -2147483648, 0, 917516, -2147483648, 0, 917517, -2147483648, 0, 917518, -2147483648, 0, 917519, -2147483648, 0, 917520, -2147483648, 0, 917521, -2147483648, 0, 917522, -2147483648, 0, 917523, -2147483648, 0, 917524, -2147483648, 0, 917525, -2147483648, 0, 917526, -2147483648, 0, 917527, -2147483648, 0, 917528, -2147483648, 0, 917529, -2147483648, 0, 917530, -2147483648, 0, 917531, -2147483648, 0, 917532, -2147483648, 0, 917533, -2147483648, 0, 917534, -2147483648, 0, 917535, -2147483648, 0, 1048564, -2147483648, 0, 1048565, -2147483648, 0, 1048566, -2147483648, 0, 1048567, -2147483648, 0, 1048568, -2147483648, 0, 1048569, -2147483648, 0, 1048570, -2147483648, 0, 1048571, -2147483648, 0, 1048572, -2147483648, 0, 1048573, -2147483648, 0, 1048574, -2147483648, 0, 1048575, -2147483648, 0, 983040, -2147483648, 0, 983041, -2147483648, 0, 983042, -2147483648, 0, 983043, -2147483648, 0, 983044, -2147483648, 0, 983045, -2147483648, 0, 983046, -2147483648, 0, 983047, -2147483648, 0, 983048, -2147483648, 0, 983049, -2147483648, 0, 983050, -2147483648, 0, 983051, -2147483648, 0, 983052, -2147483648, 0, 983053, -2147483648, 0, 983054, -2147483648, 0, 983055, -2147483648, 0, 983056, -2147483648, 0, 983057, -2147483648, 0, 983058, -2147483648, 0, 983059, -2147483648, 0, 983060, -2147483648, 0, 983061, -2147483648, 0, 983062, -2147483648, 0, 983063, -2147483648, 0, 983064, -2147483648, 0, 983065, -2147483648, 0, 983066, -2147483648, 0, 983067, -2147483648, 0, 983068, -2147483648, 0, 983069, -2147483648, 0, 983070, -2147483648, 0, 983071, -2147483648, 0 )

[node name="player2" parent="." instance=ExtResource( 3 )]
position = Vector2( -134.231, -676.643 )

[node name="player1" parent="." instance=ExtResource( 4 )]
position = Vector2( 728.356, -708.443 )

[node name="Node2D" parent="." instance=ExtResource( 5 )]
position = Vector2( -642.019, -679.063 )

[node name="Node2D2" parent="." instance=ExtResource( 5 )]
position = Vector2( 643.855, -365.77 )

[node name="Node2D3" parent="." instance=ExtResource( 5 )]
position = Vector2( 714.003, 22.5474 )

[node name="Node2D4" parent="." instance=ExtResource( 5 )]
position = Vector2( 298.127, -55.116 )

[node name="Node2D5" parent="." instance=ExtResource( 5 )]
position = Vector2( -653.876, -365.77 )

[node name="Node2D6" parent="." instance=ExtResource( 5 )]
position = Vector2( -470.991, 70.1477 )

[node name="Node2D7" parent="." instance=ExtResource( 5 )]
position = Vector2( 265.559, 403.349 )

[node name="Node2D8" parent="." instance=ExtResource( 5 )]
position = Vector2( 7.51587, 300.633 )

[node name="Camera2D" type="Camera2D" parent="."]
position = Vector2( 3.9751, -127.202 )
current = true
zoom = Vector2( 2.25, 2.25 )

[node name="AnimatedSprite" type="AnimatedSprite" parent="."]
position = Vector2( -5.65052e-05, 139.127 )
scale = Vector2( 1.5, 1.5 )
z_index = -2
frames = SubResource( 1 )
playing = true
__meta__ = {
"_edit_lock_": true
}

[node name="femme" type="AnimatedSprite" parent="."]
position = Vector2( 5.12512, 104.615 )
scale = Vector2( 2.15, 2.15 )
z_index = -1
frames = SubResource( 2 )
animation = "explosion"
frame = 48
playing = true
__meta__ = {
"_edit_lock_": true
}

[node name="Node2D9" parent="." instance=ExtResource( 5 )]

[node name="Node2D10" parent="." instance=ExtResource( 5 )]
position = Vector2( 5.70227, -166.282 )

[node name="RichTextLabel" type="Label" parent="."]
margin_left = -882.0
margin_top = -755.0
margin_right = 883.0
margin_bottom = 380.0
custom_fonts/font = ExtResource( 38 )
text = "Bienvenue dans cet environnement de chance."
align = 1

[node name="Timer" type="Timer" parent="RichTextLabel"]

[connection signal="body_entered" from="Node2D" to="." method="_on_Node2D_body_entered"]
[connection signal="body_entered" from="Node2D2" to="." method="_on_Node2D2_body_entered"]
[connection signal="body_entered" from="Node2D3" to="." method="_on_Node2D3_body_entered"]
[connection signal="body_entered" from="Node2D4" to="." method="_on_Node2D4_body_entered"]
[connection signal="body_entered" from="Node2D5" to="." method="_on_Node2D5_body_entered"]
[connection signal="body_entered" from="Node2D6" to="." method="_on_Node2D6_body_entered"]
[connection signal="body_entered" from="Node2D7" to="." method="_on_Node2D7_body_entered"]
[connection signal="body_entered" from="Node2D8" to="." method="_on_Node2D8_body_entered"]
[connection signal="animation_finished" from="femme" to="." method="_on_femme_animation_finished"]
[connection signal="body_entered" from="Node2D9" to="." method="_on_Node2D9_body_entered"]
[connection signal="body_entered" from="Node2D10" to="." method="_on_Node2D10_body_entered"]
