[gd_scene load_steps=43 format=2]

[ext_resource path="res://plateforme.gd" type="Script" id=1]
[ext_resource path="res://source/plateforme01.png" type="Texture" id=2]
[ext_resource path="res://source/plateforme03.png" type="Texture" id=3]
[ext_resource path="res://source/plateforme04.png" type="Texture" id=4]
[ext_resource path="res://source/plateforme02.png" type="Texture" id=5]
[ext_resource path="res://source/plateforme05.png" type="Texture" id=6]
[ext_resource path="res://source/plateforme06.png" type="Texture" id=7]
[ext_resource path="res://source/plateforme07.png" type="Texture" id=8]
[ext_resource path="res://source/plateforme08.png" type="Texture" id=9]
[ext_resource path="res://Area2D2.gd" type="Script" id=10]
[ext_resource path="res://source/passage01.png" type="Texture" id=11]
[ext_resource path="res://source/passage02.png" type="Texture" id=12]
[ext_resource path="res://source/passage03.png" type="Texture" id=13]
[ext_resource path="res://source/passage04.png" type="Texture" id=14]
[ext_resource path="res://source/passage05.png" type="Texture" id=15]
[ext_resource path="res://source/passage06.png" type="Texture" id=16]
[ext_resource path="res://player.tscn" type="PackedScene" id=17]
[ext_resource path="res://player2.tscn" type="PackedScene" id=18]
[ext_resource path="res://source/rouge01.png" type="Texture" id=19]
[ext_resource path="res://source/rouge02.png" type="Texture" id=20]
[ext_resource path="res://source/rouge03.png" type="Texture" id=21]
[ext_resource path="res://source/rouge04.png" type="Texture" id=22]
[ext_resource path="res://source/rouge05.png" type="Texture" id=23]
[ext_resource path="res://source/rouge07.png" type="Texture" id=24]
[ext_resource path="res://source/rouge08.png" type="Texture" id=25]
[ext_resource path="res://source/rouge09.png" type="Texture" id=26]
[ext_resource path="res://source/rouge10.png" type="Texture" id=27]
[ext_resource path="res://source/rouge11.png" type="Texture" id=28]
[ext_resource path="res://source/rouge12.png" type="Texture" id=29]
[ext_resource path="res://source/rouge13.png" type="Texture" id=30]
[ext_resource path="res://bonus.tscn" type="PackedScene" id=31]

[sub_resource type="ConvexPolygonShape2D" id=1]
points = PoolVector2Array( 0, 0, 96, 0, 96, 96, 0, 96 )

[sub_resource type="ConvexPolygonShape2D" id=2]
points = PoolVector2Array( 0, 96, 96, 0, 96, 96 )

[sub_resource type="ConvexPolygonShape2D" id=3]
points = PoolVector2Array( 32, 128, 32, 32, 128, 128 )

[sub_resource type="ConvexPolygonShape2D" id=4]
points = PoolVector2Array( 0, 0, 96, 0, 96, 96, 0, 96 )

[sub_resource type="ConvexPolygonShape2D" id=5]
points = PoolVector2Array( 96, 0, 96, 96, 0, 96, 32, 64, 64, 0 )

[sub_resource type="ConvexPolygonShape2D" id=6]
points = PoolVector2Array( 0, 0, 96, 32, 96, 96, 0, 96 )

[sub_resource type="ConvexPolygonShape2D" id=7]
points = PoolVector2Array( 96, 0, 96, 96, 0, 96, 32, 64, 64, 0 )

[sub_resource type="TileSet" id=8]
0/name = "plateforme01.png 0"
0/texture = ExtResource( 2 )
0/tex_offset = Vector2( 0, 0 )
0/modulate = Color( 1, 1, 1, 1 )
0/region = Rect2( 0, 0, 96, 96 )
0/tile_mode = 0
0/occluder_offset = Vector2( 0, 0 )
0/navigation_offset = Vector2( 0, 0 )
0/shapes = [ {
"autotile_coord": Vector2( 0, 0 ),
"one_way": false,
"one_way_margin": 1.0,
"shape": SubResource( 1 ),
"shape_transform": Transform2D( 1, 0, 0, 1, 0, 0 )
} ]
0/z_index = 0
1/name = "plateforme03.png 1"
1/texture = ExtResource( 3 )
1/tex_offset = Vector2( 0, 0 )
1/modulate = Color( 1, 1, 1, 1 )
1/region = Rect2( 0, 0, 96, 96 )
1/tile_mode = 0
1/occluder_offset = Vector2( 0, 0 )
1/navigation_offset = Vector2( 0, 0 )
1/shapes = [ {
"autotile_coord": Vector2( 0, 0 ),
"one_way": false,
"one_way_margin": 1.0,
"shape": SubResource( 2 ),
"shape_transform": Transform2D( 1, 0, 0, 1, 0, 0 )
} ]
1/z_index = 0
2/name = "plateforme04.png 2"
2/texture = ExtResource( 4 )
2/tex_offset = Vector2( 0, 0 )
2/modulate = Color( 1, 1, 1, 1 )
2/region = Rect2( 0, 0, 96, 96 )
2/tile_mode = 0
2/occluder_offset = Vector2( 0, 0 )
2/navigation_offset = Vector2( 0, 0 )
2/shapes = [ {
"autotile_coord": Vector2( 0, 0 ),
"one_way": false,
"one_way_margin": 1.0,
"shape": SubResource( 3 ),
"shape_transform": Transform2D( 1, 0, 0, 1, 0, 0 )
} ]
2/z_index = 0
3/name = "plateforme02.png 3"
3/texture = ExtResource( 5 )
3/tex_offset = Vector2( 0, 0 )
3/modulate = Color( 1, 1, 1, 1 )
3/region = Rect2( 0, 0, 96, 96 )
3/tile_mode = 0
3/occluder_offset = Vector2( 0, 0 )
3/navigation_offset = Vector2( 0, 0 )
3/shapes = [ {
"autotile_coord": Vector2( 0, 0 ),
"one_way": false,
"one_way_margin": 1.0,
"shape": SubResource( 4 ),
"shape_transform": Transform2D( 1, 0, 0, 1, 0, 0 )
} ]
3/z_index = 0
4/name = "plateforme05.png 4"
4/texture = ExtResource( 6 )
4/tex_offset = Vector2( 0, 0 )
4/modulate = Color( 1, 1, 1, 1 )
4/region = Rect2( 0, 0, 96, 96 )
4/tile_mode = 0
4/occluder_offset = Vector2( 0, 0 )
4/navigation_offset = Vector2( 0, 0 )
4/shapes = [  ]
4/z_index = 0
5/name = "plateforme06.png 5"
5/texture = ExtResource( 7 )
5/tex_offset = Vector2( 0, 0 )
5/modulate = Color( 1, 1, 1, 1 )
5/region = Rect2( 0, 0, 96, 96 )
5/tile_mode = 0
5/occluder_offset = Vector2( 0, 0 )
5/navigation_offset = Vector2( 0, 0 )
5/shapes = [ {
"autotile_coord": Vector2( 0, 0 ),
"one_way": false,
"one_way_margin": 1.0,
"shape": SubResource( 5 ),
"shape_transform": Transform2D( 1, 0, 0, 1, 0, 0 )
} ]
5/z_index = 0
6/name = "plateforme07.png 6"
6/texture = ExtResource( 8 )
6/tex_offset = Vector2( 0, 0 )
6/modulate = Color( 1, 1, 1, 1 )
6/region = Rect2( 0, 0, 96, 96 )
6/tile_mode = 0
6/occluder_offset = Vector2( 0, 0 )
6/navigation_offset = Vector2( 0, 0 )
6/shapes = [ {
"autotile_coord": Vector2( 0, 0 ),
"one_way": false,
"one_way_margin": 1.0,
"shape": SubResource( 6 ),
"shape_transform": Transform2D( 1, 0, 0, 1, 0, 0 )
} ]
6/z_index = 0
7/name = "plateforme08.png 7"
7/texture = ExtResource( 9 )
7/tex_offset = Vector2( 0, 0 )
7/modulate = Color( 1, 1, 1, 1 )
7/region = Rect2( 0, 0, 96, 96 )
7/tile_mode = 0
7/occluder_offset = Vector2( 0, 0 )
7/navigation_offset = Vector2( 0, 0 )
7/shapes = [ {
"autotile_coord": Vector2( 0, 0 ),
"one_way": false,
"one_way_margin": 1.0,
"shape": SubResource( 7 ),
"shape_transform": Transform2D( 1, 0, 0, 1, 0, 0 )
} ]
7/z_index = 0

[sub_resource type="CircleShape2D" id=9]
radius = 32.0453

[sub_resource type="SpriteFrames" id=10]
animations = [ {
"frames": [ ExtResource( 11 ), ExtResource( 12 ), ExtResource( 13 ), ExtResource( 14 ), ExtResource( 15 ), ExtResource( 16 ) ],
"loop": true,
"name": "default",
"speed": 6.93
} ]

[sub_resource type="SpriteFrames" id=11]
animations = [ {
"frames": [ ExtResource( 19 ), ExtResource( 20 ), ExtResource( 21 ), ExtResource( 22 ), ExtResource( 23 ), ExtResource( 24 ), ExtResource( 25 ), ExtResource( 26 ), ExtResource( 27 ), ExtResource( 28 ), ExtResource( 29 ), ExtResource( 30 ) ],
"loop": true,
"name": "New Anim",
"speed": 5.86
} ]

[node name="Node2D" type="Node2D"]
script = ExtResource( 1 )
__meta__ = {
"_edit_horizontal_guides_": [ -491.174 ]
}

[node name="TileMap" type="TileMap" parent="."]
tile_set = SubResource( 8 )
cell_size = Vector2( 95, 95 )
format = 1
tile_data = PoolIntArray( -917477, 1610612736, 0, -851941, 1610612736, 0, -851940, 1610612736, 0, -851939, 1610612736, 0, -851938, 1610612736, 0, -851937, 1610612736, 0, -851936, 1610612736, 0, -786415, 536870912, 0, -786414, 536870912, 0, -786413, 536870912, 0, -786412, 536870912, 0, -786407, 1610612736, 0, -786406, 1610612736, 0, -786405, 1610612736, 0, -786404, 1610612736, 0, -786403, 1610612736, 0, -786402, 1610612736, 0, -786401, 1610612736, 0, -655361, -1073741823, 0, -720896, -1073741824, 0, -720895, -1073741824, 0, -720894, 536870912, 0, -720893, 536870912, 0, -720892, 536870912, 0, -720891, 536870912, 0, -720890, -1073741824, 0, -720889, 536870912, 0, -720888, 536870912, 0, -720887, 536870912, 0, -720886, 1073741829, 0, -720885, 536870915, 0, -720884, 536870915, 0, -720883, 536870915, 0, -720882, 536870912, 0, -720881, 536870912, 0, -720880, 536870912, 0, -720879, 536870912, 0, -720878, 536870912, 0, -720877, 536870912, 0, -720876, 536870912, 0, -720871, 1610612736, 0, -720870, 1610612736, 0, -720869, -1610612736, 0, -720868, -1610612736, 0, -720867, 1610612736, 0, -720866, 1610612736, 0, -720865, 1610612736, 0, -720864, 1610612736, 0, -655359, -1073741823, 0, -655358, -1073741824, 0, -655357, -1073741824, 0, -655356, -1073741824, 0, -655355, 536870912, 0, -655354, -1073741824, 0, -655353, 536870912, 0, -655352, 536870912, 0, -655351, 536870912, 0, -655350, 536870912, 0, -655349, 1073741829, 0, -655348, 536870915, 0, -655347, 536870915, 0, -655346, 536870915, 0, -655345, 536870915, 0, -655344, 536870912, 0, -655343, 536870912, 0, -655342, 536870912, 0, -655341, 536870912, 0, -655340, 536870912, 0, -655339, 536870912, 0, -655338, 536870912, 0, -655337, 536870912, 0, -655335, 1610612736, 0, -655334, 1610612736, 0, -655333, -1610612736, 0, -655332, -1610612736, 0, -655331, 1610612736, 0, -655330, 1610612736, 0, -655329, 1610612736, 0, -655328, 1610612736, 0, -589822, -1073741823, 0, -589821, -1073741824, 0, -589820, -1073741824, 0, -589819, -1073741824, 0, -589818, -1073741824, 0, -589817, -1073741824, 0, -589816, -1073741824, 0, -589815, 536870912, 0, -589814, 536870912, 0, -589813, 536870912, 0, -589812, 536870912, 0, -589811, 1073741829, 0, -589810, 536870915, 0, -589809, 536870915, 0, -589808, 536870915, 0, -589807, 536870912, 0, -589806, 536870912, 0, -589805, 536870912, 0, -589804, 1610612736, 0, -589803, 536870912, 0, -589802, 1610612736, 0, -589801, 536870912, 0, -589800, -1610612736, 0, -589799, 1610612736, 0, -589798, -1610612736, 0, -589797, -1610612736, 0, -589796, -1610612736, 0, -589795, 1610612736, 0, -589794, 1610612736, 0, -589793, 1610612736, 0, -589792, 1610612736, 0, -524285, -1073741823, 0, -524284, -1073741824, 0, -524283, -1073741824, 0, -524282, -1073741824, 0, -524281, -1073741824, 0, -524280, -1073741824, 0, -524279, -1073741824, 0, -524278, 536870912, 0, -524277, 536870912, 0, -524276, 1073741830, 0, -524275, 1073741830, 0, -524274, 1073741830, 0, -524273, 536870915, 0, -524272, 536870915, 0, -524271, 536870912, 0, -524270, 536870912, 0, -524269, 536870912, 0, -524268, 536870912, 0, -524267, 1610612736, 0, -524266, 1610612736, 0, -524265, 1610612736, 0, -524264, -1610612736, 0, -524263, -1610612736, 0, -524262, -1610612736, 0, -524261, -1610612736, 0, -524260, -1610612736, 0, -524259, 1610612736, 0, -524258, 1610612736, 0, -524257, 1610612736, 0, -524256, 1610612736, 0, -393245, -1610612736, 0, -393244, -1610612736, 0, -393243, -1610612736, 0, -393242, -1610612736, 0, -393241, -1610612736, 0, -458748, -1073741824, 0, -458747, -1073741824, 0, -458746, -1073741824, 0, -458745, -1073741824, 0, -458744, -1073741824, 0, -458743, -1073741824, 0, -458742, 1073741829, 0, -458741, 1073741830, 0, -458740, 1073741830, 0, -458739, 536870912, 0, -458738, 536870912, 0, -458737, 536870915, 0, -458736, 536870915, 0, -458735, 536870915, 0, -458734, 536870912, 0, -458733, 536870912, 0, -458732, 1610612736, 0, -458731, 1610612736, 0, -458730, 1610612736, 0, -458729, 1610612736, 0, -458728, -1610612736, 0, -458727, -1610612736, 0, -458726, -1610612736, 0, -458725, -1610612736, 0, -458724, -1610612736, 0, -458723, -1610612736, 0, -458722, -1610612736, 0, -458721, 1610612736, 0, -458720, 1610612736, 0, -327709, -1610612736, 0, -327708, 536870915, 0, -327707, -536870906, 0, -327706, -1610612736, 0, -327705, -1610612736, 0, -393212, -1073741824, 0, -393211, -1073741824, 0, -393210, -1073741824, 0, -393209, -1073741824, 0, -393208, -1073741824, 0, -393207, -1073741824, 0, -393206, 536870912, 0, -393205, 536870912, 0, -393204, 536870912, 0, -393203, 536870912, 0, -393202, 536870912, 0, -393201, 1073741829, 0, -393200, 536870915, 0, -393199, 536870915, 0, -393198, 536870915, 0, -393197, 536870912, 0, -393196, 1610612736, 0, -393195, 1610612736, 0, -393194, 1610612736, 0, -393193, 1610612736, 0, -393192, 1610612736, 0, -393191, -1610612736, 0, -393190, -1610612736, 0, -393189, -1610612736, 0, -393188, -1610612736, 0, -393187, -1610612736, 0, -393186, -1610612736, 0, -393185, 1610612736, 0, -393184, 1610612736, 0, -262173, -1610612736, 0, -262172, 1073741829, 0, -262171, 536870915, 0, -262170, -536870906, 0, -262169, -1610612736, 0, -327676, -1073741823, 0, -327675, -1073741824, 0, -327674, -1073741824, 0, -327673, -1073741824, 0, -327672, -1073741824, 0, -327671, 536870912, 0, -327670, 536870912, 0, -327669, 536870912, 0, -327668, 536870912, 0, -327667, 536870912, 0, -327666, 536870912, 0, -327665, 536870915, 0, -327664, 536870915, 0, -327663, 536870915, 0, -327662, 536870915, 0, -327661, 536870912, 0, -327660, 1610612736, 0, -327659, 1610612736, 0, -327658, 1610612736, 0, -327657, 1610612736, 0, -327656, 1610612736, 0, -327655, -1610612736, 0, -327654, -1610612736, 0, -327653, -1610612736, 0, -327652, -1610612736, 0, -327651, -1610612736, 0, -327650, -1610612736, 0, -327649, 0, 0, -327648, 1610612736, 0, -196637, -1610612736, 0, -196636, -1610612736, 0, -196635, -2147483643, 0, -196634, 536870915, 0, -196633, -1610612736, 0, -262139, -1073741824, 0, -262138, -1073741824, 0, -262137, -1073741824, 0, -262136, -1073741824, 0, -262135, 536870912, 0, -262134, 536870912, 0, -262133, 536870912, 0, -262132, 536870912, 0, -262131, 536870912, 0, -262130, 536870918, 0, -262129, 536870915, 0, -262128, 536870915, 0, -262127, 536870915, 0, -262126, 536870915, 0, -262125, 536870915, 0, -262124, 1610612736, 0, -262123, 1610612736, 0, -262122, 1610612736, 0, -262121, 1610612736, 0, -262120, 1610612736, 0, -262119, -1610612736, 0, -262118, -1610612736, 0, -262117, -1610612736, 0, -262116, -1610612736, 0, -262115, -1610612736, 0, -262114, -1610612736, 0, -262113, 0, 0, -262112, 0, 0, -131101, -1610612736, 0, -131100, -1610612736, 0, -131099, 536870915, 0, -131098, 536870915, 0, -131097, -1610612736, 0, -196603, -1073741823, 0, -196602, -1073741824, 0, -196601, -1073741824, 0, -196600, 536870917, 0, -196599, 536870912, 0, -196598, 536870912, 0, -196597, 536870912, 0, -196596, 536870918, 0, -196595, 536870915, 0, -196594, 536870915, 0, -196593, 536870915, 0, -196592, 536870915, 0, -196591, 536870915, 0, -196590, 536870912, 0, -196589, 536870912, 0, -196588, 1610612736, 0, -196587, 1610612736, 0, -196586, 1610612736, 0, -196585, 1610612736, 0, -196584, 1610612736, 0, -196583, -1610612736, 0, -196582, -1610612736, 0, -196581, -1610612736, 0, -196580, -1610612736, 0, -196579, -1610612736, 0, -196578, -1610612736, 0, -196577, 0, 0, -196576, 0, 0, -65565, -1610612736, 0, -65564, -1610612736, 0, -65563, 536870915, 0, -65562, -1610612736, 0, -65561, -1610612736, 0, -131066, 536870912, 0, -131065, 1073741829, 0, -131064, 1073741830, 0, -131063, 536870912, 0, -131062, 536870912, 0, -131061, 536870912, 0, -131060, 536870915, 0, -131059, 536870915, 0, -131058, 536870915, 0, -131057, 536870915, 0, -131056, 536870915, 0, -131055, 536870915, 0, -131054, 536870912, 0, -131053, 536870912, 0, -131052, 1610612736, 0, -131051, 1610612736, 0, -131050, 1610612736, 0, -131049, 1610612736, 0, -131048, 1610612736, 0, -131047, -1610612736, 0, -131046, -1610612736, 0, -131045, -1610612736, 0, -131044, -1610612736, 0, -131043, -1610612736, 0, -131042, -1610612736, 0, -131041, 0, 0, -131040, 0, 0, -29, -1610612736, 0, -28, -1610612736, 0, -27, 536870915, 0, -26, -1610612736, 0, -25, -1610612736, 0, -5, -1073741822, 0, -4, 2, 0, -65530, 1610612738, 0, -65529, 0, 0, -65528, 536870912, 0, -65527, 536870912, 0, -65526, 536870912, 0, -65525, 536870912, 0, -65524, 536870912, 0, -65523, 1073741829, 0, -65522, 536870915, 0, -65521, 536870915, 0, -65520, 1073741830, 0, -65519, 536870912, 0, -65518, 536870912, 0, -65517, 536870912, 0, -65516, 1610612736, 0, -65515, 1610612736, 0, -65514, 1610612736, 0, -65513, 1610612736, 0, -65512, 1610612736, 0, -65511, -1610612736, 0, -65510, -1610612736, 0, -65509, -1610612736, 0, -65508, -1610612736, 0, -65507, 0, 0, -65506, -1610612736, 0, -65505, 0, 0, -65504, 0, 0, 65507, -1610612736, 0, 65508, -2147483643, 0, 65509, 536870915, 0, 65510, -536870906, 0, 65511, -1610612736, 0, 65530, -1073741822, 0, 65531, -1073741818, 0, 65532, 536870917, 0, 65533, 0, 0, 65534, 0, 0, 65535, 0, 0, 0, 0, 0, 7, 1073741825, 0, 8, -2147483648, 0, 9, 536870912, 0, 10, 536870912, 0, 11, 536870912, 0, 12, 536870912, 0, 13, 536870912, 0, 14, 536870915, 0, 15, 536870915, 0, 16, 536870912, 0, 17, 536870912, 0, 18, 536870912, 0, 19, 536870912, 0, 20, 536870912, 0, 21, 1610612736, 0, 22, 1610612736, 0, 23, 1610612736, 0, 24, 1610612736, 0, 25, -1610612736, 0, 26, -1610612736, 0, 27, -1610612736, 0, 28, 0, 0, 29, 0, 0, 30, -1610612736, 0, 31, 0, 0, 32, 0, 0, 131043, 536870915, 0, 131044, 536870915, 0, 131045, 536870915, 0, 131046, 536870915, 0, 131047, -1610612736, 0, 131063, -1073741822, 0, 131064, 0, 0, 131065, 0, 0, 131066, 0, 0, 131067, 1610612743, 0, 131068, 1073741831, 0, 131069, -1610612734, 0, 131071, 1610612738, 0, 65536, 0, 0, 65537, 2, 0, 65544, 1073741825, 0, 65545, 0, 0, 65546, 536870912, 0, 65547, 536870912, 0, 65548, 536870912, 0, 65549, 536870912, 0, 65550, 1073741829, 0, 65551, 1073741830, 0, 65552, 536870912, 0, 65553, 536870912, 0, 65554, 536870912, 0, 65555, 536870912, 0, 65556, 536870912, 0, 65557, 536870912, 0, 65558, 1610612736, 0, 65559, 1610612736, 0, 65560, 1610612736, 0, 65561, 1610612736, 0, 65562, -1610612736, 0, 65563, -1610612736, 0, 65564, 0, 0, 65565, 0, 0, 65566, -1610612736, 0, 65567, 0, 0, 65568, 0, 0, 196579, 536870915, 0, 196580, 536870915, 0, 196581, 536870915, 0, 196582, 536870915, 0, 196583, -1610612736, 0, 196584, -1610612735, 0, 196596, -1073741820, 0, 196597, -1610612732, 0, 196598, 0, 0, 196599, 0, 0, 196600, -1610612734, 0, 131072, 1073741829, 0, 131073, 536870917, 0, 131074, 0, 0, 131075, 2, 0, 131081, 1073741831, 0, 131082, 536870917, 0, 131083, 536870912, 0, 131084, 536870912, 0, 131085, 536870912, 0, 131086, 536870912, 0, 131087, 536870912, 0, 131088, 536870912, 0, 131089, 536870912, 0, 131090, 536870912, 0, 131091, 536870912, 0, 131092, 536870912, 0, 131093, 536870918, 0, 131094, 536870918, 0, 131095, 1610612736, 0, 131096, 1610612736, 0, 131097, 1610612736, 0, 131098, -1610612736, 0, 131099, -1610612736, 0, 131100, 0, 0, 131101, 0, 0, 131102, 0, 0, 131103, 0, 0, 131104, 0, 0, 262115, 536870915, 0, 262116, 536870915, 0, 262117, 536870915, 0, 262118, 536870917, 0, 262119, -1610612736, 0, 262120, -1610612736, 0, 262121, -1610612735, 0, 262124, -1073741822, 0, 262125, 0, 0, 262126, -1610612735, 0, 262131, -1073741820, 0, 262132, -1610612732, 0, 262133, 0, 0, 262134, -1610612734, 0, 196608, -2147483646, 0, 196609, -2147483645, 0, 196610, 1073741827, 0, 196611, 536870917, 0, 196612, 0, 0, 196613, 2, 0, 196614, 536870916, 0, 196618, 1073741831, 0, 196619, -536870906, 0, 196620, 536870912, 0, 196621, 536870912, 0, 196622, 536870912, 0, 196623, 536870912, 0, 196624, 536870912, 0, 196625, 536870912, 0, 196626, 536870912, 0, 196627, 536870912, 0, 196628, 536870918, 0, 196629, 536870915, 0, 196630, 536870915, 0, 196631, 1610612736, 0, 196632, 1610612736, 0, 196633, 1610612736, 0, 196634, -1610612736, 0, 196635, 0, 0, 196636, 0, 0, 196637, 0, 0, 196638, 0, 0, 196639, 0, 0, 196640, 0, 0, 327651, -1610612736, 0, 327652, 536870915, 0, 327653, 536870915, 0, 327654, 536870915, 0, 327655, -536870906, 0, 327656, 0, 0, 327657, 0, 0, 327658, 0, 0, 327659, 0, 0, 327660, 0, 0, 327661, 0, 0, 327662, -1610612736, 0, 327663, -1610612732, 0, 327666, -1610612732, 0, 327667, -1610612732, 0, 327668, 0, 0, 327669, 1610612737, 0, 262145, 1610612738, 0, 262146, 1073741829, 0, 262147, 1073741827, 0, 262148, 536870917, 0, 262149, 1073741824, 0, 262150, 0, 0, 262151, 0, 0, 262155, -536870907, 0, 262156, 536870912, 0, 262157, 536870912, 0, 262158, 536870912, 0, 262159, 536870912, 0, 262160, 536870912, 0, 262161, 536870912, 0, 262162, 536870912, 0, 262163, 536870918, 0, 262164, 536870918, 0, 262165, 1610612736, 0, 262166, 1610612736, 0, 262167, 1610612736, 0, 262168, 1610612736, 0, 262169, 0, 0, 262170, -1610612736, 0, 262171, 0, 0, 262172, 0, 0, 262173, 0, 0, 262174, 0, 0, 262175, 0, 0, 262176, 0, 0, 393187, -1610612736, 0, 393188, 1073741829, 0, 393189, 536870915, 0, 393190, 536870915, 0, 393191, 536870915, 0, 393192, 536870917, 0, 393193, 0, 0, 393194, 0, 0, 393195, 0, 0, 393196, 0, 0, 393197, 0, 0, 393198, -2147483642, 0, 393199, 0, 0, 393202, -1073741820, 0, 393203, -1610612736, 0, 393204, 1610612737, 0, 327683, 1073741831, 0, 327684, 536870915, 0, 327685, 536870915, 0, 327686, 1073741830, 0, 327687, -1610612734, 0, 327690, 536870916, 0, 327691, 536870912, 0, 327692, 536870912, 0, 327693, 0, 0, 327694, 0, 0, 327695, 0, 0, 327696, 0, 0, 327697, 0, 0, 327698, 536870918, 0, 327699, 536870915, 0, 327700, 0, 0, 327701, 1610612736, 0, 327702, 1610612736, 0, 327703, 1610612736, 0, 327704, 0, 0, 327705, 0, 0, 327706, 0, 0, 327707, 0, 0, 327708, 0, 0, 327709, 0, 0, 327710, 0, 0, 327711, 0, 0, 327712, 0, 0, 458723, -1610612736, 0, 458724, 0, 0, 458725, 0, 0, 458726, 536870915, 0, 458727, 536870915, 0, 458728, 536870915, 0, 458729, 536870915, 0, 458730, 536870915, 0, 458731, 0, 0, 458732, 0, 0, 458733, 0, 0, 458734, -1610612736, 0, 458735, -1610612736, 0, 458736, -1610612734, 0, 458738, -1073741823, 0, 458739, -1610612734, 0, 393226, 0, 0, 393227, 536870912, 0, 393228, 536870912, 0, 393229, 536870912, 0, 393230, 0, 0, 393231, 0, 0, 393232, 0, 0, 393233, 536870918, 0, 393234, 536870915, 0, 393235, 0, 0, 393236, 0, 0, 393237, 0, 0, 393238, 0, 0, 393239, 1610612736, 0, 393240, 0, 0, 393241, 0, 0, 393242, 0, 0, 393243, 0, 0, 393244, 0, 0, 393245, 0, 0, 393246, 0, 0, 393247, 0, 0, 393248, 0, 0, 393249, 0, 0, 524259, -1610612736, 0, 524260, 0, 0, 524261, 0, 0, 524262, 1073741829, 0, 524263, 536870915, 0, 524264, 536870915, 0, 524265, 536870915, 0, 524266, 536870915, 0, 524267, 536870917, 0, 524268, 0, 0, 524269, 0, 0, 524270, -1610612734, 0, 458760, 1, 0, 458761, 0, 0, 458762, 536870912, 0, 458763, 536870912, 0, 458764, 536870912, 0, 458765, 536870912, 0, 458766, 0, 0, 458767, 536870918, 0, 458768, 536870915, 0, 458769, 536870915, 0, 458770, 0, 0, 458771, 0, 0, 458772, 0, 0, 458773, 0, 0, 458774, 0, 0, 458775, 0, 0, 458776, 0, 0, 458777, 0, 0, 458778, 0, 0, 458779, 0, 0, 458780, 0, 0, 458781, 0, 0, 458782, 0, 0, 458783, 0, 0, 458784, 0, 0, 458785, 0, 0, 589795, -1610612736, 0, 589796, 0, 0, 589797, 0, 0, 589798, 0, 0, 589799, 0, 0, 589800, 0, 0, 589801, 0, 0, 589802, 536870915, 0, 589803, 536870915, 0, 589804, 0, 0, 589805, 0, 0, 524292, 536870916, 0, 524293, 536870916, 0, 524294, 536870914, 0, 524295, 0, 0, 524296, 0, 0, 524297, 0, 0, 524298, 536870912, 0, 524299, 536870912, 0, 524300, 536870912, 0, 524301, 536870912, 0, 524302, 536870918, 0, 524303, 536870915, 0, 524304, 0, 0, 524305, 0, 0, 524306, 0, 0, 524307, 0, 0, 524308, 0, 0, 524309, 0, 0, 524310, 0, 0, 524311, 0, 0, 524312, 0, 0, 524313, 0, 0, 524314, 0, 0, 524315, 0, 0, 524316, 0, 0, 524317, 0, 0, 524318, 0, 0, 524319, 0, 0, 524320, 0, 0, 524321, 0, 0, 655331, -1610612736, 0, 655332, 0, 0, 655333, 0, 0, 655334, 0, 0, 655335, 0, 0, 655336, 0, 0, 655337, 0, 0, 655338, 536870915, 0, 655339, 536870915, 0, 655340, 0, 0, 655341, 0, 0, 655342, 536870913, 0, 589828, -1073741822, 0, 589829, 0, 0, 589830, 0, 0, 589831, 0, 0, 589832, 0, 0, 589833, 0, 0, 589834, 536870912, 0, 589835, 536870912, 0, 589836, 536870912, 0, 589837, 536870918, 0, 589838, 536870915, 0, 589839, 0, 0, 589840, 0, 0, 589841, 0, 0, 589842, 0, 0, 589843, 0, 0, 589844, 0, 0, 589845, 0, 0, 589846, 0, 0, 589847, 0, 0, 589848, 0, 0, 589849, 0, 0, 589850, 0, 0, 589851, 0, 0, 589852, 0, 0, 589853, 0, 0, 589854, 0, 0, 589855, 0, 0, 589856, 0, 0, 589857, 0, 0, 720867, -1610612736, 0, 720868, 0, 0, 720869, 0, 0, 720870, 0, 0, 720871, 0, 0, 720872, 0, 0, 720873, 0, 0, 720874, 0, 0, 720875, 536870915, 0, 720876, 0, 0, 720877, 0, 0, 720878, 536870912, 0, 720879, -1610612736, 0, 720880, -1610612736, 0, 720881, -1610612736, 0, 720882, -1610612736, 0, 720883, -1610612736, 0, 720884, -1610612736, 0, 720885, 0, 0, 720886, 2, 0, 720890, 1, 0, 720891, -2147483642, 0, 720892, 1610612741, 0, 720893, 2, 0, 655363, -1073741823, 0, 655364, -1073741824, 0, 655365, 0, 0, 655366, 0, 0, 655367, 0, 0, 655368, 0, 0, 655369, 536870918, 0, 655370, 536870917, 0, 655371, 536870912, 0, 655372, 536870918, 0, 655373, 536870915, 0, 655374, 536870915, 0, 655375, 0, 0, 655376, 0, 0, 655377, 0, 0, 655378, 0, 0, 655379, 0, 0, 655380, 0, 0, 655381, 0, 0, 655382, 0, 0, 655383, 0, 0, 655384, 0, 0, 655385, 0, 0, 655386, 0, 0, 655387, 0, 0, 655388, 0, 0, 655389, 0, 0, 655390, 0, 0, 655391, 0, 0, 655392, 0, 0, 655393, 0, 0, 786404, 0, 0, 786405, 0, 0, 786406, 0, 0, 786407, 0, 0, 786408, 0, 0, 786409, 0, 0, 786410, 0, 0, 786411, 536870915, 0, 786412, -536870906, 0, 786413, 536870915, 0, 786414, -536870906, 0, 786415, -1610612736, 0, 786416, -1610612736, 0, 786417, -1610612736, 0, 786418, -1610612736, 0, 786419, -1610612736, 0, 786420, -1610612736, 0, 786421, 536870912, 0, 786422, 536870912, 0, 786423, 536870912, 0, 786424, 536870912, 0, 786425, 536870912, 0, 786426, -1073741824, 0, 786427, -1073741824, 0, 786428, 536870912, 0, 786429, 536870912, 0, 786430, 536870912, 0, 786431, 536870912, 0, 720896, 536870912, 0, 720897, 536870912, 0, 720898, -1610612735, 0, 720900, -536870907, 0, 720901, 0, 0, 720902, 536870912, 0, 720903, 0, 0, 720904, 0, 0, 720905, 536870915, 0, 720906, -536870907, 0, 720907, 536870915, 0, 720908, 536870915, 0, 720909, -536870907, 0, 720910, 536870912, 0, 720911, 0, 0, 720912, 0, 0, 720913, 0, 0, 720914, 0, 0, 720915, 0, 0, 720916, 0, 0, 720917, 0, 0, 720918, 0, 0, 720919, 0, 0, 720920, 0, 0, 720921, 0, 0, 720922, 0, 0, 720923, 0, 0, 720924, 0, 0, 720925, 0, 0, 720926, 0, 0, 720927, 0, 0, 720928, 0, 0, 720929, 0, 0, 851940, 0, 0, 851941, 0, 0, 851942, 0, 0, 851943, 0, 0, 851944, 0, 0, 851945, 0, 0, 851946, 0, 0, 851947, 536870915, 0, 851948, 536870915, 0, 851949, 536870915, 0, 851950, 536870915, 0, 851951, 0, 0, 851952, -1610612736, 0, 851953, -1610612736, 0, 851954, -1610612736, 0, 851955, -1610612736, 0, 851956, -1610612736, 0, 851957, -1610612736, 0, 851958, -1610612736, 0, 851959, -1073741824, 0, 851960, -1610612736, 0, 851961, -1073741824, 0, 851962, -1073741824, 0, 851963, -1073741824, 0, 851964, -1073741824, 0, 851965, -1610612734, 0, 786432, -1073741817, 0, 786433, -1610612731, 0, 786434, -1610612734, 0, 786435, 536870916, 0, 786436, 536870912, 0, 786437, 536870912, 0, 786438, 536870912, 0, 786439, 536870912, 0, 786440, 536870912, 0, 786441, 536870915, 0, 786442, -536870907, 0, 786443, 536870912, 0, 786444, 536870912, 0, 786445, 536870912, 0, 786446, 536870912, 0, 786447, 536870912, 0, 786448, 0, 0, 786449, 0, 0, 786450, 0, 0, 786451, 0, 0, 786452, 0, 0, 786453, 0, 0, 786454, 0, 0, 786455, 0, 0, 786456, 0, 0, 786457, 0, 0, 786458, 0, 0, 786459, 0, 0, 786460, 0, 0, 786461, 0, 0, 786462, 0, 0, 786463, 0, 0, 786464, 0, 0, 786465, 0, 0, 786466, 0, 0, 917476, 0, 0, 917477, 0, 0, 917478, 0, 0, 917479, 0, 0, 917480, 0, 0, 917481, 0, 0, 917482, 0, 0, 917483, 0, 0, 917484, 536870915, 0, 917485, 536870915, 0, 917486, 536870915, 0, 917487, 536870915, 0, 917488, 0, 0, 917489, -1610612736, 0, 917490, -1610612736, 0, 917491, -1610612736, 0, 917492, -1610612736, 0, 917493, -1610612736, 0, 917494, -1610612736, 0, 917495, -1073741824, 0, 917496, -1610612736, 0, 917497, -1073741824, 0, 917498, -1073741824, 0, 917499, -1073741824, 0, 917500, -1073741824, 0, 851971, 536870914, 0, 851972, 536870912, 0, 851973, 536870912, 0, 851974, 536870912, 0, 851975, 536870912, 0, 851976, 536870918, 0, 851977, 536870915, 0, 851978, 536870912, 0, 851979, 536870912, 0, 851980, 536870912, 0, 851981, 536870912, 0, 851982, 0, 0, 851983, 536870912, 0, 851984, 0, 0, 851985, 0, 0, 851986, 0, 0, 851987, 0, 0, 851988, 0, 0, 851989, 0, 0, 851990, 0, 0, 851991, 0, 0, 851992, 0, 0, 851993, 0, 0, 851994, 0, 0, 851995, 0, 0, 851996, 0, 0, 851997, 0, 0, 851998, 0, 0, 851999, 0, 0, 852000, 0, 0, 852001, 0, 0, 852002, 0, 0, 852003, 0, 0, 983012, 0, 0, 983013, 0, 0, 983014, 0, 0, 983015, 0, 0, 983016, 0, 0, 983017, 0, 0, 983018, 0, 0, 983019, 0, 0, 983020, 0, 0, 983021, 536870915, 0, 983022, 536870915, 0, 983023, 536870915, 0, 983024, 536870917, 0, 983025, 0, 0, 983026, -1073741824, 0, 983027, -1073741824, 0, 983028, 536870917, 0, 983029, -1073741824, 0, 983030, -1610612736, 0, 983031, -1073741824, 0, 983032, 0, 0, 983033, -1073741824, 0, 983034, -1073741824, 0, 983035, -1073741824, 0, 983036, -1073741824, 0, 983037, -1610612729, 0, 983038, 536870916, 0, 983039, 536870914, 0, 917504, 536870912, 0, 917505, 536870912, 0, 917506, 536870912, 0, 917507, 536870912, 0, 917508, 0, 0, 917509, 536870912, 0, 917510, 536870912, 0, 917511, 536870918, 0, 917512, 536870915, 0, 917513, -536870907, 0, 917514, 536870912, 0, 917515, 536870912, 0, 917516, 536870912, 0, 917517, 536870912, 0, 917518, 536870912, 0, 917519, 0, 0, 917520, 0, 0, 917521, 0, 0, 917522, 0, 0, 917523, 0, 0, 917524, 0, 0, 917525, 0, 0, 917526, 0, 0, 917527, 0, 0, 917528, 0, 0, 917529, 0, 0, 917530, 0, 0, 917531, 0, 0, 917532, 0, 0, 917533, 0, 0, 917534, 0, 0, 917535, 0, 0, 917536, 0, 0, 917537, 0, 0, 917538, 0, 0, 1048548, 0, 0, 1048549, 0, 0, 1048550, 0, 0, 1048551, 0, 0, 1048552, 0, 0, 1048553, 0, 0, 1048554, 0, 0, 1048555, 0, 0, 1048556, 0, 0, 1048557, 536870915, 0, 1048558, 536870915, 0, 1048559, 536870915, 0, 1048560, 536870915, 0, 1048561, 0, 0, 1048562, 1610612736, 0, 1048563, 1610612739, 0, 1048564, 1610612739, 0, 1048565, 536870917, 0, 1048566, 0, 0, 1048567, 0, 0, 1048568, 0, 0, 1048569, 0, 0, 1048570, -1073741824, 0, 1048571, -1073741824, 0, 1048572, 5, 0, 1048573, 1610612739, 0, 1048574, 1610612741, 0, 1048575, 0, 0, 983040, 0, 0, 983041, 0, 0, 983042, 536870912, 0, 983043, 536870912, 0, 983044, 536870912, 0, 983045, 536870912, 0, 983046, 536870915, 0, 983047, 536870915, 0, 983048, 536870912, 0, 983049, 536870912, 0, 983050, 536870912, 0, 983051, 536870912, 0, 983052, 536870912, 0, 983053, 0, 0, 983054, 0, 0, 983055, 0, 0, 983056, 0, 0, 983057, 0, 0, 983058, 0, 0, 983059, 0, 0, 983060, 0, 0, 983061, 0, 0, 983062, 0, 0, 983063, 0, 0, 983064, 0, 0, 983065, 0, 0, 983066, 0, 0, 983067, 0, 0, 983068, 0, 0, 983069, 0, 0, 983070, 0, 0, 983071, 0, 0, 983072, 0, 0, 983073, 0, 0, 1114084, 0, 0, 1114085, 0, 0, 1114086, 0, 0, 1114087, 0, 0, 1114088, 0, 0, 1114089, 0, 0, 1114090, 0, 0, 1114091, 0, 0, 1114092, 0, 0, 1114093, 0, 0, 1114094, 536870915, 0, 1114095, 536870915, 0, 1114096, 536870915, 0, 1114097, 536870917, 0, 1114098, 0, 0, 1114099, 1610612739, 0, 1114100, 1610612739, 0, 1114101, 1610612739, 0, 1114102, 536870917, 0, 1114103, 0, 0, 1114104, 0, 0, 1114105, 0, 0, 1114106, -2147483642, 0, 1114107, 1610612739, 0, 1114108, 1610612739, 0, 1114109, 1610612741, 0, 1114110, 0, 0, 1114111, 0, 0, 1048576, 0, 0, 1048577, 0, 0, 1048578, 0, 0, 1048579, 0, 0, 1048580, 536870918, 0, 1048581, 536870918, 0, 1048582, 536870915, 0, 1048583, 0, 0, 1048584, 0, 0, 1048585, 0, 0, 1048586, 0, 0, 1048587, 0, 0, 1048588, 0, 0, 1048589, 0, 0, 1048590, 0, 0, 1048591, 0, 0, 1048592, 0, 0, 1048593, 0, 0, 1048594, 0, 0, 1048595, 0, 0, 1048596, 0, 0, 1048597, 0, 0, 1048598, 0, 0, 1048599, 0, 0, 1048600, 0, 0, 1048601, 0, 0, 1048602, 0, 0, 1048603, 0, 0, 1048604, 0, 0, 1048605, 0, 0, 1048606, 0, 0, 1048607, 0, 0, 1048608, 0, 0, 1179620, 0, 0, 1179621, 0, 0, 1179622, 0, 0, 1179623, 0, 0, 1179624, 0, 0, 1179625, 0, 0, 1179626, 0, 0, 1179627, 0, 0, 1179628, 0, 0, 1179629, 0, 0, 1179630, 0, 0, 1179631, 536870915, 0, 1179632, 536870915, 0, 1179633, 536870915, 0, 1179634, 0, 0, 1179635, 1610612739, 0, 1179636, 1610612739, 0, 1179637, 1610612739, 0, 1179638, 1610612741, 0, 1179639, 0, 0, 1179640, 0, 0, 1179641, 0, 0, 1179642, 0, 0, 1179643, 0, 0, 1179644, 0, 0, 1179645, 0, 0, 1179646, 0, 0, 1179647, 0, 0, 1114112, 0, 0, 1114113, 0, 0, 1114114, 0, 0, 1114115, 0, 0, 1114116, 536870915, 0, 1114117, 536870915, 0, 1114118, 0, 0, 1114119, 0, 0, 1114120, 0, 0, 1114121, 0, 0, 1114122, 0, 0, 1114123, 0, 0, 1114124, 0, 0, 1114125, 0, 0, 1114126, 0, 0, 1114127, 0, 0, 1114128, 0, 0, 1114129, 0, 0, 1114130, 0, 0, 1114131, 0, 0, 1114132, 0, 0, 1114133, 0, 0, 1114134, 0, 0, 1114135, 0, 0, 1114136, 0, 0, 1114137, 0, 0, 1114138, 0, 0, 1114139, 0, 0, 1114140, 0, 0, 1114141, 0, 0, 1114142, 0, 0, 1114143, 0, 0, 1245156, 0, 0, 1245157, 0, 0, 1245158, 0, 0, 1245159, 0, 0, 1245160, 0, 0, 1245161, 0, 0, 1245162, 0, 0, 1245163, 0, 0, 1245164, 0, 0, 1245165, 0, 0, 1245166, 0, 0, 1245167, 536870915, 0, 1245168, 536870915, 0, 1245169, 536870915, 0, 1245170, 0, 0, 1245171, 1610612739, 0, 1245172, 1610612739, 0, 1245173, 1610612741, 0, 1245174, 0, 0, 1245175, 0, 0, 1245176, 0, 0, 1245177, 0, 0, 1245178, 0, 0, 1245179, 0, 0, 1245180, 0, 0, 1245181, 0, 0, 1245182, 0, 0, 1245183, 0, 0, 1179648, 0, 0, 1179649, 0, 0, 1179650, 0, 0, 1179651, 0, 0, 1179652, 536870915, 0, 1179653, 0, 0, 1179654, 0, 0, 1179655, 0, 0, 1179656, 0, 0, 1179657, 0, 0, 1179658, 0, 0, 1179659, 0, 0, 1179660, 0, 0, 1179661, 0, 0, 1179662, 0, 0, 1179663, 0, 0, 1179664, 0, 0, 1179665, 0, 0, 1179666, 0, 0, 1179667, 0, 0, 1179668, 0, 0, 1179669, 0, 0, 1179670, 0, 0, 1179671, 0, 0, 1179672, 0, 0, 1179673, 0, 0, 1179674, 0, 0, 1179675, 0, 0, 1179676, 0, 0, 1179677, 0, 0, 1179678, 0, 0, 1179679, 0, 0, 1310692, 0, 0, 1310693, 0, 0, 1310694, 0, 0, 1310695, 0, 0, 1310696, 0, 0, 1310697, 0, 0, 1310698, 0, 0, 1310699, 0, 0, 1310700, 0, 0, 1310701, 0, 0, 1310702, 0, 0, 1310703, 0, 0, 1310704, 536870915, 0, 1310705, 536870915, 0, 1310706, 536870915, 0, 1310707, 536870915, 0, 1310708, 536870915, 0, 1310709, 536870915, 0, 1310710, 0, 0, 1310711, 0, 0, 1310712, 0, 0, 1310713, 0, 0, 1310714, 0, 0, 1310715, 0, 0, 1310716, 0, 0, 1310717, 0, 0, 1310718, 0, 0, 1310719, 0, 0, 1245184, 0, 0, 1245185, 0, 0, 1245186, 0, 0, 1245187, 536870918, 0, 1245188, 536870915, 0, 1245189, 0, 0, 1245190, 0, 0, 1245191, 0, 0, 1245192, 0, 0, 1245193, 0, 0, 1245194, 0, 0, 1245195, 0, 0, 1245196, 0, 0, 1245197, 0, 0, 1245198, 0, 0, 1245199, 0, 0, 1245200, 0, 0, 1245201, 0, 0, 1245202, 0, 0, 1245203, 0, 0, 1245204, 0, 0, 1245205, 0, 0, 1245206, 0, 0, 1245207, 0, 0, 1245208, 0, 0, 1245209, 0, 0, 1245210, 0, 0, 1245211, 0, 0, 1245212, 0, 0, 1245213, 0, 0, 1245214, 0, 0, 1245215, 0, 0, 1376228, 0, 0, 1376229, 0, 0, 1376230, 0, 0, 1376231, 0, 0, 1376232, 0, 0, 1376233, 0, 0, 1376234, 0, 0, 1376235, 0, 0, 1376236, 0, 0, 1376237, 0, 0, 1376238, 0, 0, 1376239, 0, 0, 1376240, 0, 0, 1376241, 0, 0, 1376242, 536870915, 0, 1376243, 536870915, 0, 1376244, 536870915, 0, 1376245, 536870915, 0, 1376246, 536870915, 0, 1376247, 0, 0, 1376248, 0, 0, 1376249, 0, 0, 1376250, 0, 0, 1376251, 0, 0, 1376252, 0, 0, 1376253, 0, 0, 1376254, 0, 0, 1376255, 0, 0, 1310720, 0, 0, 1310721, 536870918, 0, 1310722, 536870915, 0, 1310723, 536870915, 0, 1310724, 0, 0, 1310725, 0, 0, 1310726, 0, 0, 1310727, 0, 0, 1310728, 0, 0, 1310729, 0, 0, 1310730, 0, 0, 1310731, 0, 0, 1310732, 0, 0, 1310733, 0, 0, 1310734, 0, 0, 1310735, 0, 0, 1310736, 0, 0, 1310737, 0, 0, 1310738, 0, 0, 1310739, 0, 0, 1310740, 0, 0, 1310741, 0, 0, 1310742, 0, 0, 1310743, 0, 0, 1310744, 0, 0, 1310745, 0, 0, 1310746, 0, 0, 1310747, 0, 0, 1310748, 0, 0, 1310749, 0, 0, 1310750, 0, 0, 1310751, 0, 0, 1441764, 0, 0, 1441765, 0, 0, 1441766, 0, 0, 1441767, 0, 0, 1441768, 0, 0, 1441769, 0, 0, 1441770, 0, 0, 1441771, 0, 0, 1441772, 0, 0, 1441773, 0, 0, 1441774, 0, 0, 1441775, 0, 0, 1441776, 0, 0, 1441777, 0, 0, 1441778, 0, 0, 1441779, 0, 0, 1441780, 0, 0, 1441781, 536870915, 0, 1441782, 536870915, 0, 1441783, 536870915, 0, 1441784, 0, 0, 1441785, 0, 0, 1441786, 0, 0, 1441787, 0, 0, 1441788, 0, 0, 1441789, 0, 0, 1441790, 0, 0, 1441791, 536870918, 0, 1376256, 536870915, 0, 1376257, 536870915, 0, 1376258, 536870915, 0, 1376259, 0, 0, 1376260, 0, 0, 1376261, 0, 0, 1376262, 0, 0, 1376263, 0, 0, 1376264, 0, 0, 1376265, 0, 0, 1376266, 0, 0, 1376267, 0, 0, 1376268, 0, 0, 1376269, 0, 0, 1376270, 0, 0, 1376271, 0, 0, 1376272, 0, 0, 1376273, 0, 0, 1376274, 0, 0, 1376275, 0, 0, 1376276, 0, 0, 1376277, 0, 0, 1376278, 0, 0, 1376279, 0, 0, 1376280, 0, 0, 1376281, 0, 0, 1376282, 0, 0, 1376283, 0, 0, 1376284, 0, 0, 1376285, 0, 0, 1376286, 0, 0, 1376287, 0, 0, 1507300, 0, 0, 1507301, 0, 0, 1507302, 0, 0, 1507303, 0, 0, 1507304, 0, 0, 1507305, 0, 0, 1507306, 0, 0, 1507307, 0, 0, 1507308, 0, 0, 1507309, 0, 0, 1507310, 0, 0, 1507311, 0, 0, 1507312, 0, 0, 1507313, 0, 0, 1507314, 0, 0, 1507315, 0, 0, 1507316, 0, 0, 1507317, 0, 0, 1507318, 536870915, 0, 1507319, 536870915, 0, 1507320, 536870915, 0, 1507321, 0, 0, 1507322, 0, 0, 1507323, 0, 0, 1507324, 0, 0, 1507325, 0, 0, 1507326, 0, 0, 1507327, 536870915, 0, 1441792, 536870915, 0, 1441793, 0, 0, 1441794, 0, 0, 1441795, 0, 0, 1441796, 0, 0, 1441797, 0, 0, 1441798, 0, 0, 1441799, 0, 0, 1441800, 0, 0, 1441801, 0, 0, 1441802, 0, 0, 1441803, 0, 0, 1441804, 0, 0, 1441805, 0, 0, 1441806, 0, 0, 1441807, 0, 0, 1441808, 0, 0, 1441809, 0, 0, 1441810, 0, 0, 1441811, 0, 0, 1441812, 0, 0, 1441813, 0, 0, 1441814, 0, 0, 1441815, 0, 0, 1441816, 0, 0, 1441817, 0, 0, 1441818, 0, 0, 1441819, 0, 0, 1441820, 0, 0, 1441821, 0, 0, 1441822, 0, 0, 1441823, 0, 0, 1572836, 0, 0, 1572837, 0, 0, 1572838, 0, 0, 1572839, 0, 0, 1572840, 0, 0, 1572841, 0, 0, 1572842, 0, 0, 1572843, 0, 0, 1572844, 0, 0, 1572845, 0, 0, 1572846, 0, 0, 1572847, 0, 0, 1572848, 0, 0, 1572849, 0, 0, 1572850, 0, 0, 1572851, 0, 0, 1572852, 0, 0, 1572853, 0, 0, 1572854, 0, 0, 1572855, 0, 0, 1572856, 536870915, 0, 1572857, 536870915, 0, 1572858, 0, 0, 1572859, 0, 0, 1572860, 0, 0, 1572861, 0, 0, 1572862, 0, 0, 1572863, 0, 0, 1507328, 0, 0, 1507329, 0, 0, 1507330, 0, 0, 1507331, 0, 0, 1507332, 0, 0, 1507333, 0, 0, 1507334, 0, 0, 1507335, 0, 0, 1507336, 0, 0, 1507337, 0, 0, 1507338, 0, 0, 1507339, 0, 0, 1507340, 0, 0, 1507341, 0, 0, 1507342, 0, 0, 1507343, 0, 0, 1507344, 0, 0, 1507345, 0, 0, 1507346, 0, 0, 1507347, 0, 0, 1507348, 0, 0, 1507349, 0, 0, 1507350, 0, 0, 1507351, 0, 0, 1507352, 0, 0, 1507353, 0, 0, 1507354, 0, 0, 1507355, 0, 0, 1507356, 0, 0, 1507357, 0, 0, 1507358, 0, 0, 1507359, 0, 0, 1638372, 0, 0, 1638373, 0, 0, 1638374, 0, 0, 1638375, 0, 0, 1638376, 0, 0, 1638377, 0, 0, 1638378, 0, 0, 1638379, 0, 0, 1638380, 0, 0, 1638381, 0, 0, 1638382, 0, 0, 1638383, 0, 0, 1638384, 0, 0, 1638385, 0, 0, 1638386, 0, 0, 1638387, 0, 0, 1638388, 0, 0, 1638389, 0, 0, 1638390, 0, 0, 1638391, 0, 0, 1638392, 0, 0, 1638393, 0, 0, 1638394, 536870915, 0, 1638395, 536870915, 0, 1638396, 0, 0, 1638397, 0, 0, 1638398, 0, 0, 1638399, 0, 0, 1572864, 0, 0, 1572865, 0, 0, 1572866, 0, 0, 1572867, 0, 0, 1572868, 0, 0, 1572869, 0, 0, 1572870, 0, 0, 1572871, 0, 0, 1572872, 0, 0, 1572873, 0, 0, 1572874, 0, 0, 1572875, 0, 0, 1572876, 0, 0, 1572877, 0, 0, 1572878, 0, 0, 1572879, 0, 0, 1572880, 0, 0, 1572881, 0, 0, 1572882, 0, 0, 1572883, 0, 0, 1572884, 0, 0, 1572885, 0, 0, 1572886, 0, 0, 1572887, 0, 0, 1572888, 0, 0, 1572889, 0, 0, 1572890, 0, 0, 1572891, 0, 0, 1572892, 0, 0, 1572893, 0, 0, 1572894, 0, 0, 1572895, 0, 0, 1703926, 0, 0, 1703927, 0, 0, 1703928, 0, 0, 1703929, 0, 0, 1703930, 0, 0, 1703931, 0, 0, 1703932, 0, 0, 1703933, 0, 0, 1703934, 0, 0, 1703935, 0, 0, 1638400, 0, 0, 1638401, 0, 0, 1638402, 0, 0, 1638403, 0, 0, 1638404, 0, 0, 1638405, 0, 0, 1638406, 0, 0, 1638407, 0, 0, 1638408, 0, 0, 1638409, 0, 0, 1638410, 0, 0, 1638411, 0, 0, 1638412, 0, 0, 1638413, 0, 0, 1638414, 0, 0, 1638415, 0, 0, 1638416, 0, 0, 1638417, 0, 0, 1638418, 0, 0, 1638419, 0, 0, 1638420, 0, 0, 1638421, 0, 0, 1638422, 0, 0, 1638423, 0, 0, 1638424, 0, 0, 1638425, 0, 0, 1638426, 0, 0, 1638427, 0, 0, 1638428, 0, 0, 1638429, 0, 0, 1638430, 0, 0, 1638431, 0, 0, 1769470, 0, 0, 1769471, 0, 0, 1703936, 0, 0, 1703937, 0, 0, 1703938, 0, 0, 1703939, 0, 0, 1703940, 0, 0, 1703941, 0, 0, 1703942, 0, 0, 1703943, 0, 0, 1703944, 0, 0, 1703945, 0, 0, 1703946, 0, 0, 1703947, 0, 0, 1703948, 0, 0, 1703949, 0, 0, 1703950, 0, 0, 1703951, 0, 0, 1703952, 0, 0, 1703953, 0, 0, 1703954, 0, 0, 1703955, 0, 0, 1703956, 0, 0, 1703957, 0, 0, 1703958, 0, 0, 1703959, 0, 0, 1703960, 0, 0, 1703961, 0, 0, 1703962, 0, 0, 1703963, 0, 0, 1703964, 0, 0, 1703965, 0, 0, 1703966, 0, 0, 1703967, 0, 0, 1769476, 0, 0, 1769477, 0, 0, 1769478, 0, 0, 1769479, 0, 0, 1769480, 0, 0, 1769481, 0, 0, 1769482, 0, 0, 1769483, 0, 0, 1769484, 0, 0, 1769485, 0, 0, 1769486, 0, 0, 1769487, 0, 0, 1769488, 0, 0, 1769489, 0, 0, 1769490, 0, 0, 1769491, 0, 0, 1769492, 0, 0, 1769493, 0, 0, 1769494, 0, 0, 1769495, 0, 0, 1769496, 0, 0, 1769497, 0, 0, 1769498, 0, 0, 1769499, 0, 0, 1769500, 0, 0, 1769501, 0, 0, 1769502, 0, 0, 1769503, 0, 0, 1835019, 0, 0, 1835020, 0, 0, 1835021, 0, 0, 1835022, 0, 0, 1835023, 0, 0, 1835024, 0, 0, 1835025, 0, 0, 1835026, 0, 0, 1835027, 0, 0, 1835028, 0, 0, 1835029, 0, 0, 1835030, 0, 0, 1835031, 0, 0, 1835032, 0, 0, 1835033, 0, 0, 1835034, 0, 0, 1835035, 0, 0, 1835036, 0, 0, 1835037, 0, 0, 1835038, 0, 0, 1835039, 0, 0, 1900555, 0, 0, 1900556, 0, 0, 1900557, 0, 0, 1900558, 0, 0, 1900559, 0, 0, 1900560, 0, 0, 1900561, 0, 0, 1900562, 0, 0, 1900563, 0, 0, 1900564, 0, 0, 1900565, 0, 0, 1900566, 0, 0, 1900567, 0, 0, 1900568, 0, 0, 1900569, 0, 0, 1900570, 0, 0, 1900571, 0, 0, 1900572, 0, 0, 1900573, 0, 0, 1900574, 0, 0, 1900575, 0, 0, 1966091, 0, 0, 1966092, 0, 0, 1966093, 0, 0, 1966094, 0, 0, 1966095, 0, 0, 1966096, 0, 0, 1966097, 0, 0, 1966098, 0, 0, 1966099, 0, 0, 1966100, 0, 0, 1966101, 0, 0, 1966102, 0, 0, 1966103, 0, 0, 1966104, 0, 0, 1966105, 0, 0, 1966106, 0, 0, 1966107, 0, 0, 1966108, 0, 0, 1966109, 0, 0, 1966110, 0, 0, 1966111, 0, 0, 2031628, 0, 0 )

[node name="niveauSuivant" type="Area2D" parent="."]
position = Vector2( -144.071, 1370.92 )
script = ExtResource( 10 )
niveau = "res://niveau2.tscn"

[node name="CollisionShape2D" type="CollisionShape2D" parent="niveauSuivant"]
position = Vector2( -8.36853, 0 )
shape = SubResource( 9 )

[node name="AnimatedSprite" type="AnimatedSprite" parent="niveauSuivant"]
position = Vector2( 9.31812, -13.9771 )
frames = SubResource( 10 )
frame = 5
playing = true

[node name="player1" parent="." instance=ExtResource( 17 )]
position = Vector2( -1304.87, 760.439 )

[node name="player2" parent="." instance=ExtResource( 18 )]
position = Vector2( -1223.91, 729.655 )

[node name="AnimatedSprite" type="AnimatedSprite" parent="."]
position = Vector2( -634.364, 494.554 )
scale = Vector2( 2.03721, 2.32082 )
z_index = -2
frames = SubResource( 11 )
animation = "New Anim"
playing = true
__meta__ = {
"_edit_lock_": true
}

[node name="Node2D" parent="." instance=ExtResource( 31 )]
position = Vector2( -368.063, 885.211 )

[node name="Node2D2" parent="." instance=ExtResource( 31 )]
position = Vector2( -177.042, -65.226 )

[node name="Node2D3" parent="." instance=ExtResource( 31 )]
position = Vector2( -2017.35, 316.812 )

[node name="Node2D4" parent="." instance=ExtResource( 31 )]
position = Vector2( 992.368, 517.149 )

[connection signal="body_entered" from="Node2D" to="." method="_on_Node2D_body_entered"]
[connection signal="body_entered" from="Node2D2" to="." method="_on_Node2D2_body_entered"]
[connection signal="body_entered" from="Node2D3" to="." method="_on_Node2D3_body_entered"]
[connection signal="body_entered" from="Node2D4" to="." method="_on_Node2D4_body_entered"]
