[gd_scene load_steps=3 format=2]

[ext_resource path="res://fond_remplace.png" type="Texture" id=1]

[sub_resource type="CapsuleShape2D" id=1]
radius = 16.3111
height = 2.64823

[node name="StaticBody2D" type="StaticBody2D"]
collision_layer = 8
collision_mask = 3

[node name="Sprite" type="Sprite" parent="."]
position = Vector2( -0.358491, 0.716971 )
scale = Vector2( 0.244199, 0.242181 )
texture = ExtResource( 1 )

[node name="CollisionShape2D" type="CollisionShape2D" parent="."]
position = Vector2( -0.358475, 0.716965 )
shape = SubResource( 1 )
